{
	"@context": {
		"id": "@id",
		"graph": {
			"@id": "@graph",
			"@container": "@set"
		},
		"type": {
			"@id": "@type",
			"@container": "@set"
		},
		"rdf": "http://www.w3.org/1999/02/22-rdf-syntax-ns#",
		"first": {
			"@id": "rdf:first",
			"@type": "@id",
			"@container": "@set"
		},
		"rest": {
			"@id": "rdf:rest",
			"@type": "@id",
			"@container": "@set"
		},
		"rdfs": "http://www.w3.org/2000/01/rdf-schema#",
		"xsd": "http://www.w3.org/2001/XMLSchema#",
		"sh": "https://www.w3.org/ns/shacl#",
		"dct": "http://purl.org/dc/terms/",
		"domain": {
			"@id": "rdfs:domain",
			"@type": "@id",
			"@container": "@set"
		},
		"range": {
			"@id": "rdfs:range",
			"@type": "@id",
			"@container": "@set"
		},
		"label": {
			"@id": "rdfs:label",
			"@container": "@set"
		},
		"comment": {
			"@id": "rdfs:comment",
			"@container": "@set"
		},
		"subClassOf": {
			"@id": "rdfs:subClassOf",
			"@type": "@id",
			"@container": "@set"
		},
		"subPropertyOf": {
			"@id": "rdfs:subPropertyOf",
			"@type": "@id",
			"@container": "@set"
		},
		"isDefinedBy": {
			"@id": "rdfs:isDefinedBy",
			"@container": "@set"
		},
		"seeAlso": {
			"@id": "rdfs:seeAlso",
			"@container": "@set"
		},
		"maxCount": {
			"@id": "sh:maxCount",
			"@type": "xsd:integer"
		},
		"minCount": {
			"@id": "sh:minCount",
			"@type": "xsd:integer"
		},
		"path": {
			"@id": "sh:path",
			"@type": "@id",
			"@container": "@set"
		},
		"title": {
			"@id": "dct:title",
			"@container": "@set"
		},
		"description": {
			"@id": "dct:description",
			"@container": "@set"
		},
		"date": {
			"@id": "dct:date",
			"@container": "@set"
		},
		"owl": "http://www.w3.org/2002/07/owl#",
		"inverseOf": {
			"@id": "owl:inverseOf",
			"@type": "@id",
			"@container": "@set"
		},
		"disjointWith": {
			"@id": "owl:disjointWith",
			"@type": "@id",
			"@container": "@set"
		},
		"unionOf": {
			"@id": "owl:unionOf",
			"@type": "@id",
			"@container": "@set"
		},
		"versionInfo": {
			"@id": "owl:versionInfo",
			"@container": "@set"
		},
		"imports": {
			"@id": "owl:imports",
			"@container": "@set"
		},
		"versionIRI": {
			"@id": "owl:versionIRI",
			"@container": "@set"
		},
		"contributor": {
			"@id": "dct:contributor",
			"@container": "@set"
		},
		"creator": {
			"@id": "dct:creator",
			"@container": "@set"
		},
		"created": {
			"@id": "dct:created",
			"@container": "@set"
		},
		"modified": {
			"@id": "dct:modified",
			"@container": "@set"
		},
		"license": {
			"@id": "dct:license",
			"@container": "@set"
		},
		"skos": "http://www.w3.org/2004/02/skos/core#",
		"gendj": "https://gen.competencies.be/terms/digitalJobs/",
		"inScheme": {
			"@id": "skos:inScheme",
			"@type": "@id",
			"@container": "@set"
		},
		"prefLabel": {
			"@id": "skos:prefLabel",
			"@container": "@set"
		},
		"altLabel": {
			"@id": "skos:altLabel",
			"@container": "@set"
		},
		"narrower": {
			"@id": "skos:narrower",
			"@type": "@id",
			"@container": "@set"
		},
		"broader": {
			"@id": "skos:broader",
			"@type": "@id",
			"@container": "@set"
		},
		"member": {
			"@id": "skos:member",
			"@type": "@id",
			"@container": "@set"
		},
		"definition": {
			"@id": "skos:definition",
			"@container": "@set"
		},
		"scopeNote": {
			"@id": "skos:scopeNote",
			"@container": "@set"
		},
		"example": {
			"@id": "skos:example",
			"@container": "@set"
		},
		"om": "https://ontomodel.competencies.be/ontomodel/",
		"index": {
			"@id": "om:index",
			"@type": "@id",
			"@container": "@set"
		},
		"icon": {
			"@id": "om:icon"
		},
		"records": {
			"@id": "om:records",
			"@type": "@id",
			"@container": "@set"
		},
		"ii": "https://mm.competencies.be/indexInstruction/",
		"instruction": {
			"@id": "ii:instruction",
			"@type": "@id",
			"@container": "@set"
		},
		"oep": "http://ontology.datasud.fr/openemploi/"
	},
	"graph": [
		{
			"id": "oep:Ontology",
			"type": [
				"owl:Ontology"
			],
			"description": [
				{
					"@language": "fr",
					"@value": "Ontologie pour la description des relations entre compétences et pour le lien entre données de l'emploi et données de la formation."
				}
			],
			"title": [
				{
					"@language": "fr",
					"@value": "Ontologie Open Emploi"
				}
			],
			"instruction": [
				"ii:defaultIndex_Class",
				"ii:defaultIndex_Property",
				"ii:defaultIndex_Term",
				"ii:defaultIndex_Datatype"
			],
			"index": [
				"oep:defaultIndex_Class_0",
				"oep:defaultIndex_Property_1",
				"oep:defaultIndex_Term_2",
				"oep:defaultIndex_Datatype_3"
			]
		},
		{
			"id": "oep:defaultIndex_Class_0",
			"type": [
				"om:OntoIndex"
			],
			"title": [
				{
					"@language": "fr",
					"@value": "Les classes"
				},
				{
					"@language": "en",
					"@value": "Classes"
				}
			],
			"icon": "BubbleChart",
			"records": [
				"oep:scheme_for_Class_generated"
			]
		},
		{
			"id": "oep:defaultIndex_Property_1",
			"type": [
				"om:OntoIndex"
			],
			"title": [
				{
					"@language": "fr",
					"@value": "Les propriétés"
				}
			],
			"icon": "DeviceHub",
			"records": [
				"oep:scheme_for_Property_generated"
			]
		},
		{
			"id": "oep:defaultIndex_Term_2",
			"type": [
				"om:OntoIndex"
			],
			"title": [
				{
					"@language": "fr",
					"@value": "Les référentiels"
				}
			],
			"icon": "AccountTree",
			"records": []
		},
		{
			"id": "oep:defaultIndex_Datatype_3",
			"type": [
				"om:OntoIndex"
			],
			"title": [
				{
					"@language": "fr",
					"@value": "Les Datatypes"
				}
			],
			"icon": "DataObject",
			"records": []
		}
	]
}