{
	"@context": {
		"id": "@id",
		"graph": {
			"@id": "@graph",
			"@container": "@set"
		},
		"type": {
			"@id": "@type",
			"@container": "@set"
		},
		"rdf": "http://www.w3.org/1999/02/22-rdf-syntax-ns#",
		"first": {
			"@id": "rdf:first",
			"@type": "@id",
			"@container": "@set"
		},
		"rest": {
			"@id": "rdf:rest",
			"@type": "@id",
			"@container": "@set"
		},
		"rdfs": "http://www.w3.org/2000/01/rdf-schema#",
		"domain": {
			"@id": "rdfs:domain",
			"@type": "@id",
			"@container": "@set"
		},
		"range": {
			"@id": "rdfs:range",
			"@type": "@id",
			"@container": "@set"
		},
		"label": {
			"@id": "rdfs:label",
			"@container": "@set"
		},
		"comment": {
			"@id": "rdfs:comment",
			"@container": "@set"
		},
		"subClassOf": {
			"@id": "rdfs:subClassOf",
			"@type": "@id",
			"@container": "@set"
		},
		"subPropertyOf": {
			"@id": "rdfs:subPropertyOf",
			"@type": "@id",
			"@container": "@set"
		},
		"isDefinedBy": {
			"@id": "rdfs:isDefinedBy",
			"@container": "@set"
		},
		"seeAlso": {
			"@id": "rdfs:seeAlso",
			"@container": "@set"
		},
		"owl": "http://www.w3.org/2002/07/owl#",
		"inverseOf": {
			"@id": "owl:inverseOf",
			"@type": "@id",
			"@container": "@set"
		},
		"disjointWith": {
			"@id": "owl:disjointWith",
			"@type": "@id",
			"@container": "@set"
		},
		"unionOf": {
			"@id": "owl:unionOf",
			"@type": "@id",
			"@container": "@set"
		},
		"versionInfo": {
			"@id": "owl:versionInfo",
			"@container": "@set"
		},
		"imports": {
			"@id": "owl:imports",
			"@container": "@set"
		},
		"versionIRI": {
			"@id": "owl:versionIRI",
			"@container": "@set"
		},
		"maxCardinality": {
			"@id": "owl:maxCardinality",
			"@container": "@set"
		},
		"dct": "http://purl.org/dc/terms/",
		"contributor": {
			"@id": "dct:contributor",
			"@container": "@set"
		},
		"creator": {
			"@id": "dct:creator",
			"@container": "@set"
		},
		"title_dct": {
			"@id": "dct:title",
			"@container": "@set"
		},
		"created": {
			"@id": "dct:created",
			"@container": "@set"
		},
		"modified": {
			"@id": "dct:modified",
			"@container": "@set"
		},
		"issued": {
			"@id": "dct:issued",
			"@container": "@set"
		},
		"skos": "http://www.w3.org/2004/02/skos/core#",
		"inScheme": {
			"@id": "skos:inScheme",
			"@type": "@id",
			"@container": "@set"
		},
		"definition": {
			"@id": "skos:definition",
			"@container": "@set"
		},
		"historyNote": {
			"@id": "skos:historyNote",
			"@container": "@set"
		},
		"foaf": "http://xmlns.com/foaf/0.1/",
		"sch": "http://schema.org/",
		"description": {
			"@id": "sch:description",
			"@container": "@set"
		},
		"xsd": "http://www.w3.org/2001/XMLSchema#",
		"vs": "http://www.w3.org/2003/06/sw-vocab-status/ns#",
		"term_status": {
			"@id": "vs:term_status",
			"@container": "@set"
		},
		"esco": "http://data.europa.eu/esco/model#"
	},
	"graph": [
		{
			"id": "_:b0_n0",
			"type": [
				"rdfs:Datatype"
			],
			"unionOf": [
				"_:b0_n125"
			],
			"inScheme": [
				"esco:scheme_for_rdfs:Datatype_generated"
			]
		},
		{
			"id": "_:b0_n10",
			"xsd:pattern": "proposed"
		},
		{
			"id": "_:b0_n100",
			"comment": [
				{
					"@language": "en",
					"@value": ""
				}
			]
		},
		{
			"id": "_:b0_n101",
			"comment": [
				{
					"@language": "en",
					"@value": ""
				}
			]
		},
		{
			"id": "_:b0_n102",
			"comment": [
				{
					"@language": "en",
					"@value": ""
				}
			]
		},
		{
			"id": "_:b0_n103",
			"comment": [
				{
					"@language": "en",
					"@value": "The ISO 639-1 code  of the language (2-char language code) associated with the provided literal."
				}
			]
		},
		{
			"id": "_:b0_n104",
			"comment": [
				{
					"@language": "en",
					"@value": "The literal value. In case it is plain text, no datatype must be specified. In case of an XHTML fragment the datatype rdf:XMLLiteral must be specified"
				}
			]
		},
		{
			"id": "_:b0_n105",
			"comment": [
				{
					"@language": "en",
					"@value": ""
				}
			]
		},
		{
			"id": "_:b0_n106",
			"comment": [
				{
					"@language": "en",
					"@value": "This property is used to point to the information topic that an additional note is about. The different topics are encoded as skos:Concepts in <http://data.europa.eu/esco/concept-scheme/qualification-topics>"
				}
			]
		},
		{
			"id": "_:b0_n107",
			"rdf:resouce": "http://data.europa.eu/esco/model#language"
		},
		{
			"id": "_:b0_n108",
			"first": [
				"esco:SimpleConcept"
			],
			"rest": [
				"rdf:nill"
			]
		},
		{
			"id": "_:b0_n109",
			"first": [
				"esco:FacetedConcept"
			],
			"rest": [
				"_:b0_n108"
			]
		},
		{
			"id": "_:b0_n11",
			"type": [
				"rdfs:Datatype"
			],
			"unionOf": [
				"_:b0_n128"
			],
			"inScheme": [
				"esco:scheme_for_rdfs:Datatype_generated"
			]
		},
		{
			"id": "_:b0_n110",
			"first": [
				"esco:Skill"
			],
			"rest": [
				"rdf:nill"
			]
		},
		{
			"id": "_:b0_n111",
			"first": [
				"esco:Qualification"
			],
			"rest": [
				"_:b0_n110"
			]
		},
		{
			"id": "_:b0_n112",
			"first": [
				"esco:Occupation"
			],
			"rest": [
				"_:b0_n111"
			]
		},
		{
			"id": "_:b0_n113",
			"first": [
				"esco:Skill"
			],
			"rest": [
				"rdf:nill"
			]
		},
		{
			"id": "_:b0_n114",
			"first": [
				"esco:Qualification"
			],
			"rest": [
				"_:b0_n113"
			]
		},
		{
			"id": "_:b0_n115",
			"first": [
				"esco:Occupation"
			],
			"rest": [
				"_:b0_n114"
			]
		},
		{
			"id": "_:b0_n116",
			"first": [
				"skos:broaderTransitive"
			],
			"rest": [
				"rdf:nill"
			]
		},
		{
			"id": "_:b0_n117",
			"first": [
				"esco:broaderInstance"
			],
			"rest": [
				"_:b0_n116"
			]
		},
		{
			"id": "_:b0_n118",
			"first": [
				"skos:broaderTransitive"
			],
			"rest": [
				"rdf:nill"
			]
		},
		{
			"id": "_:b0_n119",
			"first": [
				"esco:broaderInstance"
			],
			"rest": [
				"_:b0_n118"
			]
		},
		{
			"id": "_:b0_n120",
			"first": [
				"esco:constructedFrom"
			],
			"rest": [
				"_:b0_n119"
			]
		},
		{
			"id": "_:b0_n121",
			"first": [
				"http://purl.org/iso25964/skos-thes#plusUFTerm"
			],
			"rest": [
				"rdf:nill"
			]
		},
		{
			"id": "_:b0_n122",
			"first": [
				"http://www.w3.org/2008/05/skos-xl#prefLabel"
			],
			"rest": [
				"_:b0_n121"
			]
		},
		{
			"id": "_:b0_n123",
			"first": [
				"_:b0_n8"
			],
			"rest": [
				"rdf:nill"
			]
		},
		{
			"id": "_:b0_n124",
			"first": [
				"_:b0_n5"
			],
			"rest": [
				"_:b0_n123"
			]
		},
		{
			"id": "_:b0_n125",
			"first": [
				"_:b0_n2"
			],
			"rest": [
				"_:b0_n124"
			]
		},
		{
			"id": "_:b0_n126",
			"first": [
				"_:b0_n19"
			],
			"rest": [
				"rdf:nill"
			]
		},
		{
			"id": "_:b0_n127",
			"first": [
				"_:b0_n16"
			],
			"rest": [
				"_:b0_n126"
			]
		},
		{
			"id": "_:b0_n128",
			"first": [
				"_:b0_n13"
			],
			"rest": [
				"_:b0_n127"
			]
		},
		{
			"id": "_:b0_n129",
			"first": [
				"_:b0_n15"
			],
			"rest": [
				"rdf:nill"
			]
		},
		{
			"id": "_:b0_n13",
			"type": [
				"rdfs:Datatype"
			],
			"owl:onDatatype": {
				"id": "xsd:string"
			},
			"owl:withRestrictions": {
				"id": "_:b0_n129"
			},
			"inScheme": [
				"esco:scheme_for_rdfs:Datatype_generated"
			]
		},
		{
			"id": "_:b0_n130",
			"first": [
				"_:b0_n18"
			],
			"rest": [
				"rdf:nill"
			]
		},
		{
			"id": "_:b0_n131",
			"first": [
				"_:b0_n21"
			],
			"rest": [
				"rdf:nill"
			]
		},
		{
			"id": "_:b0_n132",
			"first": [
				"_:b0_n4"
			],
			"rest": [
				"rdf:nill"
			]
		},
		{
			"id": "_:b0_n133",
			"first": [
				"_:b0_n39"
			],
			"rest": [
				"rdf:nill"
			]
		},
		{
			"id": "_:b0_n134",
			"first": [
				"_:b0_n36"
			],
			"rest": [
				"_:b0_n133"
			]
		},
		{
			"id": "_:b0_n135",
			"first": [
				"_:b0_n33"
			],
			"rest": [
				"_:b0_n134"
			]
		},
		{
			"id": "_:b0_n136",
			"first": [
				"_:b0_n30"
			],
			"rest": [
				"_:b0_n135"
			]
		},
		{
			"id": "_:b0_n137",
			"first": [
				"_:b0_n27"
			],
			"rest": [
				"_:b0_n136"
			]
		},
		{
			"id": "_:b0_n138",
			"first": [
				"_:b0_n24"
			],
			"rest": [
				"_:b0_n137"
			]
		},
		{
			"id": "_:b0_n139",
			"first": [
				"_:b0_n26"
			],
			"rest": [
				"rdf:nill"
			]
		},
		{
			"id": "_:b0_n140",
			"first": [
				"_:b0_n29"
			],
			"rest": [
				"rdf:nill"
			]
		},
		{
			"id": "_:b0_n141",
			"first": [
				"_:b0_n32"
			],
			"rest": [
				"rdf:nill"
			]
		},
		{
			"id": "_:b0_n142",
			"first": [
				"_:b0_n35"
			],
			"rest": [
				"rdf:nill"
			]
		},
		{
			"id": "_:b0_n143",
			"first": [
				"_:b0_n38"
			],
			"rest": [
				"rdf:nill"
			]
		},
		{
			"id": "_:b0_n144",
			"first": [
				"_:b0_n41"
			],
			"rest": [
				"rdf:nill"
			]
		},
		{
			"id": "_:b0_n145",
			"first": [
				"skos:Concept"
			],
			"rest": [
				"rdf:nill"
			]
		},
		{
			"id": "_:b0_n146",
			"first": [
				"skos:Collection"
			],
			"rest": [
				"_:b0_n145"
			]
		},
		{
			"id": "_:b0_n147",
			"first": [
				"esco:Skill"
			],
			"rest": [
				"rdf:nill"
			]
		},
		{
			"id": "_:b0_n148",
			"first": [
				"esco:Occupation"
			],
			"rest": [
				"_:b0_n147"
			]
		},
		{
			"id": "_:b0_n149",
			"first": [
				"esco:Skill"
			],
			"rest": [
				"rdf:nill"
			]
		},
		{
			"id": "_:b0_n15",
			"xsd:pattern": "obsolete"
		},
		{
			"id": "_:b0_n150",
			"first": [
				"esco:Occupation"
			],
			"rest": [
				"_:b0_n149"
			]
		},
		{
			"id": "_:b0_n151",
			"first": [
				"esco:Skill"
			],
			"rest": [
				"rdf:nill"
			]
		},
		{
			"id": "_:b0_n152",
			"first": [
				"esco:Occupation"
			],
			"rest": [
				"_:b0_n151"
			]
		},
		{
			"id": "_:b0_n153",
			"first": [
				"_:b0_n7"
			],
			"rest": [
				"rdf:nill"
			]
		},
		{
			"id": "_:b0_n154",
			"first": [
				"esco:Skill"
			],
			"rest": [
				"rdf:nill"
			]
		},
		{
			"id": "_:b0_n155",
			"first": [
				"esco:Occupation"
			],
			"rest": [
				"_:b0_n154"
			]
		},
		{
			"id": "_:b0_n156",
			"first": [
				"esco:Skill"
			],
			"rest": [
				"rdf:nill"
			]
		},
		{
			"id": "_:b0_n157",
			"first": [
				"esco:Occupation"
			],
			"rest": [
				"_:b0_n156"
			]
		},
		{
			"id": "_:b0_n158",
			"first": [
				"esco:Skill"
			],
			"rest": [
				"rdf:nill"
			]
		},
		{
			"id": "_:b0_n159",
			"first": [
				"esco:Occupation"
			],
			"rest": [
				"_:b0_n158"
			]
		},
		{
			"id": "_:b0_n16",
			"type": [
				"rdfs:Datatype"
			],
			"owl:onDatatype": {
				"id": "xsd:string"
			},
			"owl:withRestrictions": {
				"id": "_:b0_n130"
			},
			"inScheme": [
				"esco:scheme_for_rdfs:Datatype_generated"
			]
		},
		{
			"id": "_:b0_n160",
			"first": [
				"esco:Skill"
			],
			"rest": [
				"rdf:nill"
			]
		},
		{
			"id": "_:b0_n161",
			"first": [
				"esco:Occupation"
			],
			"rest": [
				"_:b0_n160"
			]
		},
		{
			"id": "_:b0_n162",
			"first": [
				"esco:Skill"
			],
			"rest": [
				"rdf:nill"
			]
		},
		{
			"id": "_:b0_n163",
			"first": [
				"esco:Occupation"
			],
			"rest": [
				"_:b0_n162"
			]
		},
		{
			"id": "_:b0_n164",
			"first": [
				"skos:Concept"
			],
			"rest": [
				"rdf:nill"
			]
		},
		{
			"id": "_:b0_n165",
			"first": [
				"esco:Label"
			],
			"rest": [
				"_:b0_n164"
			]
		},
		{
			"id": "_:b0_n166",
			"first": [
				"http://www.w3.org/2008/05/skos-xl#Label"
			],
			"rest": [
				"rdf:nill"
			]
		},
		{
			"id": "_:b0_n167",
			"first": [
				"skos:Concept"
			],
			"rest": [
				"_:b0_n166"
			]
		},
		{
			"id": "_:b0_n168",
			"first": [
				"esco:SkillReuseLevel"
			],
			"rest": [
				"rdf:nill"
			]
		},
		{
			"id": "_:b0_n169",
			"first": [
				"esco:Concept"
			],
			"rest": [
				"_:b0_n168"
			]
		},
		{
			"id": "_:b0_n170",
			"first": [
				"_:b0_n10"
			],
			"rest": [
				"rdf:nill"
			]
		},
		{
			"id": "_:b0_n18",
			"xsd:pattern": "released"
		},
		{
			"id": "_:b0_n19",
			"type": [
				"rdfs:Datatype"
			],
			"owl:onDatatype": {
				"id": "xsd:string"
			},
			"owl:withRestrictions": {
				"id": "_:b0_n131"
			},
			"inScheme": [
				"esco:scheme_for_rdfs:Datatype_generated"
			]
		},
		{
			"id": "_:b0_n2",
			"type": [
				"rdfs:Datatype"
			],
			"owl:onDatatype": {
				"id": "xsd:string"
			},
			"owl:withRestrictions": {
				"id": "_:b0_n132"
			},
			"inScheme": [
				"esco:scheme_for_rdfs:Datatype_generated"
			]
		},
		{
			"id": "_:b0_n21",
			"xsd:pattern": "to be reviewed"
		},
		{
			"id": "_:b0_n22",
			"type": [
				"rdfs:Datatype"
			],
			"unionOf": [
				"_:b0_n138"
			],
			"inScheme": [
				"esco:scheme_for_rdfs:Datatype_generated"
			]
		},
		{
			"id": "_:b0_n24",
			"type": [
				"rdfs:Datatype"
			],
			"owl:onDatatype": {
				"id": "xsd:string"
			},
			"owl:withRestrictions": {
				"id": "_:b0_n139"
			},
			"inScheme": [
				"esco:scheme_for_rdfs:Datatype_generated"
			]
		},
		{
			"id": "_:b0_n26",
			"xsd:pattern": "approved"
		},
		{
			"id": "_:b0_n27",
			"type": [
				"rdfs:Datatype"
			],
			"owl:onDatatype": {
				"id": "xsd:string"
			},
			"owl:withRestrictions": {
				"id": "_:b0_n140"
			},
			"inScheme": [
				"esco:scheme_for_rdfs:Datatype_generated"
			]
		},
		{
			"id": "_:b0_n29",
			"xsd:pattern": "prepared"
		},
		{
			"id": "_:b0_n30",
			"type": [
				"rdfs:Datatype"
			],
			"owl:onDatatype": {
				"id": "xsd:string"
			},
			"owl:withRestrictions": {
				"id": "_:b0_n141"
			},
			"inScheme": [
				"esco:scheme_for_rdfs:Datatype_generated"
			]
		},
		{
			"id": "_:b0_n32",
			"xsd:pattern": "proposed"
		},
		{
			"id": "_:b0_n33",
			"type": [
				"rdfs:Datatype"
			],
			"owl:onDatatype": {
				"id": "xsd:string"
			},
			"owl:withRestrictions": {
				"id": "_:b0_n142"
			},
			"inScheme": [
				"esco:scheme_for_rdfs:Datatype_generated"
			]
		},
		{
			"id": "_:b0_n35",
			"xsd:pattern": "rejected"
		},
		{
			"id": "_:b0_n36",
			"type": [
				"rdfs:Datatype"
			],
			"owl:onDatatype": {
				"id": "xsd:string"
			},
			"owl:withRestrictions": {
				"id": "_:b0_n143"
			},
			"inScheme": [
				"esco:scheme_for_rdfs:Datatype_generated"
			]
		},
		{
			"id": "_:b0_n38",
			"xsd:pattern": "released"
		},
		{
			"id": "_:b0_n39",
			"type": [
				"rdfs:Datatype"
			],
			"owl:onDatatype": {
				"id": "xsd:string"
			},
			"owl:withRestrictions": {
				"id": "_:b0_n144"
			},
			"inScheme": [
				"esco:scheme_for_rdfs:Datatype_generated"
			]
		},
		{
			"id": "_:b0_n4",
			"xsd:pattern": "approved"
		},
		{
			"id": "_:b0_n41",
			"xsd:pattern": "to be reviewed"
		},
		{
			"id": "_:b0_n42",
			"type": [
				"owl:Class",
				"rdfs:Class"
			],
			"unionOf": [
				"_:b0_n146"
			],
			"inScheme": [
				"esco:scheme_for_rdfs:Class_generated"
			]
		},
		{
			"id": "_:b0_n44",
			"type": [
				"owl:Class",
				"rdfs:Class"
			],
			"unionOf": [
				"_:b0_n148"
			],
			"inScheme": [
				"esco:scheme_for_rdfs:Class_generated"
			]
		},
		{
			"id": "_:b0_n46",
			"type": [
				"owl:Class",
				"rdfs:Class"
			],
			"unionOf": [
				"_:b0_n150"
			],
			"inScheme": [
				"esco:scheme_for_rdfs:Class_generated"
			]
		},
		{
			"id": "_:b0_n48",
			"type": [
				"owl:Class",
				"rdfs:Class"
			],
			"unionOf": [
				"_:b0_n152"
			],
			"inScheme": [
				"esco:scheme_for_rdfs:Class_generated"
			]
		},
		{
			"id": "_:b0_n5",
			"type": [
				"rdfs:Datatype"
			],
			"owl:onDatatype": {
				"id": "xsd:string"
			},
			"owl:withRestrictions": {
				"id": "_:b0_n153"
			},
			"inScheme": [
				"esco:scheme_for_rdfs:Datatype_generated"
			]
		},
		{
			"id": "_:b0_n50",
			"type": [
				"owl:Class",
				"rdfs:Class"
			],
			"unionOf": [
				"_:b0_n155"
			],
			"inScheme": [
				"esco:scheme_for_rdfs:Class_generated"
			]
		},
		{
			"id": "_:b0_n55",
			"type": [
				"owl:Class",
				"rdfs:Class"
			],
			"unionOf": [
				"_:b0_n157"
			],
			"inScheme": [
				"esco:scheme_for_rdfs:Class_generated"
			]
		},
		{
			"id": "_:b0_n57",
			"type": [
				"owl:Class",
				"rdfs:Class"
			],
			"unionOf": [
				"_:b0_n159"
			],
			"inScheme": [
				"esco:scheme_for_rdfs:Class_generated"
			]
		},
		{
			"id": "_:b0_n59",
			"type": [
				"owl:Class",
				"rdfs:Class"
			],
			"unionOf": [
				"_:b0_n161"
			],
			"inScheme": [
				"esco:scheme_for_rdfs:Class_generated"
			]
		},
		{
			"id": "_:b0_n61",
			"type": [
				"owl:Class",
				"rdfs:Class"
			],
			"unionOf": [
				"_:b0_n163"
			],
			"inScheme": [
				"esco:scheme_for_rdfs:Class_generated"
			]
		},
		{
			"id": "_:b0_n63",
			"type": [
				"owl:Class",
				"rdfs:Class"
			],
			"unionOf": [
				"_:b0_n165"
			],
			"inScheme": [
				"esco:scheme_for_rdfs:Class_generated"
			]
		},
		{
			"id": "_:b0_n65",
			"rdf:resouce": "http://data.europa.eu/esco/model"
		},
		{
			"id": "_:b0_n66",
			"type": [
				"owl:Class",
				"rdfs:Class"
			],
			"unionOf": [
				"_:b0_n167"
			],
			"inScheme": [
				"esco:scheme_for_rdfs:Class_generated"
			]
		},
		{
			"id": "_:b0_n68",
			"type": [
				"owl:Class",
				"rdfs:Class"
			],
			"unionOf": [
				"_:b0_n169"
			],
			"inScheme": [
				"esco:scheme_for_rdfs:Class_generated"
			]
		},
		{
			"id": "_:b0_n7",
			"xsd:pattern": "prepared"
		},
		{
			"id": "_:b0_n70",
			"type": [
				"owl:Restriction"
			],
			"owl:cardinality": {
				"type": "xsd:nonNegativeInteger",
				"@value": "1"
			},
			"owl:onProperty": {
				"id": "esco:isAssociationFor"
			}
		},
		{
			"id": "_:b0_n71",
			"type": [
				"owl:Restriction"
			],
			"owl:cardinality": {
				"type": "xsd:nonNegativeInteger",
				"@value": "1"
			},
			"owl:onProperty": {
				"id": "esco:targetFramework"
			}
		},
		{
			"id": "_:b0_n72",
			"type": [
				"owl:Restriction"
			],
			"maxCardinality": [
				{
					"type": "xsd:nonNegativeInteger",
					"@value": "1"
				}
			],
			"owl:onProperty": {
				"id": "esco:target"
			}
		},
		{
			"id": "_:b0_n73",
			"type": [
				"owl:Restriction"
			],
			"owl:minCardinality": {
				"type": "xsd:nonNegativeInteger",
				"@value": "0"
			},
			"owl:onProperty": {
				"id": "esco:targetName"
			}
		},
		{
			"id": "_:b0_n74",
			"type": [
				"owl:Restriction"
			],
			"owl:minCardinality": {
				"type": "xsd:nonNegativeInteger",
				"@value": "0"
			},
			"owl:onProperty": {
				"id": "esco:targetNotation"
			}
		},
		{
			"id": "_:b0_n75",
			"type": [
				"owl:Restriction"
			],
			"maxCardinality": [
				{
					"type": "xsd:nonNegativeInteger",
					"@value": "1"
				}
			],
			"owl:onProperty": {
				"id": "esco:targetURL"
			}
		},
		{
			"id": "_:b0_n76",
			"type": [
				"owl:Restriction"
			],
			"owl:minCardinality": {
				"type": "xsd:nonNegativeInteger",
				"@value": "1"
			},
			"owl:onProperty": {
				"id": "dct:identifier"
			}
		},
		{
			"id": "_:b0_n79",
			"type": [
				"owl:Restriction"
			],
			"owl:hasValue": {
				"id": "http://data.europa.eu/esco/ConceptScheme/FacetConceptGroups"
			},
			"owl:onProperty": {
				"id": "skos:inScheme"
			}
		},
		{
			"id": "_:b0_n8",
			"type": [
				"rdfs:Datatype"
			],
			"owl:onDatatype": {
				"id": "xsd:string"
			},
			"owl:withRestrictions": {
				"id": "_:b0_n170"
			},
			"inScheme": [
				"esco:scheme_for_rdfs:Datatype_generated"
			]
		},
		{
			"id": "_:b0_n80",
			"type": [
				"owl:Restriction"
			],
			"owl:minQualifiedCardinality": {
				"type": "xsd:nonNegativeInteger",
				"@value": "1"
			},
			"owl:onClass": {
				"id": "skos:Concept"
			},
			"owl:onProperty": {
				"id": "esco:hasFacet"
			}
		},
		{
			"id": "_:b0_n81",
			"type": [
				"owl:Restriction"
			],
			"owl:onClass": {
				"id": "esco:SimpleConcept"
			},
			"owl:onProperty": {
				"id": "esco:constructedFrom"
			},
			"owl:qualifiedCardinality": {
				"type": "xsd:nonNegativeInteger",
				"@value": "1"
			}
		},
		{
			"id": "_:b0_n82",
			"type": [
				"owl:Restriction"
			],
			"owl:allValuesFrom": {
				"id": "esco:GroupConcept"
			},
			"owl:onProperty": {
				"id": "skos:broader"
			}
		},
		{
			"id": "_:b0_n83",
			"type": [
				"owl:Restriction"
			],
			"owl:hasValue": {
				"id": "http://data.europa.eu/esco/ConceptScheme/LabelRole"
			},
			"owl:onProperty": {
				"id": "skos:inScheme"
			}
		},
		{
			"id": "_:b0_n84",
			"type": [
				"owl:Restriction"
			],
			"owl:cardinality": {
				"type": "xsd:nonNegativeInteger",
				"@value": "1"
			},
			"owl:onProperty": {
				"id": "esco:language"
			}
		},
		{
			"id": "_:b0_n86",
			"type": [
				"owl:Restriction"
			],
			"owl:minCardinality": {
				"type": "xsd:nonNegativeInteger",
				"@value": "0"
			},
			"owl:onProperty": {
				"id": "dct:subject"
			}
		},
		{
			"id": "_:b0_n87",
			"type": [
				"owl:Restriction"
			],
			"maxCardinality": [
				{
					"type": "xsd:nonNegativeInteger",
					"@value": "1"
				}
			],
			"owl:onProperty": {
				"id": "esco:language"
			}
		},
		{
			"id": "_:b0_n88",
			"type": [
				"owl:Restriction"
			],
			"owl:cardinality": {
				"type": "xsd:nonNegativeInteger",
				"@value": "1"
			},
			"owl:onProperty": {
				"id": "esco:nodeLiteral"
			}
		},
		{
			"id": "_:b0_n89",
			"type": [
				"owl:Restriction"
			],
			"owl:hasValue": {
				"id": "http://data.europa.eu/esco/ConceptScheme/ESCO_Occupations"
			},
			"owl:onProperty": {
				"id": "skos:inScheme"
			}
		},
		{
			"id": "_:b0_n90",
			"type": [
				"owl:Restriction"
			],
			"owl:hasValue": {
				"id": "http://data.europa.eu/esco/ConceptScheme/ESCO_Skills"
			},
			"owl:onProperty": {
				"id": "skos:inScheme"
			}
		},
		{
			"id": "_:b0_n91",
			"type": [
				"owl:Restriction"
			],
			"owl:onClass": {
				"id": "esco:Concept"
			},
			"owl:onProperty": {
				"id": "esco:isRelationshipFor"
			},
			"owl:qualifiedCardinality": {
				"type": "xsd:nonNegativeInteger",
				"@value": "1"
			}
		},
		{
			"id": "_:b0_n92",
			"type": [
				"owl:Restriction"
			],
			"owl:onClass": {
				"id": "esco:Concept"
			},
			"owl:onProperty": {
				"id": "esco:refersConcept"
			},
			"owl:qualifiedCardinality": {
				"type": "xsd:nonNegativeInteger",
				"@value": "1"
			}
		},
		{
			"id": "_:b0_n93",
			"type": [
				"owl:Restriction"
			],
			"owl:hasValue": {
				"id": "http://data.europa.eu/esco/ConceptScheme/RelationshipType"
			},
			"owl:onProperty": {
				"id": "skos:inScheme"
			}
		},
		{
			"id": "_:b0_n94",
			"type": [
				"owl:Restriction"
			],
			"owl:hasValue": {
				"id": "http://data.europa.eu/esco/ConceptScheme/ESCO_Skills"
			},
			"owl:onProperty": {
				"id": "skos:inScheme"
			}
		},
		{
			"id": "_:b0_n95",
			"type": [
				"owl:Restriction"
			],
			"owl:hasValue": {
				"id": "http://data.europa.eu/esco/ConceptScheme/SkillCompetenceType"
			},
			"owl:onProperty": {
				"id": "skos:inScheme"
			}
		},
		{
			"id": "_:b0_n96",
			"type": [
				"owl:Restriction"
			],
			"owl:hasValue": {
				"id": "http://data.europa.eu/esco/ConceptScheme/SkillReuseLevel"
			},
			"owl:onProperty": {
				"id": "skos:inScheme"
			}
		},
		{
			"id": "_:b0_n97",
			"type": [
				"owl:Restriction"
			],
			"owl:hasValue": {
				"id": "http://data.europa.eu/esco/ConceptScheme/WorkContext/cs"
			},
			"owl:onProperty": {
				"id": "skos:inScheme"
			}
		},
		{
			"id": "_:b0_n98",
			"comment": [
				{
					"@language": "en",
					"@value": ""
				}
			]
		},
		{
			"id": "_:b0_n99",
			"comment": [
				{
					"@language": "en",
					"@value": ""
				}
			]
		},
		{
			"id": "http://data.europa.eu/esco/ConceptScheme/AwardingBodies/cs",
			"type": [
				"owl:NamedIndividual"
			]
		},
		{
			"id": "http://data.europa.eu/esco/ConceptScheme/ESCO_Occupations",
			"type": [
				"owl:NamedIndividual"
			]
		},
		{
			"id": "http://data.europa.eu/esco/ConceptScheme/ESCO_Qualifications",
			"type": [
				"owl:NamedIndividual"
			]
		},
		{
			"id": "http://data.europa.eu/esco/ConceptScheme/ESCO_Skills",
			"type": [
				"owl:NamedIndividual"
			]
		},
		{
			"id": "http://data.europa.eu/esco/ConceptScheme/FacetConceptGroups",
			"type": [
				"owl:NamedIndividual"
			]
		},
		{
			"id": "http://data.europa.eu/esco/ConceptScheme/LabelRole",
			"type": [
				"owl:NamedIndividual"
			]
		},
		{
			"id": "http://data.europa.eu/esco/ConceptScheme/SkillCompetenceType",
			"type": [
				"owl:NamedIndividual"
			]
		},
		{
			"id": "http://data.europa.eu/esco/ConceptScheme/WorkContext/cs",
			"type": [
				"owl:NamedIndividual"
			]
		},
		{
			"id": "http://data.europa.eu/esco/Notation/EQF2012",
			"type": [
				"rdfs:Datatype"
			],
			"isDefinedBy": [
				{
					"id": "http://data.europa.eu/esco/model"
				}
			],
			"term_status": [
				"released"
			],
			"inScheme": [
				"esco:scheme_for_rdfs:Datatype_generated"
			]
		},
		{
			"id": "http://data.europa.eu/esco/Notation/FoET2013",
			"type": [
				"rdfs:Datatype"
			],
			"isDefinedBy": [
				{
					"id": "http://data.europa.eu/esco/model"
				}
			],
			"term_status": [
				"released"
			],
			"inScheme": [
				"esco:scheme_for_rdfs:Datatype_generated"
			]
		},
		{
			"id": "http://data.europa.eu/esco/Notation/ISCO08",
			"type": [
				"rdfs:Datatype"
			],
			"isDefinedBy": [
				{
					"id": "http://data.europa.eu/esco/model"
				}
			],
			"term_status": [
				"released"
			],
			"inScheme": [
				"esco:scheme_for_rdfs:Datatype_generated"
			]
		},
		{
			"id": "http://data.europa.eu/esco/Notation/NACEr2.code",
			"type": [
				"rdfs:Datatype"
			],
			"isDefinedBy": [
				{
					"id": "http://data.europa.eu/esco/model"
				}
			],
			"term_status": [
				"released"
			],
			"inScheme": [
				"esco:scheme_for_rdfs:Datatype_generated"
			]
		},
		{
			"id": "http://data.europa.eu/esco/Notation/NACEr2.section",
			"type": [
				"rdfs:Datatype"
			],
			"isDefinedBy": [
				{
					"id": "http://data.europa.eu/esco/model"
				}
			],
			"term_status": [
				"released"
			],
			"inScheme": [
				"esco:scheme_for_rdfs:Datatype_generated"
			]
		},
		{
			"id": "http://data.europa.eu/esco/Notation/NUTS.regionCode",
			"type": [
				"rdfs:Datatype"
			],
			"isDefinedBy": [
				{
					"id": "http://data.europa.eu/esco/model"
				}
			],
			"term_status": [
				"released"
			],
			"inScheme": [
				"esco:scheme_for_rdfs:Datatype_generated"
			]
		},
		{
			"id": "http://data.europa.eu/esco/Notation/eCF30",
			"type": [
				"rdfs:Datatype"
			],
			"isDefinedBy": [
				{
					"id": "http://data.europa.eu/esco/model"
				}
			],
			"term_status": [
				"released"
			],
			"inScheme": [
				"esco:scheme_for_rdfs:Datatype_generated"
			]
		},
		{
			"id": "esco:Ontology",
			"type": [
				"owl:Ontology"
			],
			"contributor": [
				"Agis Papantoniou (Everis, CogniZone)",
				"Bernard Vatan (Mondeca)",
				"Karel Kremer (TenForce)",
				"Laurent Bégin (Mondeca)",
				"Martin Le Vrang (DG-EMPL, Approver)",
				"Massimiliano Molinari (DG-EMPL, Reviewer)",
				"Niels Vandekeybus (TenForce)",
				"Pieter Fannes (Everis, CogniZone)"
			],
			"creator": [
				"Johan De Smedt (TenForce)"
			],
			"modified": [
				{
					"type": "xsd:date",
					"@value": "2016-06-03"
				}
			],
			"title_dct": [
				{
					"@language": "en",
					"@value": "The ESCO ontology"
				}
			],
			"comment": [
				{
					"@language": "en",
					"@value": "The ontology of the taxonomy \"European Skills, Competences, qualifications and Occupations\".\n\nThe ontology considers three ESCO pillars (or taxonomy) and 2 registers.\nThe three pillars are:\n- Occupation\n- Skill (and competences)\n- Qualification\n\nFor the construction and use of the ESCO pillars, the following modelling artefacts are used:\n- SKOS mapping properties to relate ESCO pillar concepts to concepts in other (external) taxonomies (e.g. ISCED-FoET and ISCO08.  More mappings can be added in the future.)\n- Tagging ESCO pillar concepts by other (external) taxonomies (NUTS, EQF, NACE, ...), these taggings are defined using ESCO structures\n- Capture gender specifics on the labels of the ESCO pillar concepts\n- Rich ESCO concept relationships holding a description and other specific characteristics of the relation between two ESCO pillar concepts.\n\nESCO maintains two additional registers:\n- Awarding Body\n- Work Context\nAwarding Bodies typically are referenced by ESCO qualifications.\nOccupations can have one or more work context.\n"
				}
			],
			"imports": [
				{
					"id": "http://data.europa.eu/esco/flow"
				},
				{
					"id": "http://data.europa.eu/esco/skos2"
				},
				{
					"id": "http://purl.org/iso25964/skos-thes"
				},
				{
					"id": "http://www.w3.org/1999/02/22-rdf-syntax-ns#"
				},
				{
					"id": "http://www.w3.org/2004/02/skos/core"
				},
				{
					"id": "http://www.w3.org/2008/05/skos-xl"
				}
			],
			"owl:incompatibleWith": {
				"id": "http://data.europa.eu/esco/model/1.0"
			},
			"versionIRI": [
				{
					"id": "http://data.europa.eu/esco/model/1.2"
				}
			],
			"versionInfo": [
				"1.2"
			]
		},
		{
			"id": "esco:Accreditation",
			"type": [
				"owl:Class",
				"rdfs:Class"
			],
			"comment": [
				{
					"@language": "en",
					"@value": "Can be used to specify:\n\t- the agent that was primarily responsible for the accreditation\n\t- the date the accreditation was formally approved\n\t- a review date or expiry date\n\t- related documents with additional information about the accreditation or used standards and procedures in the assessment and quality assurance of the qualification"
				},
				{
					"@language": "en",
					"@value": "The accreditation class is used to specify information related to the accreditation, monitoring and quality assurance of a qualification and/or awarding body"
				}
			],
			"isDefinedBy": [
				{
					"id": "http://data.europa.eu/esco/model#"
				}
			],
			"label": [
				{
					"@language": "en",
					"@value": "Accreditation"
				}
			],
			"seeAlso": [
				{
					"id": "esco:hasAccreditation"
				}
			],
			"inScheme": [
				"esco:scheme_for_rdfs:Class_generated"
			]
		},
		{
			"id": "esco:AssociationObject",
			"type": [
				"owl:Class",
				"rdfs:Class"
			],
			"comment": [
				{
					"@language": "en",
					"@value": "The generic class of extended directed associative relationships from a resource to a semantic asset."
				},
				{
					"@language": "en",
					"@value": "This class relates a qualification to a node from another established framework or classification system. This allows to specify metadata on the association:\n\t- The relationship type (describing the semantics of the association) is given by the dcterms:type property using a skos:Concept from the controlled vocabulary <http://data.europa.eu/esco/concept-scheme/association-type>.\n\t- The framework and/or classification system to which the related semantic asset belongs is given by the esco:targetFramework property.\n\t- The resource being described (the resource the association starts from e.g. a qualification) is given by esco:isAssociationFor and the associated resource by esco:target.\"@en;\n\trdfs:comment \"Used to express a learning outcome of a qualification as a relation from a qualification to an ESCO skill, competence or knowdledge (see <http://data.europa.eu/esco/association-type#learning-outcome>).\"@en;\n\trdfs:comment \"Used to related a qualification to an occupation from an international, national or regional occupation classification system (see <http://data.europa.eu/esco/association-type#related-occupation>).\"@en;\n\trdfs:comment \"Used to link a qualification to a international, national or regional qualification framework level (see <http://data.europa.eu/esco/association-type#qf-level>).\"@en;\n\trdfs:comment \"List of properties:\n\t- dcterms:type (0..1)\n\t- dcterms:description (0..n)\n\t- dcterms:issued (0..1)\n\t- esco:targetFramework (1..1)\n\t- esco:isAssociationFor (1..1)\n\t- esco:target (0..1)\n\t- esco:targetDescription (0..n)\n\t- esco:targetNotation(0..n)\n\t- esco:targetName(0..n)\n\t- esco:targetURL (0..1)\n\t\t"
				}
			],
			"isDefinedBy": [
				{
					"id": "http://data.europa.eu/esco/model"
				}
			],
			"label": [
				{
					"@language": "en",
					"@value": "Association object"
				}
			],
			"subClassOf": [
				"_:b0_n70",
				"_:b0_n71",
				"_:b0_n72",
				"_:b0_n73",
				"_:b0_n74",
				"_:b0_n75"
			],
			"inScheme": [
				"esco:scheme_for_rdfs:Class_generated"
			]
		},
		{
			"id": "esco:AwardingActivity",
			"type": [
				"owl:Class",
				"rdfs:Class"
			],
			"comment": [
				{
					"@language": "en",
					"@value": "An awarding activity represents an activity related to the awarding of a qualification. It is used to specify an awarding body, a country or region where the qualification is awarded and optionally an awarding period."
				}
			],
			"isDefinedBy": [
				{
					"id": "http://data.europa.eu/esco/model"
				}
			],
			"label": [
				{
					"@language": "en",
					"@value": "Awarding activity"
				}
			],
			"seeAlso": [
				{
					"id": "esco:hasAwardingActivity"
				}
			],
			"inScheme": [
				"esco:scheme_for_rdfs:Class_generated"
			]
		},
		{
			"id": "esco:AwardingBody",
			"type": [
				"owl:Class",
				"rdfs:Class"
			],
			"comment": [
				{
					"@language": "en",
					"@value": "An awarding body is an institution, organization or company that is recognised (official or otherwise) for issuing qualifications (certificates, diplomas or titles) and formally recognising the learning outcomes (knowledge, skills and/or competences) of an individual, following an assessment and validation procedure."
				},
				{
					"@language": "en",
					"@value": "For the minimal set of properties on an AwardingBody see usage note http://xmlns.com/foaf/0.1/Agent."
				},
				{
					"@language": "en",
					"@value": "\"Additional properties defined by the QMS are:\n\t    - dcterms:spatial (0..1) main site location"
				}
			],
			"isDefinedBy": [
				{
					"id": "http://data.europa.eu/esco/model"
				}
			],
			"label": [
				{
					"@language": "en",
					"@value": "Awarding body"
				}
			],
			"seeAlso": [
				{
					"id": "http://www.w3.org/ns/org#Organization"
				},
				{
					"id": "foaf:Agent"
				}
			],
			"subClassOf": [
				"http://www.w3.org/ns/org#Organization"
			],
			"inScheme": [
				"esco:scheme_for_rdfs:Class_generated"
			]
		},
		{
			"id": "esco:ConceptScheme",
			"type": [
				"owl:Class",
				"rdfs:Class"
			],
			"issued": [
				{
					"type": "xsd:date",
					"@value": "2013-06-27"
				}
			],
			"modified": [
				{
					"type": "xsd:date",
					"@value": "2016-04-01"
				}
			],
			"comment": [
				{
					"@language": "en",
					"@value": "The ESCO concept schemes (pillars)\n\nThe \"current\" ESCO scheme and historic versions of the ESCO scheme will be instances of this class.  Typically, these support poly-hierarchy.\n\nThe ISCO representations that are the backbone of at least one ESCO version (v0) also will be represented by this concept scheme.  Typically these do not have poly-hierarchy.\n\n\nProvenance information that may be added:\n- rightsHolder: the owner (http://purl.org/dc/terms/rightsHolder) - required\n- publishing status: (http://purl.org/iso25964/skos-thes#status) - required\n- creator : the author (http://purl.org/dc/terms/creator) - required\n- contributor : modifier (http://purl.org/dc/terms/contributor) - required\n- modified : last modification date (http://purl.org/dc/terms/modified) - required"
				}
			],
			"isDefinedBy": [
				{
					"id": "http://data.europa.eu/esco/model"
				}
			],
			"label": [
				{
					"@language": "en",
					"@value": "Concept scheme (ESCO pillar)"
				}
			],
			"seeAlso": [
				{
					"id": "dct:contributor"
				},
				{
					"id": "dct:creator"
				},
				{
					"id": "dct:modified"
				},
				{
					"id": "dct:rightsHolder"
				},
				{
					"id": "http://purl.org/iso25964/skos-thes#status"
				}
			],
			"subClassOf": [
				"skos:ConceptScheme"
			],
			"term_status": [
				"released"
			],
			"inScheme": [
				"esco:scheme_for_rdfs:Class_generated"
			]
		},
		{
			"id": "esco:EntryRequirement",
			"type": [
				"owl:Class",
				"rdfs:Class"
			],
			"comment": [
				{
					"@language": "en",
					"@value": "Entry requirements are structured into categories such as work experience, pre-assessment or a specific qualification.\n\t- The category of an entry requirement is given by dcterms:type property using a skos:Concept from the controlled vocabulary <http://data.europa.eu/esco/concept-scheme/entryrequirement-category>.\n\t- The requirement level expresses the necessity. It is given by the esco:requirementLevel property using a skos:Concept from the controlled voabulary <http://data.europa.eu/esco/concept-scheme/entryrequirement-level>. "
				},
				{
					"@language": "en",
					"@value": "The generic class for entry requirements of a qualification. For example a requirement to enter the programme that leads to a qualification, or to access the examination or certification process, such as a prior (professional) experience or a specific qualification."
				}
			],
			"isDefinedBy": [
				{
					"id": "http://data.europa.eu/esco/model"
				}
			],
			"label": [
				{
					"@language": "en",
					"@value": "entry requirement"
				}
			],
			"seeAlso": [
				{
					"id": "http://data.europa.eu/esco/concept-scheme/entryrequirement-category"
				},
				{
					"id": "http://data.europa.eu/esco/concept-scheme/entryrequirement-level"
				}
			],
			"inScheme": [
				"esco:scheme_for_rdfs:Class_generated"
			]
		},
		{
			"id": "esco:EscoExtension",
			"type": [
				"owl:Class",
				"rdfs:Class"
			],
			"issued": [
				{
					"type": "xsd:date",
					"@value": "2016-09-02"
				}
			],
			"comment": [
				{
					"@language": "en",
					"@value": "This class denotes concepts of non-EU relevance separate from the usual scope of ESCO."
				}
			],
			"isDefinedBy": [
				{
					"id": "http://data.europa.eu/esco/model"
				}
			],
			"label": [
				{
					"@language": "en",
					"@value": "Esco extension"
				}
			],
			"subClassOf": [
				"skos:Concept"
			],
			"inScheme": [
				"esco:scheme_for_rdfs:Class_generated"
			]
		},
		{
			"id": "esco:LabelRole",
			"type": [
				"owl:Class",
				"rdfs:Class"
			],
			"issued": [
				{
					"type": "xsd:date",
					"@value": "2013-06-27"
				}
			],
			"modified": [
				{
					"type": "xsd:date",
					"@value": "2013-12-03"
				}
			],
			"comment": [
				{
					"@language": "en",
					"@value": "Allows to capture one or more particular characteristics of a name.\n\nExample usage: Gender related terms.\n- ESCO concepts may get a gender neutral term as preferred label.  The gender specific terms are provided as alternate labels.\n- Relevant use cases:\n  - concept look-up based on gender specific term\n  - Job posting generation with gender neutral terms\n  - CV generation with gender specific terms"
				}
			],
			"isDefinedBy": [
				{
					"id": "http://data.europa.eu/esco/model"
				}
			],
			"label": [
				{
					"@language": "en",
					"@value": "Label role"
				}
			],
			"subClassOf": [
				"skos:Concept"
			],
			"owl:equivalentClass": {
				"id": "_:b0_n83"
			},
			"term_status": [
				"proposed"
			],
			"inScheme": [
				"esco:scheme_for_rdfs:Class_generated"
			]
		},
		{
			"id": "esco:MemberConcept",
			"type": [
				"owl:Class",
				"rdfs:Class"
			],
			"issued": [
				{
					"type": "xsd:date",
					"@value": "2013-06-27"
				}
			],
			"modified": [
				{
					"type": "xsd:date",
					"@value": "2017-02-10"
				}
			],
			"comment": [
				{
					"@language": "en",
					"@value": "Concepts of this class are specifically used to be referenced in CV or job postings.  Typically these concepts are at the more specialized levels of the hierarchy.\nExample: A particular occupation, not a group of occupations.\nThese concepts in general have\nHowever, some Member concept may be specializations of other ones.  In general these specializations will not comply to (1). General group membership within ESCO pillars is provided by esco:memberOfGroup."
				}
			],
			"isDefinedBy": [
				{
					"id": "http://data.europa.eu/esco/model"
				}
			],
			"label": [
				{
					"@language": "en",
					"@value": "Member concept"
				}
			],
			"subClassOf": [
				"skos:Concept"
			],
			"owl:disjointUnionOf": {
				"id": "_:b0_n115"
			},
			"term_status": [
				"released"
			],
			"inScheme": [
				"esco:scheme_for_rdfs:Class_generated"
			]
		},
		{
			"id": "esco:NodeLiteral",
			"type": [
				"owl:Class",
				"rdfs:Class"
			],
			"comment": [
				{
					"@language": "en",
					"@value": "Free text metadata fields, such as the description, a historical or additional note of a qualification can contain a plain text or a XHTML fragment as literal value. By using a NodeLiteral both the datatype of the literal as the language can be specified."
				},
				{
					"@language": "en",
					"@value": "The class used to specify Literals that can have both a datatype and a language tag"
				}
			],
			"isDefinedBy": [
				{
					"id": "http://data.europa.eu/esco/model"
				}
			],
			"label": [
				{
					"@language": "en",
					"@value": "node literal"
				}
			],
			"subClassOf": [
				"skos:Concept",
				"_:b0_n86",
				"_:b0_n87",
				"_:b0_n88"
			],
			"inScheme": [
				"esco:scheme_for_rdfs:Class_generated"
			]
		},
		{
			"id": "esco:Occupation",
			"type": [
				"owl:Class",
				"rdfs:Class"
			],
			"issued": [
				{
					"type": "xsd:date",
					"@value": "2013-06-27"
				}
			],
			"modified": [
				{
					"type": "xsd:date",
					"@value": "2017-02-10"
				}
			],
			"comment": [
				{
					"@language": "en",
					"@value": "The class of ESCO Occupation concepts. An Occuaption is an ESCO pillar concept (see http://data.europa.eu/esco/model#MemberConcept).\n\n\nCharacteristics of an Occupation:\n- The relevant industry sector for an occupation is given by the Eurostat NACE codes (see http://data.europa.eu/esco/model#hasNACECode)\n- The different Work context applicable for an occupation (see http://data.europa.eu/esco/model#hasWorkContext).\n\nAn occupation may be related to\n- esco:Skill (see http://data.europa.eu/esco/model#relatedEssentialSkill and http://data.europa.eu/esco/model#relatedOptionalSkill)\n- esco:Qualification (see http://data.europa.eu/esco/model#AssociationObject)\n\nOccupations having a legal or other regulations in a specific region\n- must identify these regulations in the occupation definition (and refer the professional DB stating that regulation - e.g. http://ec.europa.eu/internal_market/qualifications/regprof/index.cfm?action=profession&id_profession=12142)\n- could identify such a region with the location property (see http://data.europa.eu/esco/model#location)\n\nESCO Occupations are maintained in the ESCO concept scheme http://data.europa.eu/esco/ConceptScheme/ESCO_Occupations."
				}
			],
			"isDefinedBy": [
				{
					"id": "http://data.europa.eu/esco/model"
				}
			],
			"label": [
				{
					"@language": "en",
					"@value": "Occupation"
				}
			],
			"seeAlso": [
				{
					"id": "esco:Concept"
				},
				{
					"id": "esco:hasNACECode"
				},
				{
					"id": "esco:location"
				},
				{
					"id": "esco:memberOfISCOGroup"
				}
			],
			"subClassOf": [
				"esco:MemberConcept",
				"_:b0_n89"
			],
			"disjointWith": [
				"esco:Qualification",
				"esco:Skill"
			],
			"term_status": [
				"released"
			],
			"historyNote": [
				{
					"@language": "en",
					"@value": "2013-06-27\nAn Occupation that is a MemberConcept:\n- Initially coming from the Occupations listed by the Swedisch PES in tab of file Taxonomy 3 - Taxonomy db DB 20 l-corr.xls.\nAn Occupation that is a GroupConcept:\n- Initially coming from the file ISCO '88 codes 25l.xls"
				}
			],
			"inScheme": [
				"esco:scheme_for_rdfs:Class_generated"
			]
		},
		{
			"id": "esco:Qualification",
			"type": [
				"owl:Class",
				"rdfs:Class"
			],
			"comment": [
				{
					"@language": "en",
					"@value": "A qualification is a formal outcome of an assessment and validation process, which is obtained when a competent body determines that an individual has achieved learning outcomes to given standards."
				},
				{
					"@language": "en",
					"@value": "List of properties on a qualification defined by the QMS application profile:\n\t- adms:identifier (1..n)\n\t- esco:referenceLanguage (0..n)\n\t- skos:prefLabel (1..n)\n\t- skos:altLabel (0..n)\n\t- skos:definition (0..n)\n\t- dcterms:description (1..n)\n\t- esco:hasISCED-FCode (1..n)\n\t- esco:hasAssociation (0..n)\n\t- esco:hasECTSCreditPoints (0..1)\n\t- esco:volumeOfLearning (0..1)\n\t- esco:isPartialQualification (0..1)\n\t- esco:waysToAcquire (0..n)\n\t- esco:expiryPeriod (0..n)\n\t- esco:hasRecognition (0..n)\n\t- esco:hasAwardingActivity (0..n)\n\t- esco:hasAccreditation (0..n)\n\t- foaf:homepage (0..n)\n\t- dcat:landingPage (0..n)\n\t- esco:supplementaryDoc (0..n)\n\t- dcterms:issued (1..1)\n\t- dcterms:modified (1..1)\n\t- skos:changeNote (0..1)\n\t- skos:historyNote (0..1)\n\t- esco:additionalNote (0..n)\n\t- dcterms:replaces  (0..n)\n\t- dcterms:isReplacedBy  (0..n)\n\t- iso-thes:status (0..1)\n\t- dcterms:creator (0..1)\n\t- dcterms:rightsHolder (0..1)\n\t- dcterms:publisher (1..1)"
				}
			],
			"isDefinedBy": [
				{
					"id": "http://data.europa.eu/esco/model"
				}
			],
			"label": [
				{
					"@language": "en",
					"@value": "Qualification"
				}
			],
			"subClassOf": [
				"skos:Concept",
				"skos:MemberConcept"
			],
			"inScheme": [
				"esco:scheme_for_rdfs:Class_generated"
			]
		},
		{
			"id": "esco:Recognition",
			"type": [
				"owl:Class",
				"rdfs:Class"
			],
			"comment": [
				{
					"@language": "en",
					"@value": "The recognition class is used to specify information related to the formal recognition of a qualification and/or awarding body. It is used to model a national or regional authority that formally recognises a qualification and/or a certain awarding body"
				}
			],
			"isDefinedBy": [
				{
					"id": "http://data.europa.eu/esco/model"
				}
			],
			"label": [
				{
					"@language": "en",
					"@value": "Recognition"
				}
			],
			"seeAlso": [
				{
					"id": "esco:hasRecognition"
				}
			],
			"inScheme": [
				"esco:scheme_for_rdfs:Class_generated"
			]
		},
		{
			"id": "esco:Skill",
			"type": [
				"owl:Class",
				"rdfs:Class"
			],
			"issued": [
				{
					"type": "xsd:date",
					"@value": "2013-06-27"
				}
			],
			"modified": [
				{
					"type": "xsd:date",
					"@value": "2013-12-03"
				}
			],
			"comment": [
				{
					"@language": "en",
					"@value": "The class of ESCO Skill concepts.\n\nESCO skills are sub-typed (e.g. to differentiate between knowledge and competence).\nThis sub-typing is modelled using the concept scheme http://data.europa.eu/esco/ConceptScheme/SkillCompetenceType and its concept class http://data.europa.eu/esco/model#SkillCompetenceType\n\nThis organization is modelled using the concept scheme http://data.europa.eu/esco/ConceptScheme/SkillReuseLevel and its concept class http://data.europa.eu/esco/model#SkillReuseLevel\nESCO skills with a different re-use applicability across sectors can be put in a hierarchical relation (skos:broader and skos:narrower) in acordance with the rules detailed by http://data.europa.eu/esco/model#SkillReuseLevel.\n\nCharacteristics\n- An ESCO skill sub-type is given by http://data.europa.eu/esco/model#skillType\n- An ESCO skill re-use level is given by http://data.europa.eu/esco/model#skillReuseLevel\n\nAn ESCO Skill may be related to other ESCO concepts.\n- Essential related concepts of class esco:Skills are indicated by http://data.europa.eu/esco/model#isEssentialSkillFor and http://data.europa.eu/esco/model#relatedEssentialSkill\n- Optional related concepts of class esco:Skills are indicated http://data.europa.eu/esco/model#isOptionalSkillFor and http://data.europa.eu/esco/model#relatedOptionalSkill\n- Occupations a skill is essential for are concepts of type esco:Occupation indicated by http://data.europa.eu/esco/model#isEssentialSkillFor\n- Occupations a skill is optional for are concepts of type esco:Occupation indicated by http://data.europa.eu/esco/model#isEssentialSkillFor\nThe property http://data.europa.eu/esco/model#hasRelationship details the relationships (see http://data.europa.eu/esco/model#Relationship)"
				}
			],
			"isDefinedBy": [
				{
					"id": "http://data.europa.eu/esco/model"
				}
			],
			"label": [
				{
					"@language": "en",
					"@value": "Skill"
				}
			],
			"seeAlso": [
				{
					"id": "esco:Qualification"
				},
				{
					"id": "esco:SkillReuseLevel"
				},
				{
					"id": "esco:skillType"
				}
			],
			"subClassOf": [
				"esco:MemberConcept",
				"_:b0_n94"
			],
			"term_status": [
				"released"
			],
			"definition": [
				{
					"@language": "en",
					"@value": "A skill may also be an informal recognition of a competence.\nThe recognition typically is obtained by experience, practice or informal tests."
				}
			],
			"historyNote": [
				{
					"@language": "en",
					"@value": "2013-06-27:\nA Skill that is a MemberConcept:\n- Initially (i.e. ESCOv0) coming from the Swedisch PES Skills tab in file Taxonomy 3 - Taxonomy db DB 20 l-corr.xls.\n- Initially (i.e. ESCOv0) linked as related concepts to leaf occupation groups as described in ISCO_SKILLS.xls.\nA Skill that is a GroupConcept:\n- Is created by ESCO"
				}
			],
			"inScheme": [
				"esco:scheme_for_rdfs:Class_generated"
			]
		},
		{
			"id": "esco:SkillCompetenceType",
			"type": [
				"owl:Class",
				"rdfs:Class"
			],
			"issued": [
				{
					"type": "xsd:date",
					"@value": "2013-12-03"
				}
			],
			"modified": [
				{
					"type": "xsd:date",
					"@value": "2013-12-03"
				}
			],
			"comment": [
				{
					"@language": "en",
					"@value": "Sub-Typing of a Skill Concept:\n- Skill/Competence\n- Knowledge"
				}
			],
			"isDefinedBy": [
				{
					"id": "http://data.europa.eu/esco/model"
				}
			],
			"label": [
				{
					"@language": "en",
					"@value": "Competence sub-type"
				}
			],
			"subClassOf": [
				"skos:Concept"
			],
			"owl:equivalentClass": {
				"id": "_:b0_n95"
			},
			"term_status": [
				"released"
			],
			"inScheme": [
				"esco:scheme_for_rdfs:Class_generated"
			]
		},
		{
			"id": "esco:Structure",
			"type": [
				"owl:Class",
				"rdfs:Class"
			],
			"created": [
				{
					"type": "xsd:date",
					"@value": "2016-06-10"
				}
			],
			"modified": [
				{
					"type": "xsd:date",
					"@value": "2016-06-10"
				}
			],
			"comment": [
				{
					"@language": "en",
					"@value": "A structure defines a tagging relationship between one or more conceptschemes and an ESCO pillar.\n\nThe structure identifies the predicate used for the relationship between an esco:MemberConcept and a skos:Concept that is part of the linked conceptscheme(s).\n\t\t\t\t"
				}
			],
			"isDefinedBy": [
				{
					"id": "http://data.europa.eu/esco/model"
				}
			],
			"label": [
				{
					"@language": "en",
					"@value": "ESCO Structure"
				}
			],
			"term_status": [
				"proposed"
			],
			"inScheme": [
				"esco:scheme_for_rdfs:Class_generated"
			]
		},
		{
			"id": "esco:WorkContext",
			"type": [
				"owl:Class",
				"rdfs:Class"
			],
			"issued": [
				{
					"type": "xsd:date",
					"@value": "2014-08-10"
				}
			],
			"modified": [
				{
					"type": "xsd:date",
					"@value": "2014-08-10"
				}
			],
			"comment": [
				{
					"@language": "en",
					"@value": "The class of work contexts registered by ESCO\nA work context iIdentifies types of business, environmental conditions, types of product, etc.\nESCO manages and organizes work context in the concept scheme: http://data.europa.eu/esco/ConceptScheme/WorkContext/cs\n\t\t\t\t"
				}
			],
			"isDefinedBy": [
				{
					"id": "http://data.europa.eu/esco/model"
				}
			],
			"label": [
				{
					"@language": "en",
					"@value": "Work context"
				}
			],
			"subClassOf": [
				"skos:Concept",
				"_:b0_n97"
			],
			"term_status": [
				"released"
			],
			"inScheme": [
				"esco:scheme_for_rdfs:Class_generated"
			]
		},
		{
			"id": "esco:additionalNote",
			"type": [
				"owl:ObjectProperty"
			],
			"comment": [
				{
					"@language": "en",
					"@value": ""
				}
			],
			"isDefinedBy": [
				{
					"id": "http://data.europa.eu/esco/model"
				}
			],
			"label": [
				{
					"@language": "en",
					"@value": "Additional note"
				}
			],
			"range": [
				"esco:NodeLiteral"
			],
			"seeAlso": [
				{
					"id": "esco:NodeLiteral"
				}
			]
		},
		{
			"id": "esco:codeList",
			"type": [
				"owl:ObjectProperty"
			],
			"created": [
				{
					"type": "xsd:date",
					"@value": "2016-06-21"
				}
			],
			"modified": [
				{
					"type": "xsd:date",
					"@value": "2016-06-21"
				}
			],
			"isDefinedBy": [
				{
					"id": "http://data.europa.eu/esco/model"
				}
			],
			"label": [
				{
					"@language": "en",
					"@value": "has code list"
				}
			],
			"range": [
				"skos:ConceptScheme"
			],
			"seeAlso": [
				{
					"id": "esco:Structure"
				},
				{
					"id": "esco:codedProperty"
				}
			],
			"term_status": [
				"proposed"
			]
		},
		{
			"id": "esco:codedProperty",
			"type": [
				"owl:ObjectProperty"
			],
			"created": [
				{
					"type": "xsd:date",
					"@value": "2016-06-21"
				}
			],
			"modified": [
				{
					"type": "xsd:date",
					"@value": "2016-06-21"
				}
			],
			"isDefinedBy": [
				{
					"id": "http://data.europa.eu/esco/model"
				}
			],
			"label": [
				{
					"@language": "en",
					"@value": "has coded property"
				}
			],
			"range": [
				"rdf:Property"
			],
			"seeAlso": [
				{
					"id": "esco:Structure"
				},
				{
					"id": "esco:codeList"
				}
			],
			"term_status": [
				"proposed"
			]
		},
		{
			"id": "esco:editorialStatus",
			"type": [
				"owl:DatatypeProperty"
			],
			"issued": [
				{
					"type": "xsd:date",
					"@value": "2014-07-03"
				}
			],
			"modified": [
				{
					"type": "xsd:date",
					"@value": "2014-07-03"
				}
			],
			"comment": [
				{
					"@language": "en",
					"@value": "The business or editorial status of a concept or label"
				}
			],
			"domain": [
				"_:b0_n66"
			],
			"isDefinedBy": [
				{
					"id": "http://data.europa.eu/esco/model"
				}
			],
			"label": [
				{
					"@language": "en",
					"@value": "editorial status"
				}
			],
			"range": [
				"esco:editorialStatusDataType"
			],
			"term_status": [
				"proposed"
			]
		},
		{
			"id": "esco:editorialStatusDataType",
			"type": [
				"rdfs:Datatype"
			],
			"modified": [
				"2013-12-05"
			],
			"comment": [
				{
					"@language": "en",
					"@value": "list of status values used for managing ESCO vocabulary changes.\nThe editorial status is only managed by a human with the role of taxonomy editor.\n\nOn creation, the default status is \"prepared\".  The label or concept is considered not final.\nWhen finalizing the business releaavance and the related editorial review process, the status can be set to \"proposed\".\nAfter a formal validation process by the business, the status can be set to approved.\nWhen a review considers the label or concept not relevant any more, the publication status is (automatically) set to \"obsolete\" by the relevant deprecation action.\n"
				}
			],
			"isDefinedBy": [
				{
					"id": "http://data.europa.eu/esco/model"
				}
			],
			"label": [
				{
					"@language": "en",
					"@value": "thesaurus concept and label editorial status type"
				}
			],
			"owl:equivalentClass": {
				"id": "_:b0_n0"
			},
			"term_status": [
				"proposed"
			],
			"inScheme": [
				"esco:scheme_for_rdfs:Datatype_generated"
			]
		},
		{
			"id": "esco:expirationPeriod",
			"type": [
				"owl:DatatypeProperty"
			],
			"modified": [
				{
					"type": "xsd:date",
					"@value": "2013-06-27"
				}
			],
			"comment": [
				{
					"@language": "en",
					"@value": "Period how long a qualification is valid.\n\nExample: a qualification for aircraft pilot may be subject to hours flight and/or testing within a specified period in order to pro-long the qualification."
				}
			],
			"domain": [
				"esco:Qualification"
			],
			"isDefinedBy": [
				{
					"id": "http://data.europa.eu/esco/model"
				}
			],
			"label": [
				{
					"@language": "en",
					"@value": "qualification expiration period"
				}
			],
			"range": [
				"xsd:duration"
			],
			"term_status": [
				"released"
			]
		},
		{
			"id": "esco:expiryPeriod",
			"type": [
				"owl:DatatypeProperty"
			],
			"comment": [
				{
					"@language": "en",
					"@value": "The validity period of a qualification. The period for which a  qualification is valid, after it is issued to an individual."
				}
			],
			"domain": [
				"esco:Qualification"
			],
			"isDefinedBy": [
				{
					"id": "http://data.europa.eu/esco/model"
				}
			],
			"label": [
				{
					"@language": "en",
					"@value": "expiry period"
				}
			],
			"range": [
				"xsd:duration"
			]
		},
		{
			"id": "esco:hasAccreditation",
			"type": [
				"owl:ObjectProperty"
			],
			"comment": [
				{
					"@language": "en",
					"@value": ""
				}
			],
			"domain": [
				"esco:Qualification"
			],
			"isDefinedBy": [
				{
					"id": "http://data.europa.eu/esco/model"
				}
			],
			"label": [
				{
					"@language": "en",
					"@value": "has accreditation"
				}
			],
			"range": [
				"esco:Accreditation"
			],
			"seeAlso": [
				{
					"id": "esco:Accreditation"
				}
			]
		},
		{
			"id": "esco:hasAssociation",
			"type": [
				"owl:InverseFunctionalProperty",
				"owl:ObjectProperty"
			],
			"comment": [
				{
					"@language": "en",
					"@value": "The detailed (typed, annotated and documented) association (see http://data.europa.eu/esco/model#AssociationObject) from a resource (e.g. a qualification) to a node in an other established framework.\n\t\t\tThe association identifies a related semantic asset from another established framework. The inverse relation of esco:isAssociationFor entails the property esco:hasAssociation."
				},
				{
					"@language": "en",
					"@value": "Used to express a learning outcome of a qualification as a relation from a qualification to an ESCO skill, competence or knowdledge."
				},
				{
					"@language": "en",
					"@value": "Used to link a qualification to a qualification framework level."
				},
				{
					"@language": "en",
					"@value": "Used to related a qualification to an occupation from a national, regional or international occupation classification system."
				}
			],
			"isDefinedBy": [
				{
					"id": "http://data.europa.eu/esco/model"
				}
			],
			"label": [
				{
					"@language": "en",
					"@value": "has association"
				}
			],
			"range": [
				"esco:AssociationObject"
			],
			"seeAlso": [
				{
					"id": "esco:AssociationObject"
				},
				{
					"id": "esco:isAssociationFor"
				}
			]
		},
		{
			"id": "esco:hasAwardingActivity",
			"type": [
				"owl:ObjectProperty"
			],
			"comment": [
				{
					"@language": "en",
					"@value": "an awarding activity of a qualification"
				}
			],
			"domain": [
				"esco:Qualification"
			],
			"isDefinedBy": [
				{
					"id": "http://data.europa.eu/esco/model"
				}
			],
			"label": [
				{
					"@language": "en",
					"@value": "has awarding activity"
				}
			],
			"range": [
				"esco:AwardingActivity"
			],
			"seeAlso": [
				{
					"id": "esco:AwardingActivity"
				}
			]
		},
		{
			"id": "esco:hasAwardingBody",
			"type": [
				"owl:ObjectProperty"
			],
			"issued": [
				{
					"type": "xsd:date",
					"@value": "2013-06-27"
				}
			],
			"modified": [
				{
					"type": "xsd:date",
					"@value": "2013-06-27"
				}
			],
			"comment": [
				{
					"@language": "en",
					"@value": "The institutiution, organisation or company that issues the (subject) qualification (certification)."
				}
			],
			"isDefinedBy": [
				{
					"id": "http://data.europa.eu/esco/model"
				}
			],
			"label": [
				{
					"@language": "en",
					"@value": "has awarding body"
				}
			],
			"range": [
				"esco:AwardingBody"
			],
			"subPropertyOf": [
				"dct:subject"
			],
			"term_status": [
				"released"
			]
		},
		{
			"id": "esco:hasECTSCreditPoints",
			"type": [
				"owl:DatatypeProperty"
			],
			"comment": [
				{
					"@language": "en",
					"@value": "The ECTS credit points assigned to a qualification"
				}
			],
			"domain": [
				"esco:Qualification"
			],
			"isDefinedBy": [
				{
					"id": "http://data.europa.eu/esco/model"
				}
			],
			"label": [
				{
					"@language": "en",
					"@value": "ECTS credit points"
				}
			],
			"range": [
				"xsd:decimal"
			]
		},
		{
			"id": "esco:hasEntryRequirement",
			"type": [
				"owl:ObjectProperty"
			],
			"comment": [
				{
					"@language": "en",
					"@value": "an entry requirement of a qualification"
				}
			],
			"domain": [
				"esco:Qualification"
			],
			"isDefinedBy": [
				{
					"id": "http://data.europa.eu/esco/model"
				}
			],
			"label": [
				{
					"@language": "en",
					"@value": "has entry requirement"
				}
			],
			"range": [
				"esco:EntryRequirement"
			],
			"seeAlso": [
				{
					"id": "esco:EntryRequirement"
				}
			]
		},
		{
			"id": "esco:hasISCED-FCode",
			"type": [
				"owl:ObjectProperty"
			],
			"created": [
				{
					"type": "xsd:date",
					"@value": "2016-06-10"
				}
			],
			"modified": [
				{
					"type": "xsd:date",
					"@value": "2016-06-10"
				}
			],
			"comment": [
				{
					"@language": "en",
					"@value": "A tagging concept identifying the ISCED 2013 FoET classification code (Field of Education Code). It is used to indicate the thematic area of a qualification."
				}
			],
			"isDefinedBy": [
				{
					"id": "http://data.europe.eu/esco/model"
				}
			],
			"label": [
				{
					"@language": "en",
					"@value": "ISCED FoET Code"
				}
			],
			"range": [
				"skos:Concept"
			],
			"subPropertyOf": [
				"dct:subject"
			],
			"term_status": [
				"proposed"
			]
		},
		{
			"id": "esco:hasLabelRole",
			"type": [
				"owl:ObjectProperty"
			],
			"issued": [
				{
					"type": "xsd:date",
					"@value": "2013-12-03"
				}
			],
			"modified": [
				{
					"type": "xsd:date",
					"@value": "2013-12-03"
				}
			],
			"comment": [
				{
					"@language": "en",
					"@value": "A tagging concept providing the gender specific typing of an ESCO label.\nEach ESCO label can have\n- at most 1 label that is standard male and zero or more labels that are male\n- at most 1 label that is standard female and zero or more labels that are female\n- any label that is not male or female is considered neutral\n- a male respectively female preferred label is the standard male respectively standard female label\n"
				}
			],
			"domain": [
				"esco:Label"
			],
			"isDefinedBy": [
				{
					"id": "http://data.europa.eu/esco/model"
				}
			],
			"label": [
				{
					"@language": "en",
					"@value": "has label role"
				}
			],
			"range": [
				"esco:LabelRole"
			],
			"subPropertyOf": [
				"dct:subject"
			],
			"term_status": [
				"released"
			]
		},
		{
			"id": "esco:hasNACECode",
			"type": [
				"owl:ObjectProperty"
			],
			"issued": [
				{
					"type": "xsd:date",
					"@value": "2013-12-03"
				}
			],
			"modified": [
				{
					"type": "xsd:date",
					"@value": "2013-12-03"
				}
			],
			"comment": [
				{
					"@language": "en",
					"@value": "A tagging concept using the NACE codes to specify the industry sector of the tagged subject."
				}
			],
			"isDefinedBy": [
				{
					"id": "http://data.europa.eu/esco/model"
				}
			],
			"label": [
				{
					"@language": "en",
					"@value": "has NACE code"
				}
			],
			"range": [
				"esco:NACECode"
			],
			"subPropertyOf": [
				"dct:subject"
			],
			"term_status": [
				"released"
			]
		},
		{
			"id": "esco:hasPolyHierarchy",
			"type": [
				"owl:DatatypeProperty",
				"owl:ObjectProperty"
			],
			"issued": [
				{
					"type": "xsd:date",
					"@value": "2013-06-27"
				}
			],
			"modified": [
				{
					"type": "xsd:date",
					"@value": "2016-04-01"
				}
			],
			"comment": [
				{
					"@language": "en",
					"@value": "true: Indicates wether a ESCO thesaurus/taxonomy supports poly-hierarchy. Not present or false indicate mono-hierarchy."
				}
			],
			"domain": [
				"esco:ConceptScheme"
			],
			"isDefinedBy": [
				{
					"id": "http://data.europa.eu/esco/model"
				}
			],
			"label": [
				{
					"@language": "en",
					"@value": "has poly-hierarchy"
				}
			],
			"range": [
				"xsd:boolean"
			],
			"term_status": [
				"released"
			]
		},
		{
			"id": "esco:hasRecognition",
			"type": [
				"owl:ObjectProperty"
			],
			"comment": [
				{
					"@language": "en",
					"@value": ""
				}
			],
			"domain": [
				"esco:Qualification"
			],
			"isDefinedBy": [
				{
					"id": "http://data.europa.eu/esco/model"
				}
			],
			"label": [
				{
					"@language": "en",
					"@value": "has recogition"
				}
			],
			"range": [
				"esco:Recognition"
			],
			"seeAlso": [
				{
					"id": "esco:Recognition"
				}
			]
		},
		{
			"id": "esco:hasWorkContext",
			"type": [
				"owl:ObjectProperty"
			],
			"issued": [
				{
					"type": "xsd:date",
					"@value": "2014-08-10"
				}
			],
			"modified": [
				{
					"type": "xsd:date",
					"@value": "2014-08-10"
				}
			],
			"comment": [
				{
					"@language": "en",
					"@value": "The possible working context of the (subject) occupation."
				}
			],
			"isDefinedBy": [
				{
					"id": "http://data.europa.eu/esco/model"
				}
			],
			"label": [
				{
					"@language": "en",
					"@value": "can have work context"
				}
			],
			"range": [
				"esco:WorkContext"
			],
			"subPropertyOf": [
				"dct:subject"
			],
			"term_status": [
				"proposed"
			]
		},
		{
			"id": "esco:isAssociationFor",
			"type": [
				"owl:FunctionalProperty",
				"owl:ObjectProperty"
			],
			"comment": [
				{
					"@language": "en",
					"@value": "The resource being described (the resource the association starts from e.g. a qualification). This property entails the inverse property http://data.europa.eu/esco/model#hasAssociation."
				}
			],
			"domain": [
				"esco:AssociationObject"
			],
			"isDefinedBy": [
				{
					"id": "http://data.europa.eu/esco/model"
				}
			],
			"label": [
				{
					"@language": "en",
					"@value": "association from"
				}
			],
			"seeAlso": [
				{
					"id": "esco:AssociationObject"
				},
				{
					"id": "esco:hasAssociation"
				}
			]
		},
		{
			"id": "esco:isEssentialSkillFor",
			"type": [
				"owl:ObjectProperty"
			],
			"issued": [
				{
					"type": "xsd:date",
					"@value": "2014-08-10"
				}
			],
			"modified": [
				{
					"type": "xsd:date",
					"@value": "2014-08-10"
				}
			],
			"comment": [
				{
					"@language": "en",
					"@value": "The inverse of esco:relatedEssentialSkill."
				}
			],
			"domain": [
				"esco:Skill"
			],
			"isDefinedBy": [
				{
					"id": "http://data.europa.eu/esco/model"
				}
			],
			"label": [
				{
					"@language": "en",
					"@value": "is essential skill for"
				}
			],
			"range": [
				"_:b0_n44"
			],
			"subPropertyOf": [
				"skos:related"
			],
			"inverseOf": [
				"esco:relatedEssentialSkill"
			],
			"term_status": [
				"proposed"
			]
		},
		{
			"id": "esco:isIndirect",
			"type": [
				"owl:DatatypeProperty",
				"owl:ObjectProperty"
			],
			"issued": [
				{
					"type": "xsd:date",
					"@value": "2013-12-03"
				}
			],
			"modified": [
				{
					"type": "xsd:date",
					"@value": "2013-12-03"
				}
			],
			"comment": [
				{
					"@language": "en",
					"@value": "True: Indicates the subject concept (like a qualification) is not directly managed by ESCO. instead the concept is loaded into ESCO when it is provided by an external (typical national) body or agent.\n\nCould also be applied (if unambiguous) to skills and occupations.\n\nAssertion (to 'true') is required in case external contribution must be affirmed."
				}
			],
			"domain": [
				"esco:Concept"
			],
			"label": [
				{
					"@language": "en",
					"@value": "is indirectly included"
				}
			],
			"range": [
				"xsd:boolean"
			],
			"term_status": [
				"proposed"
			]
		},
		{
			"id": "esco:isOptionalSkillFor",
			"type": [
				"owl:ObjectProperty"
			],
			"issued": [
				{
					"type": "xsd:date",
					"@value": "2014-08-10"
				}
			],
			"modified": [
				{
					"type": "xsd:date",
					"@value": "2014-08-10"
				}
			],
			"comment": [
				{
					"@language": "en",
					"@value": "The inverse of esco:relatedOptionalSkill."
				}
			],
			"domain": [
				"esco:Skill"
			],
			"isDefinedBy": [
				{
					"id": "http://data.europa.eu/esco/model"
				}
			],
			"label": [
				{
					"@language": "en",
					"@value": "is optional skill for"
				}
			],
			"range": [
				"_:b0_n48"
			],
			"subPropertyOf": [
				"skos:related"
			],
			"inverseOf": [
				"esco:relatedOptionalSkill"
			],
			"term_status": [
				"proposed"
			]
		},
		{
			"id": "esco:isPartialQualification",
			"type": [
				"owl:DatatypeProperty"
			],
			"comment": [
				{
					"@language": "en",
					"@value": "Default value is 'false'^^xsd:boolean "
				},
				{
					"@language": "en",
					"@value": "Indicates whether a qualification is a full qualification or part of another qualification. In the latter,  the qualification is only obtained as a formal outcome of a “broader” qualification of which it is part."
				}
			],
			"domain": [
				"esco:Qualification"
			],
			"isDefinedBy": [
				{
					"id": "http://data.europa.eu/esco/model"
				}
			],
			"label": [
				{
					"@language": "en",
					"@value": "is partial qualification"
				}
			],
			"range": [
				"xsd:boolean"
			]
		},
		{
			"id": "esco:language",
			"type": [
				"owl:DatatypeProperty",
				"owl:ObjectProperty"
			],
			"issued": [
				{
					"type": "xsd:date",
					"@value": "2013-06-27"
				}
			],
			"modified": [
				{
					"type": "xsd:date",
					"@value": "2013-06-27"
				}
			],
			"comment": [
				{
					"@language": "en",
					"@value": "QMS usage: The range must be a rdfs:Literal typed as xsd:language."
				},
				{
					"@language": "en",
					"@value": "The ISO 639-1 code of the language (2-char language code) in which a text is available."
				},
				{
					"@language": "en",
					"@value": "The language of the subject resource."
				}
			],
			"isDefinedBy": [
				{
					"id": "http://data.europa.eu/esco/model"
				}
			],
			"label": [
				{
					"@language": "en",
					"@value": "content language"
				},
				{
					"@language": "en",
					"@value": "language"
				}
			],
			"range": [
				"xsd:language"
			],
			"term_status": [
				"released"
			],
			"skos:changeNote": {
				"@language": "en",
				"@value": "ESCO v0 -> ESCO v1 literals having XMLLiteral parsetype are now coded as pllain literal with mark-up escaped.  Hence the standard RDF language tagging of literals can be used.\nsee http://data.europa.eu/esco/model#noteLiteral"
			}
		},
		{
			"id": "esco:location",
			"type": [
				"owl:ObjectProperty"
			],
			"issued": [
				{
					"type": "xsd:date",
					"@value": "2013-06-27"
				}
			],
			"modified": [
				{
					"type": "xsd:date",
					"@value": "2013-06-27"
				}
			],
			"comment": [
				{
					"@language": "en",
					"@value": "The Country or region the subject is associated with.\nTypically a tagging concept."
				}
			],
			"isDefinedBy": [
				{
					"id": "http://data.europa.eu/esco/model"
				}
			],
			"label": [
				{
					"@language": "en",
					"@value": "location"
				}
			],
			"range": [
				"esco:Location"
			],
			"subPropertyOf": [
				"dct:subject"
			],
			"term_status": [
				"proposed",
				"released"
			]
		},
		{
			"id": "esco:memberOfISCOGroup",
			"type": [
				"owl:ObjectProperty"
			],
			"issued": [
				{
					"type": "xsd:date",
					"@value": "2013-12-03"
				}
			],
			"modified": [
				{
					"type": "xsd:date",
					"@value": "2013-12-03"
				}
			],
			"comment": [
				{
					"@language": "en",
					"@value": "The direct hierarchical broader ISCO concept of the (subject) ESCO occupation.\nThe 'direct' (or one step) relationship is to be understood in terms of extending the ISCO taxonomy the (object) concept belongs to.\n\nThe ISCO concept may be of any ISCO version.  The ISCO version can be determined by the inScheme property on the ISCO concept and the version information on the ISCO concept scheme (referenced by the object - i.e. by the ISCO concept)."
				}
			],
			"isDefinedBy": [
				{
					"id": "http://data.europa.eu/esco/model"
				}
			],
			"label": [
				{
					"@language": "en",
					"@value": "belongs to ISCO Group with code"
				}
			],
			"term_status": [
				"proposed"
			]
		},
		{
			"id": "esco:nodeLiteral",
			"type": [
				"owl:DatatypeProperty"
			],
			"comment": [
				{
					"@language": "en",
					"@value": ""
				}
			],
			"domain": [
				"esco:NodeLiteral"
			],
			"isDefinedBy": [
				{
					"id": "http://data.europa.eu/esco/model"
				}
			],
			"label": [
				{
					"@language": "en",
					"@value": ""
				}
			],
			"range": [
				"rdfs:Literal"
			],
			"seeAlso": [
				{
					"id": "esco:NodeLiteral"
				}
			]
		},
		{
			"id": "esco:originalLabel",
			"type": [
				"owl:AnnotationProperty"
			],
			"esco:rule": "There may be at most 1 originalLabel per language for any Concept.",
			"issued": [
				{
					"type": "xsd:date",
					"@value": "2013-12-03"
				}
			],
			"modified": [
				{
					"type": "xsd:date",
					"@value": "2013-12-03"
				}
			],
			"comment": [
				{
					"@language": "en",
					"@value": "The original label of a concept of a support taxonomy.\nProvided in case the preferred label has been replaced by an ESCO specific one.\n\nTypically used on arguable names for exceptional concepts like 'Country'"
				}
			],
			"isDefinedBy": [
				{
					"id": "http://data.europa.eu/esco/model"
				}
			],
			"label": [
				{
					"@language": "en",
					"@value": "original label"
				}
			],
			"range": [
				"rdf:PlainLiteral"
			],
			"subPropertyOf": [
				"rdfs:label"
			],
			"term_status": [
				"proposed"
			]
		},
		{
			"id": "esco:referenceLanguage",
			"type": [
				"owl:DatatypeProperty"
			],
			"issued": [
				{
					"type": "xsd:date",
					"@value": "2013-06-27"
				}
			],
			"modified": [
				{
					"type": "xsd:date",
					"@value": "2013-06-27"
				}
			],
			"comment": [
				{
					"@language": "en",
					"@value": "QMS usage: The ISO 639-1 code of the language (2-char language code) in which information about the qualification is provided. This language will be used as the default reference language for the qualification."
				},
				{
					"@language": "en",
					"@value": "QMS usage: The range must be a rdfs:Literal typed as xsd:language."
				},
				{
					"@language": "en",
					"@value": "Reference language for a concept.\n\nTypically set when the concept is first loaded with PT in (at least) 1 language.  (If multiple but not all languages are provided, the reference language must be uniquely set to one of the loaded languages.)\n\nIn case the concept needs to be shown or translated in a new language (not having a PT yet), the label in the reference language is shown."
				}
			],
			"isDefinedBy": [
				{
					"id": "http://data.europa.eu/esco/model"
				}
			],
			"label": [
				{
					"@language": "en",
					"@value": "Reference language"
				},
				{
					"@language": "en",
					"@value": "reference language"
				}
			],
			"range": [
				"xsd:language"
			],
			"term_status": [
				"released"
			]
		},
		{
			"id": "esco:refersConcept",
			"type": [
				"owl:FunctionalProperty",
				"owl:ObjectProperty"
			],
			"issued": [
				{
					"type": "xsd:date",
					"@value": "2013-12-03"
				}
			],
			"modified": [
				{
					"type": "xsd:date",
					"@value": "2014-02-03"
				}
			],
			"comment": [
				{
					"@language": "en",
					"@value": "The ESCO concept referred by the (subject) ESCO relationship.\nThe esco:Relationship gives a more elaborate semantic description of related ESCO concepts.  These related concepts are identied by the esco:Relationship propertief\n- esco:isRelationshipFor\n- esco:refersConcept\nFurther semantics are provided by\n- a relationshipt type\n- a description\n- .. (other possible extensions)"
				}
			],
			"domain": [
				"esco:Relationship"
			],
			"isDefinedBy": [
				{
					"id": "http://data.europa.eu/esco/model"
				}
			],
			"label": [
				{
					"@language": "en",
					"@value": "to ESCO concept"
				}
			],
			"range": [
				"esco:Concept"
			],
			"term_status": [
				"proposed"
			]
		},
		{
			"id": "esco:regulatedProfessionNote",
			"type": [
				"owl:AnnotationProperty"
			],
			"modified": [
				{
					"type": "xsd:date",
					"@value": "2014-08-26"
				}
			],
			"comment": [
				{
					"@language": "en",
					"@value": "The subject occupation is regulated according the description in the note.  The note typically contains a hyperlink."
				}
			],
			"domain": [
				"esco:Occupation"
			],
			"isDefinedBy": [
				{
					"id": "http://data.europa.eu/esco/model"
				}
			],
			"label": [
				{
					"@language": "en",
					"@value": "regultated profession note"
				}
			],
			"subPropertyOf": [
				"skos:note"
			],
			"term_status": [
				"proposed"
			]
		},
		{
			"id": "esco:relatedEssentialSkill",
			"type": [
				"owl:ObjectProperty"
			],
			"issued": [
				{
					"type": "xsd:date",
					"@value": "2013-12-03"
				}
			],
			"modified": [
				{
					"type": "xsd:date",
					"@value": "2013-12-03"
				}
			],
			"comment": [
				{
					"@language": "en",
					"@value": "The ESCO skill or competence that is essential for the subject occupation or skill."
				}
			],
			"domain": [
				"_:b0_n55"
			],
			"isDefinedBy": [
				{
					"id": "http://data.europa.eu/esco/model"
				}
			],
			"label": [
				{
					"@language": "en",
					"@value": "has essential skill"
				}
			],
			"range": [
				"esco:Skill"
			],
			"subPropertyOf": [
				"skos:related"
			],
			"term_status": [
				"proposed"
			]
		},
		{
			"id": "esco:relatedOptionalSkill",
			"type": [
				"owl:ObjectProperty"
			],
			"issued": [
				{
					"type": "xsd:date",
					"@value": "2013-12-03"
				}
			],
			"modified": [
				{
					"type": "xsd:date",
					"@value": "2013-12-03"
				}
			],
			"comment": [
				{
					"@language": "en",
					"@value": "The ESCO skill or competence that is relevant (but optional) for the subject occuption."
				}
			],
			"domain": [
				"_:b0_n59"
			],
			"isDefinedBy": [
				{
					"id": "http://data.europa.eu/esco/model"
				}
			],
			"label": [
				{
					"@language": "en",
					"@value": "has optional skill"
				}
			],
			"range": [
				"esco:Skill"
			],
			"subPropertyOf": [
				"skos:related"
			],
			"term_status": [
				"proposed"
			]
		},
		{
			"id": "esco:replacedBy",
			"type": [
				"owl:ObjectProperty",
				"owl:TransitiveProperty"
			],
			"esco:rule": "PREFIX esco: <http://data.europa.eu/esco/model#>\n\t\t\tPREFIX terms <http://purl.org/dc/terms/>\n\t\t\tPREFIX rdf <http://www.w3.org/1999/02/22-rdf-syntax-ns#>\n\n\t\t\tCONSTRUCT\n\t\t\t\t{  ?A  esco:replacedBy ?B . }\n\t\t\tWHERE\n\t\t\t\t{\n\t\t\t\t   ?A  terms:isReplacedBy ?B ;  rdf:type  esco:Concept .\n\t\t\t\t   ?B  rdf:type  esco:Concept .\n\t\t\t\t}\n\t\t",
			"issued": [
				{
					"type": "xsd:date",
					"@value": "2013-12-03"
				}
			],
			"modified": [
				{
					"type": "xsd:date",
					"@value": "2015-04-21"
				}
			],
			"comment": [
				{
					"@language": "en",
					"@value": "Typical for a deprecated concept that has been replaced by one or more other concepts."
				}
			],
			"domain": [
				"skos:Concept"
			],
			"isDefinedBy": [
				{
					"id": "http://data.europa.eu/esco/model"
				}
			],
			"label": [
				{
					"@language": "en",
					"@value": "replaced by"
				}
			],
			"range": [
				"skos:Concept"
			],
			"inverseOf": [
				"esco:replaces"
			],
			"term_status": [
				"proposed"
			]
		},
		{
			"id": "esco:replaces",
			"type": [
				"owl:ObjectProperty",
				"owl:TransitiveProperty"
			],
			"esco:rule": "PREFIX esco: <http://data.europa.eu/esco/model#>\n\t\t\tPREFIX terms <http://purl.org/dc/terms/>\n\t\t\tPREFIX rdf <http://www.w3.org/1999/02/22-rdf-syntax-ns#>\n\n\t\t\tCONSTRUCT\n\t\t\t\t{  ?A  esco:replaces ?B . }\n\t\t\tWHERE\n\t\t\t\t{\n\t\t\t\t   ?A  terms:replaces ?B ;  rdf:type  esco:Concept .\n\t\t\t\t   ?B  rdf:type  esco:Concept .\n\t\t\t\t}\n\t\t",
			"issued": [
				{
					"type": "xsd:date",
					"@value": "2013-12-17"
				}
			],
			"modified": [
				{
					"type": "xsd:date",
					"@value": "2015-04-21"
				}
			],
			"comment": [
				{
					"@language": "en",
					"@value": "Typical for a deprecated concept that replaces one or more other concepts."
				}
			],
			"domain": [
				"skos:Concept"
			],
			"isDefinedBy": [
				{
					"id": "http://data.europa.eu/esco/model"
				}
			],
			"label": [
				{
					"@language": "en",
					"@value": "replaces"
				}
			],
			"range": [
				"skos:Concept"
			],
			"term_status": [
				"proposed"
			]
		},
		{
			"id": "esco:requirementLevel",
			"type": [
				"owl:ObjectProperty"
			],
			"comment": [
				{
					"@language": "en",
					"@value": "Refers to a skos:Concept that indicates the requirement level of a certain entry requirement. It indicates the necessity of the entry requirement"
				}
			],
			"domain": [
				"esco:EntryRequirement"
			],
			"isDefinedBy": [
				{
					"id": "http://data.europa.eu/esco/model"
				}
			],
			"label": [
				{
					"@language": "en",
					"@value": "requirement level"
				}
			],
			"range": [
				"skos:Concept"
			],
			"seeAlso": [
				{
					"id": "esco:EntryRequirement"
				}
			]
		},
		{
			"id": "esco:reviewedAtTime",
			"type": [
				"owl:DatatypeProperty"
			],
			"comment": [
				{
					"@language": "en",
					"@value": ""
				}
			],
			"isDefinedBy": [
				{
					"id": "http://data.europa.eu/esco/model"
				}
			],
			"label": [
				{
					"@language": "en",
					"@value": "review date"
				}
			],
			"range": [
				"xsd:dateTime"
			],
			"seeAlso": [
				{
					"id": "esco:Accreditation"
				}
			]
		},
		{
			"id": "esco:skillType",
			"type": [
				"owl:ObjectProperty"
			],
			"issued": [
				{
					"type": "xsd:date",
					"@value": "2013-12-03"
				}
			],
			"modified": [
				{
					"type": "xsd:date",
					"@value": "2013-12-03"
				}
			],
			"comment": [
				{
					"@language": "en",
					"@value": "Type of competence (a tagging concept)"
				}
			],
			"domain": [
				"esco:Skill"
			],
			"isDefinedBy": [
				{
					"id": "http://data.europa.eu/esco/model"
				}
			],
			"label": [
				{
					"@language": "en",
					"@value": "skill type"
				}
			],
			"range": [
				"esco:SkillCompetenceType"
			],
			"subPropertyOf": [
				"dct:subject"
			],
			"term_status": [
				"proposed",
				"released"
			]
		},
		{
			"id": "esco:statusDataType",
			"type": [
				"rdfs:Datatype"
			],
			"modified": [
				"2013-12-05"
			],
			"comment": [
				{
					"@language": "en",
					"@value": "list of status values used for managing ESCO release status.\nOn creation of a concept or label, the default state is \"to be reviewed\"\nOn deprecation of a concept the concept state becomed \"obsolete\"\nWhen a wrongly deprecated concept is revived, the state becomes \"to be reviewed\"\nWhen the thesaurus is published, the statuss becomes \"released\"\n\nAll state changes are system managed."
				}
			],
			"isDefinedBy": [
				{
					"id": "http://data.europa.eu/esco/model"
				}
			],
			"label": [
				{
					"@language": "en",
					"@value": "thesaurus concept and label publaction status type"
				}
			],
			"owl:equivalentClass": {
				"id": "_:b0_n11"
			},
			"term_status": [
				"proposed"
			],
			"inScheme": [
				"esco:scheme_for_rdfs:Datatype_generated"
			]
		},
		{
			"id": "esco:structureFor",
			"type": [
				"owl:ObjectProperty"
			],
			"created": [
				{
					"type": "xsd:date",
					"@value": "2016-06-21"
				}
			],
			"modified": [
				{
					"type": "xsd:date",
					"@value": "2016-06-21"
				}
			],
			"isDefinedBy": [
				{
					"id": "http://data.europa.eu/esco/model"
				}
			],
			"label": [
				{
					"@language": "en",
					"@value": "defines structure for"
				}
			],
			"range": [
				"esco:ConceptScheme"
			],
			"seeAlso": [
				{
					"id": "esco:Structure"
				},
				{
					"id": "esco:codeList"
				}
			],
			"subPropertyOf": [
				"owl:topObjectProperty"
			],
			"term_status": [
				"proposed"
			]
		},
		{
			"id": "esco:supplementaryDoc",
			"type": [
				"owl:ObjectProperty"
			],
			"comment": [
				{
					"@language": "en",
					"@value": ""
				}
			],
			"isDefinedBy": [
				{
					"id": "http://data.europa.eu/esco/model"
				}
			],
			"label": [
				{
					"@language": "en",
					"@value": "supplementary doc"
				}
			],
			"range": [
				"foaf:Document"
			],
			"subPropertyOf": [
				"foaf:page"
			]
		},
		{
			"id": "esco:supportedLanguage",
			"type": [
				"owl:ObjectProperty"
			],
			"issued": [
				{
					"type": "xsd:date",
					"@value": "2013-06-27"
				}
			],
			"modified": [
				{
					"type": "xsd:date",
					"@value": "2013-12-03"
				}
			],
			"comment": [
				{
					"@language": "en",
					"@value": "Denotes a description of the languages supported by the (subject) concept scheme.\nRequired for ESCO taxonomy or thesauri."
				}
			],
			"domain": [
				"esco:ConceptScheme"
			],
			"isDefinedBy": [
				{
					"id": "http://data.europa.eu/esco/model"
				}
			],
			"label": [
				{
					"@language": "en",
					"@value": "supported language"
				}
			],
			"range": [
				"esco:Language"
			],
			"term_status": [
				"released"
			]
		},
		{
			"id": "esco:target",
			"type": [
				"owl:FunctionalProperty",
				"owl:ObjectProperty"
			],
			"comment": [
				{
					"@language": "en",
					"@value": "The associated resource. Refers to a node (e.g. a skos:Concept) in another established framework (e.g. a skill or occupation from the ESCO classification, a skill or occupation from the national classification system, the qualification level according the national qualification framework,…)."
				}
			],
			"domain": [
				"esco:AssociationObject"
			],
			"isDefinedBy": [
				{
					"id": "http://data.europa.eu/esco/model"
				}
			],
			"label": [
				{
					"@language": "en",
					"@value": "association to"
				}
			],
			"range": [
				"rdfs:Resource"
			],
			"seeAlso": [
				{
					"id": "esco:AssociationObject"
				},
				{
					"id": "esco:targetFramework"
				}
			]
		},
		{
			"id": "esco:targetDescription",
			"type": [
				"owl:DatatypeProperty"
			],
			"comment": [
				{
					"@language": "en",
					"@value": "A free-text description of a node in another established framework."
				}
			],
			"domain": [
				"esco:AssociationObject"
			],
			"isDefinedBy": [
				{
					"id": "http://data.europa.eu/esco/model"
				}
			],
			"label": [
				{
					"@language": "en",
					"@value": ""
				}
			],
			"range": [
				"rdfs:Literal"
			],
			"seeAlso": [
				{
					"id": "esco:AssociationObject"
				},
				{
					"id": "esco:target"
				},
				{
					"id": "esco:targetFramework"
				}
			]
		},
		{
			"id": "esco:targetFramework",
			"type": [
				"owl:FunctionalProperty",
				"owl:ObjectProperty"
			],
			"comment": [
				{
					"@language": "en",
					"@value": "The framework to which the resource being described is associated. It is the framework that describes the target resource (the associated resource) (e.g. ESCO classification system, national qualification framework system,..). It is recommended that the target framework is denoted by a known resource (e.g. a adms:Asset, a dcat:Dataset, a conceptscheme)"
				}
			],
			"domain": [
				"esco:AssociationObject"
			],
			"isDefinedBy": [
				{
					"id": "http://data.europa.eu/esco/model"
				}
			],
			"label": [
				{
					"@language": "en",
					"@value": "target framework"
				}
			],
			"range": [
				"dct:Standard"
			],
			"seeAlso": [
				{
					"id": "esco:AssociationObject"
				},
				{
					"id": "esco:target"
				}
			]
		},
		{
			"id": "esco:targetName",
			"type": [
				"owl:DatatypeProperty"
			],
			"comment": [
				{
					"@language": "en",
					"@value": "The name or value of a node in another established framework."
				}
			],
			"domain": [
				"esco:AssociationObject"
			],
			"isDefinedBy": [
				{
					"id": "http://data.europa.eu/esco/model"
				}
			],
			"label": [
				{
					"@language": "en",
					"@value": ""
				}
			],
			"range": [
				"rdfs:Literal"
			],
			"seeAlso": [
				{
					"id": "esco:AssociationObject"
				},
				{
					"id": "esco:target"
				},
				{
					"id": "esco:targetFramework"
				}
			]
		},
		{
			"id": "esco:targetNotation",
			"type": [
				"owl:DatatypeProperty"
			],
			"comment": [
				{
					"@language": "en",
					"@value": ""
				}
			],
			"domain": [
				"esco:AssociationObject"
			],
			"isDefinedBy": [
				{
					"id": "http://data.europa.eu/esco/model"
				}
			],
			"label": [
				{
					"@language": "en",
					"@value": "target notation"
				}
			],
			"range": [
				"rdfs:Literal"
			],
			"seeAlso": [
				{
					"id": "esco:AssociationObject"
				},
				{
					"id": "esco:target"
				},
				{
					"id": "esco:targetFramework"
				}
			]
		},
		{
			"id": "esco:targetURL",
			"type": [
				"owl:DatatypeProperty"
			],
			"comment": [
				{
					"@language": "en",
					"@value": "The URL of a node in another established framework."
				}
			],
			"domain": [
				"esco:AssociationObject"
			],
			"isDefinedBy": [
				{
					"id": "http://data.europa.eu/esco/model"
				}
			],
			"label": [
				{
					"@language": "en",
					"@value": ""
				}
			],
			"range": [
				"xsd:anyURI"
			],
			"seeAlso": [
				{
					"id": "esco:AssociationObject"
				},
				{
					"id": "esco:target"
				},
				{
					"id": "esco:targetFramework"
				}
			]
		},
		{
			"id": "esco:termStatusDataType",
			"type": [
				"rdfs:Datatype"
			],
			"modified": [
				"2013-12-05"
			],
			"comment": [
				{
					"@language": "en",
					"@value": "list of status values used for managing ESCO ontology changes."
				}
			],
			"isDefinedBy": [
				{
					"id": "http://data.europa.eu/esco/model"
				}
			],
			"label": [
				{
					"@language": "en",
					"@value": "term status type"
				}
			],
			"owl:equivalentClass": {
				"id": "_:b0_n22"
			},
			"term_status": [
				"proposed"
			],
			"inScheme": [
				"esco:scheme_for_rdfs:Datatype_generated"
			]
		},
		{
			"id": "esco:volumeOfLearning",
			"type": [
				"owl:DatatypeProperty"
			],
			"comment": [
				{
					"@language": "en",
					"@value": "Indicates how many hours of learning effort is needed to acquire a particular qualification (notional learning hours)."
				}
			],
			"domain": [
				"esco:Qualification"
			],
			"isDefinedBy": [
				{
					"id": "http://data.europa.eu/esco/model"
				}
			],
			"label": [
				{
					"@language": "en",
					"@value": "volume of learning"
				}
			],
			"range": [
				"xsd:duration"
			]
		},
		{
			"id": "esco:waysToAcquire",
			"type": [
				"owl:ObjectProperty"
			],
			"comment": [
				{
					"@language": "en",
					"@value": "Refers to a skos:Concept that indicates whether the qualification can be acquired by validation of a formal, non-formal and/or informal learning processes."
				}
			],
			"domain": [
				"esco:Qualification"
			],
			"isDefinedBy": [
				{
					"id": "http://data.europa.eu/esco/model"
				}
			],
			"label": [
				{
					"@language": "en",
					"@value": "way to acquire"
				}
			],
			"range": [
				"skos:Concept"
			]
		},
		{
			"id": "http://purl.org/iso25964/DataSet/Versioning#hasVersionRecord",
			"type": [
				"owl:ObjectProperty"
			],
			"modified": [
				{
					"type": "xsd:date",
					"@value": "2013-10-04"
				}
			],
			"comment": [
				{
					"@language": "en",
					"@value": "The dataset holds this statement using any applicable form\n- the dataset is an RDF dataset: as a plain RDF statement on the main resource of the dataset.\n- the dataset is an XML or HTML resource: as an annotation using RDFa, schema.org or any other annotation language.\n- the dataset is any proper encoding: as documentation or metadata on the metadata provided with the dataset."
				}
			],
			"isDefinedBy": [
				{
					"id": "http://purl.org/iso25964/DataSet/Versioning"
				}
			],
			"label": [
				{
					"@language": "en",
					"@value": "has version record"
				}
			],
			"range": [
				"http://purl.org/iso25964/DataSet/Versioning#VersionHistoryRecord"
			],
			"term_status": [
				"proposed"
			]
		},
		{
			"id": "http://purl.org/iso25964/skos-thes#PreferredTerm",
			"comment": [
				{
					"@language": "en",
					"@value": "By ESCO: Not directly set by ESCO applications, but inferred from the range of skos-xl:pref:Label or iso-thes:plusUse."
				}
			],
			"term_status": [
				"released"
			]
		},
		{
			"id": "http://purl.org/iso25964/skos-thes#status",
			"type": [
				"owl:DatatypeProperty"
			],
			"range": [
				"esco:statusDataType"
			],
			"term_status": [
				"released"
			]
		},
		{
			"id": "xsd:duration",
			"type": [
				"rdfs:Datatype"
			],
			"inScheme": [
				"esco:scheme_for_rdfs:Datatype_generated"
			]
		},
		{
			"id": "vs:term_status",
			"type": [
				"owl:AnnotationProperty"
			],
			"issued": [
				{
					"type": "xsd:date",
					"@value": "2013-12-05"
				}
			],
			"modified": [
				{
					"type": "xsd:date",
					"@value": "2013-12-05"
				}
			],
			"isDefinedBy": [
				{
					"id": "http://www.w3.org/2003/06/sw-vocab-status/ns"
				}
			],
			"label": [
				{
					"@language": "en",
					"@value": "model axiom or term status"
				}
			],
			"range": [
				"esco:termStatusDataType"
			],
			"term_status": [
				"proposed"
			]
		},
		{
			"id": "esco:scheme_for_rdfs:Class_generated",
			"type": [
				"skos:ConceptScheme",
				"om:defaultScheme"
			],
			"description": [
				{
					"@language": "en",
					"@value": "Default scheme for rdfs:Class - autogenerated"
				},
				{
					"@language": "fr",
					"@value": "Scheme par défaut pour les rdfs:Class - autogenéré"
				}
			]
		},
		{
			"id": "esco:scheme_for_rdfs:Datatype_generated",
			"type": [
				"skos:ConceptScheme",
				"om:defaultScheme"
			],
			"description": [
				{
					"@language": "en",
					"@value": "Default scheme for rdfs:Datatype - autogenerated"
				},
				{
					"@language": "fr",
					"@value": "Scheme par défaut pour les rdfs:Datatype - autogenéré"
				}
			]
		}
	]
}