// Jest Snapshot v1, https://goo.gl/fbAQLP

exports[`Text to id transformation Manage full text to id transformations 1`] = `
{
  "@context": {
    "aPourNiveau": {
      "@container": "@set",
      "@id": "nfr:aPourNiveau",
    },
    "address": {
      "@container": "@set",
      "@id": "sch:address",
    },
    "altLabel": {
      "@container": "@set",
      "@id": "skos:altLabel",
    },
    "author": {
      "@container": "@set",
      "@id": "sch:author",
    },
    "badge": {
      "@container": "@set",
      "@id": "openBadge:badge",
      "@type": "@id",
    },
    "bloom": {
      "@container": "@set",
      "@id": "ori:bloom",
      "@type": "@id",
    },
    "broader": {
      "@container": "@set",
      "@id": "skos:broader",
      "@type": "@id",
    },
    "chargeDeTravail": {
      "@container": "@set",
      "@id": "nfr:chargeDeTravail",
    },
    "comment": {
      "@container": "@set",
      "@id": "rdfs:comment",
    },
    "criteria": {
      "@container": "@set",
      "@id": "openBadge:criteria",
    },
    "date": {
      "@container": "@set",
      "@id": "dct:date",
    },
    "dct": "http://purl.org/dc/terms/",
    "definition": {
      "@container": "@set",
      "@id": "skos:definition",
    },
    "description": {
      "@container": "@set",
      "@id": "nfr:description",
    },
    "devise": {
      "@container": "@set",
      "@id": "nfr:devise",
    },
    "domain": {
      "@container": "@set",
      "@id": "rdfs:domain",
      "@type": "@id",
    },
    "example": {
      "@container": "@set",
      "@id": "skos:example",
    },
    "experienceStructure": {
      "@container": "@set",
      "@id": "ori:experienceStructure",
      "@type": "@id",
    },
    "experienceType": {
      "@container": "@set",
      "@id": "ori:experienceType",
      "@type": "@id",
    },
    "gendj": "https://gen.competencies.be/terms/digitalJobs/",
    "graph": {
      "@container": "@set",
      "@id": "@graph",
    },
    "hobby": {
      "@container": "@set",
      "@id": "ori:hobby",
      "@type": "@id",
    },
    "id": "@id",
    "identifier": {
      "@container": "@set",
      "@id": "sch:identifier",
      "@type": "@id",
    },
    "image": {
      "@container": "@set",
      "@id": "sch:image",
    },
    "inScheme": {
      "@container": "@set",
      "@id": "skos:inScheme",
      "@type": "@id",
    },
    "isDefinedBy": {
      "@container": "@set",
      "@id": "rdfs:isDefinedBy",
    },
    "issuedOn": {
      "@container": "@set",
      "@id": "openBadge:issuedOn",
    },
    "issuer": {
      "@container": "@set",
      "@id": "openBadge:issuer",
      "@type": "@id",
    },
    "label": {
      "@container": "@set",
      "@id": "rdfs:label",
    },
    "logo": {
      "@container": "@set",
      "@id": "sch:logo",
    },
    "maxCount": {
      "@id": "sh:maxCount",
      "@type": "xsd:integer",
    },
    "member": {
      "@container": "@set",
      "@id": "skos:member",
      "@type": "@id",
    },
    "minCount": {
      "@id": "sh:minCount",
      "@type": "xsd:integer",
    },
    "montant": {
      "@container": "@set",
      "@id": "nfr:montant",
    },
    "name": {
      "@container": "@set",
      "@id": "sch:name",
    },
    "narrower": {
      "@container": "@set",
      "@id": "skos:narrower",
      "@type": "@id",
    },
    "nfr": "https://nodefr.competencies.be/nfr/",
    "openBadge": "https://w3id.org/openbadges#",
    "openBadge_image": {
      "@container": "@set",
      "@id": "openBadge:image",
    },
    "openBadge_name": {
      "@container": "@set",
      "@id": "openBadge:name",
    },
    "openBadge_url": {
      "@container": "@set",
      "@id": "openBadge:url",
    },
    "ori": "https://ori.competencies.be/ori/",
    "owl": "http://www.w3.org/2002/07/owl#",
    "path": {
      "@container": "@set",
      "@id": "sh:path",
      "@type": "@id",
    },
    "prefLabel": {
      "@container": "@set",
      "@id": "skos:prefLabel",
    },
    "provider": {
      "@container": "@set",
      "@id": "sch:provider",
    },
    "public": {
      "@container": "@set",
      "@id": "ori:public",
      "@type": "@id",
    },
    "publisher": {
      "@container": "@set",
      "@id": "sch:publisher",
    },
    "range": {
      "@container": "@set",
      "@id": "rdfs:range",
      "@type": "@id",
    },
    "rdf": "http://www.w3.org/1999/02/22-rdf-syntax-ns#",
    "rdfs": "http://www.w3.org/2000/01/rdf-schema#",
    "recipient": {
      "@container": "@set",
      "@id": "openBadge:recipient",
    },
    "role": {
      "@container": "@set",
      "@id": "ori:role",
      "@type": "@id",
    },
    "sch": "http://schema.org/",
    "sch_contributor": {
      "@container": "@set",
      "@id": "sch:contributor",
      "@type": "@id",
    },
    "scopeNote": {
      "@container": "@set",
      "@id": "skos:scopeNote",
    },
    "seeAlso": {
      "@container": "@set",
      "@id": "rdfs:seeAlso",
    },
    "sh": "https://www.w3.org/ns/shacl#",
    "skos": "http://www.w3.org/2004/02/skos/core#",
    "stardDate": {
      "@container": "@set",
      "@id": "sch:stardDate",
    },
    "subClassOf": {
      "@container": "@set",
      "@id": "rdfs:subClassOf",
      "@type": "@id",
    },
    "subPropertyOf": {
      "@container": "@set",
      "@id": "rdfs:subPropertyOf",
      "@type": "@id",
    },
    "tache": {
      "@container": "@set",
      "@id": "ori:tache",
      "@type": "@id",
    },
    "title": {
      "@container": "@set",
      "@id": "dct:title",
    },
    "type": {
      "@container": "@set",
      "@id": "@type",
    },
    "typeDActivite": {
      "@container": "@set",
      "@id": "nfr:typeDActivite",
    },
    "url": {
      "@container": "@set",
      "@id": "sch:url",
    },
    "vs": "https://www.w3.org/2003/06/sw-vocab-status/ns/",
    "xsd": "http://www.w3.org/2001/XMLSchema#",
  },
  "graph": [
    {
      "comment": [
        {
          "@language": "fr",
          "@value": "Tout type d'aptitude attachée à une expérience",
        },
      ],
      "id": "ori:Aptitude",
      "label": [
        {
          "@language": "fr",
          "@value": "Aptitude",
        },
      ],
      "subClassOf": [
        "https://mm.competencies.be/mm/Aptitude",
      ],
      "type": [
        "rdfs:Class",
      ],
    },
    {
      "comment": [
        {
          "@language": "fr",
          "@value": "Mesure de l'aptitude dont dispose l'utilisateur",
        },
      ],
      "id": "ori:AptitudeRating",
      "label": [
        {
          "@language": "fr",
          "@value": "Mesure de l'aptitude",
        },
      ],
      "subClassOf": [
        "https://mm.competencies.be/mm/AptitudeRating",
      ],
      "type": [
        "rdfs:Class",
      ],
    },
    {
      "badge": [
        "ori:BadgeCollection/2",
      ],
      "id": "ori:BadgeAssertion/1",
      "issuedOn": [
        "2020-01-27 15:34:36",
      ],
      "recipient": [
        "1",
      ],
      "type": [
        "openBadge:Assertion",
      ],
    },
    {
      "id": "ori:BadgeCollection#RAPIDE",
      "issuer": [
        "ori:BadgeIssuerProfile#Orientoi",
      ],
      "openBadge_name": [
        "RAPIDE",
      ],
      "type": [
        "openBadge:BadgeClass",
      ],
    },
    {
      "criteria": [
        "[6, 6, 6]",
      ],
      "id": "ori:BadgeCollection/2",
      "issuer": [
        "ori:BadgeIssuerProfile/Jobready",
      ],
      "openBadge_image": [
        "",
      ],
      "openBadge_name": [
        "2",
      ],
      "type": [
        "openBadge:BadgeClass",
      ],
    },
    {
      "id": "ori:BadgeCollection/CULTIVE",
      "issuer": [
        "ori:BadgeIssuerProfile/Orientoi",
      ],
      "openBadge_name": [
        "CULTIVE",
      ],
      "type": [
        "openBadge:BadgeClass",
      ],
    },
    {
      "id": "ori:BadgeIssuerProfile/Jobready",
      "openBadge_name": [
        "Jobready",
      ],
      "openBadge_url": [
        "https://www.jobready.fr/",
      ],
      "type": [
        "openBadge:Profile",
      ],
    },
    {
      "id": "ori:BadgeIssuerProfile/Orientoi",
      "openBadge_name": [
        {
          "@language": "fr",
          "@value": "Orientoi",
        },
      ],
      "openBadge_url": [
        "https://www.orientoi.fr/",
      ],
      "type": [
        "openBadge:Profile",
      ],
    },
    {
      "id": "ori:Bloom#understand",
      "prefLabel": [
        {
          "@language": "fr",
          "@value": "understand",
        },
      ],
      "type": [
        "skos:Concept",
        "ori:Bloom",
      ],
    },
    {
      "comment": [
        {
          "@language": "fr",
          "@value": "Type selon la taxonomie de Bloom",
        },
      ],
      "id": "ori:Bloom",
      "label": [
        {
          "@language": "fr",
          "@value": "Type Bloom",
        },
      ],
      "type": [
        "rdfs:Class",
      ],
    },
    {
      "address": [
        "Paris",
      ],
      "experienceStructure": [
        "ori:Organization/TCM",
      ],
      "experienceType": [
        "ori:Taxonomy/ExperienceContext/3FProfessionnelle",
      ],
      "id": "ori:Experience/1",
      "public": [
        "ori:Taxonomy/Public/collegues",
      ],
      "role": [
        "ori:Taxonomy/Role#Acteur",
      ],
      "stardDate": [
        "2018-6",
      ],
      "tache": [
        "ori:Taxonomy/taskAdapterSonActionEnFonctionDeSonEnergieEtOuDeCelleDuGroupe",
      ],
      "type": [
        "ori:Experience",
      ],
    },
    {
      "address": [
        "p",
      ],
      "experienceStructure": [
        "ori:Organization/missionLocale",
      ],
      "experienceType": [
        "ori:Taxonomy/ExperienceContext/3F3Afemalesign3APersonnel",
      ],
      "hobby": [
        "ori:Taxonomy/Hobby#Chant",
      ],
      "id": "ori:Experience/2",
      "public": [
        "ori:Taxonomy/Public#Camarades",
      ],
      "role": [
        "ori:Taxonomy/Role/choraleDeQuartier",
      ],
      "stardDate": [
        "2002-10",
      ],
      "type": [
        "ori:Experience",
      ],
    },
    {
      "id": "ori:ExperienceType/3FProfessionnelle",
      "label": [
        {
          "@language": "fr",
          "@value": "? Professionnelle",
        },
      ],
      "type": [
        "skos:Concept",
      ],
    },
    {
      "id": "ori:ExperienceType/3F3Afemalesign3APersonnel",
      "label": [
        {
          "@language": "fr",
          "@value": "?‍ :female_sign:  Personnel",
        },
      ],
      "type": [
        "skos:Concept",
      ],
    },
    {
      "comment": [
        {
          "@language": "fr",
          "@value": "Type ou contexte associé à une expérience",
        },
      ],
      "id": "ori:ExperienceType",
      "label": [
        {
          "@language": "fr",
          "@value": "Type d'expérience",
        },
      ],
      "type": [
        "rdfs:Class",
        "skos:Concept",
      ],
    },
    {
      "comment": [
        {
          "@language": "fr",
          "@value": "Classe décrivant une expérience utile à l'orientation professionnelle",
        },
      ],
      "id": "ori:Experience",
      "label": [
        {
          "@language": "fr",
          "@value": "Experience",
        },
      ],
      "subClassOf": [
        "https://mindmatcher.competencies.be/mm/Experience",
      ],
      "type": [
        "rdfs:Class",
      ],
    },
    {
      "id": "ori:Hobby#Chant",
      "label": [
        {
          "@language": "fr",
          "@value": "Chant",
        },
      ],
      "type": [
        "ori:Hobby",
      ],
    },
    {
      "comment": [
        {
          "@language": "fr",
          "@value": "Hobby associé à une expérience",
        },
      ],
      "domain": [
        "ori:Experience",
      ],
      "id": "ori:Hobby",
      "label": [
        {
          "@language": "fr",
          "@value": "Hobby",
        },
      ],
      "type": [
        "rdfs:Class",
        "skos:Concept",
      ],
    },
    {
      "aPourNiveau": [
        "0.5",
      ],
      "author": [
        "Joseph Santarcangelo",
      ],
      "bloom": [
        "ori:Taxonomy/Bloom#understand",
      ],
      "chargeDeTravail": [
        "200h",
      ],
      "description": [
        "- Once you complete this course, continue onto Building Interactive Prototypes using JavaScript to enhance your prototype as you learn how to use JavaScript to allow interaction on your webpages.",
      ],
      "devise": [
        "$",
      ],
      "id": "ori:LearningObject/analyzingDataWithPython",
      "image": [
        {
          "id": "https://prod-discovery.edx-cdn.org/media/course/image/29a1e3b8-3e84-4b14-b60d-0fa97512e420-cea90db44606.small.png",
        },
      ],
      "montant": [
        "39.0",
      ],
      "prefLabel": [
        "Analyzing Data with Python",
      ],
      "provider": [
        "edX",
      ],
      "publisher": [
        "IBM",
        "edX",
      ],
      "type": [
        "ori:LearningObject",
      ],
      "typeDActivite": [
        "MOOC",
      ],
      "url": [
        {
          "id": "https://www.edx.org/course/data-analysis-with-python",
        },
      ],
    },
    {
      "aPourNiveau": [
        "-1.0",
      ],
      "author": [
        "Joseph Santarcangelo",
      ],
      "bloom": [
        "ori:Taxonomy/Bloom#understand",
      ],
      "chargeDeTravail": [
        "40h",
      ],
      "description": [
        "Is cancer partly preventable through a healthy diet? Cancer has overtaken cardiovascular disease (CVD) as the leading cause of death in many parts of the world. It causes one in eight deaths worldwide. Global trends show that the majority of all cancer deaths occur in the low- and middle-income coun...",
      ],
      "devise": [
        "$",
      ],
      "id": "ori:LearningObject/pythonBasicsForDataScience",
      "image": [
        {
          "id": "https://prod-discovery.edx-cdn.org/media/course/image/381a0046-5d78-4790-8776-74620d59f48e-48611c7ca556.small.png",
        },
      ],
      "montant": [
        "39.0",
      ],
      "prefLabel": [
        "Python Basics for Data Science",
      ],
      "provider": [
        "edX",
      ],
      "publisher": [
        "IBM",
        "edX",
      ],
      "type": [
        "ori:LearningObject",
      ],
      "typeDActivite": [
        "MOOC",
      ],
      "url": [
        {
          "id": "https://www.edx.org/course/python-basics-for-data-science-2",
        },
      ],
    },
    {
      "comment": [
        {
          "@language": "fr",
          "@value": "Classe permettant de représenter les traces d'apprentissage",
        },
      ],
      "id": "ori:LearningObject",
      "label": [
        {
          "@language": "fr",
          "@value": "Traces d'apprentissage",
        },
      ],
      "type": [
        "rdfs:Class",
      ],
    },
    {
      "comment": [
        {
          "@language": "fr",
          "@value": "Profil associé à un utilisateur",
        },
      ],
      "id": "ori:Profile",
      "label": [
        {
          "@language": "fr",
          "@value": "Profil",
        },
      ],
      "type": [
        "rdfs:Class",
      ],
    },
    {
      "comment": [
        {
          "@language": "fr",
          "@value": "Classe décrivant le public associé à une expérience",
        },
      ],
      "id": "ori:Public",
      "label": [
        {
          "@language": "fr",
          "@value": "Public",
        },
      ],
      "type": [
        "rdfs:Class",
      ],
    },
    {
      "comment": [
        {
          "@language": "fr",
          "@value": "Age du public associé à une expérience",
        },
      ],
      "id": "ori:PublicAge",
      "label": [
        {
          "@language": "fr",
          "@value": "Age du public",
        },
      ],
      "type": [
        "rdfs:Class",
        "skos:Concept",
      ],
    },
    {
      "id": "ori:PublicAge/3FAdultes",
      "label": [
        {
          "@language": "fr",
          "@value": "? Adultes",
        },
      ],
      "type": [
        "rdfs:Class",
      ],
    },
    {
      "id": "ori:PublicType#Camarades",
      "label": [
        {
          "@language": "fr",
          "@value": "Camarades",
        },
      ],
      "type": [
        "ori:PublicType",
      ],
    },
    {
      "id": "ori:PublicType/collegues",
      "label": [
        {
          "@language": "fr",
          "@value": "Collègues",
        },
      ],
      "type": [
        "ori:PublicType",
      ],
    },
    {
      "comment": [
        {
          "@language": "fr",
          "@value": "Type de public associé à une expérience",
        },
      ],
      "id": "ori:PublicType",
      "label": [
        {
          "@language": "fr",
          "@value": "Type de public",
        },
      ],
      "type": [
        "rdfs:Class",
        "skos:Concept",
      ],
    },
    {
      "comment": [
        {
          "@language": "fr",
          "@value": "Rôle ou intitulé de poste associé à une expérience",
        },
      ],
      "id": "ori:Role",
      "label": [
        {
          "@language": "fr",
          "@value": "Rôle",
        },
      ],
      "type": [
        "rdfs:Classe",
        "skos:Concept",
      ],
    },
    {
      "comment": [
        {
          "@language": "fr",
          "@value": "Sport associé à une expérience",
        },
      ],
      "domain": [
        "ori:Experience",
      ],
      "id": "ori:Sport",
      "label": [
        {
          "@language": "fr",
          "@value": "Sport",
        },
      ],
      "type": [
        "rdfs:Class",
        "skos:Concept",
      ],
    },
    {
      "id": "ori:Structure",
      "subClassOf": [
        "sch:Organization",
      ],
      "type": [
        "rdfs:Class",
      ],
    },
    {
      "comment": [
        {
          "@language": "fr",
          "@value": "Suggestions proposées à l'utilisateur",
        },
      ],
      "id": "ori:Suggestion",
      "label": [
        {
          "@language": "fr",
          "@value": "Suggestions",
        },
      ],
      "type": [
        "rdfs:Class",
      ],
    },
    {
      "id": "ori:SuggestionChoice/caMeCorrespond",
      "label": [
        {
          "@language": "fr",
          "@value": "ça me correspond",
        },
      ],
      "type": [
        "ori:SuggestionChoice",
      ],
    },
    {
      "id": "ori:SuggestionChoice/caNeMeCorrespondPas",
      "label": [
        {
          "@language": "fr",
          "@value": "ça ne me correspond pas",
        },
      ],
      "type": [
        "ori:SuggestionChoice",
      ],
    },
    {
      "id": "ori:SuggestionChoice/jeNeSaisPas",
      "label": [
        {
          "@language": "fr",
          "@value": "Je ne sais pas",
        },
      ],
      "type": [
        "ori:SuggestionChoice",
      ],
    },
    {
      "comment": [
        {
          "@language": "fr",
          "@value": "Positionnements proposées à l'utilisateur lors d'une suggestion",
        },
      ],
      "id": "ori:SuggestionChoice",
      "label": [
        {
          "@language": "fr",
          "@value": "Positionnement",
        },
      ],
      "member": [
        "ori:SuggestionChoice/caMeCorrespond",
        "ori:SuggestionChoice/caNeMeCorrespondPas",
        "ori:SuggestionChoice/jeNeSaisPas",
      ],
      "type": [
        "rdfs:Class",
        "skos:Concept",
      ],
    },
    {
      "id": "ori:SuggestionType/contexteProfessionnel",
      "type": [
        "ori:SuggestionType",
      ],
    },
    {
      "id": "ori:SuggestionType/metier",
      "type": [
        "ori:SuggestionType",
      ],
    },
    {
      "id": "ori:SuggestionType/secteurDactivite",
      "type": [
        "ori:SuggestionType",
      ],
    },
    {
      "comment": [
        {
          "@language": "fr",
          "@value": "Famille de suggestions proposées à l'utilisateur",
        },
      ],
      "id": "ori:SuggestionType",
      "label": [
        {
          "@language": "fr",
          "@value": "Type de suggestion",
        },
      ],
      "type": [
        "rdfs:Class",
        "skos:Concept",
      ],
    },
    {
      "comment": [
        {
          "@language": "fr",
          "@value": "Tâche associée à une expérience",
        },
      ],
      "id": "ori:Tache",
      "label": [
        {
          "@language": "fr",
          "@value": "Tâche",
        },
      ],
      "type": [
        "rdfs:Class",
        "skos:Concept",
      ],
    },
    {
      "comment": [
        {
          "@language": "fr",
          "@value": "Tâche associée à une expérience",
        },
      ],
      "id": "ori:Task/adapterSonActionEnFonctionDeSonEnergieEtOuDeCelleDuGroupe",
      "type": [
        "ori:Tache",
      ],
    },
    {
      "comment": [
        {
          "@language": "fr",
          "@value": "Collection SKOS permettant de représenter la taxonomie de Bloom",
        },
      ],
      "id": "ori:Taxonomy/Bloom",
      "label": [
        {
          "@language": "fr",
          "@value": "Taxonomie de Bloom",
        },
      ],
      "member": [
        "ori:Bloom#understand",
      ],
      "type": [
        "skos:Collection",
      ],
    },
    {
      "comment": [
        {
          "@language": "fr",
          "@value": "Référentiel des types ou contextes associés à des expérience",
        },
      ],
      "id": "ori:Taxonomy/ExperienceType",
      "label": [
        {
          "@language": "fr",
          "@value": "Référentiel des types d'expérience",
        },
      ],
      "member": [
        "ori:ExperienceType/3FProfessionnelle",
        "ori:ExperienceType/3F3Afemalesign3APersonnel",
      ],
      "type": [
        "skos:Collection",
      ],
    },
    {
      "comment": [
        {
          "@language": "fr",
          "@value": "Référentiel des hobbies associés à une expérience",
        },
      ],
      "id": "ori:Taxonomy/Hobby",
      "label": [
        {
          "@language": "fr",
          "@value": "Référentiel des Hobbies",
        },
      ],
      "member": [
        "ori:Hobby#Chant",
      ],
      "type": [
        "skos:Collection",
      ],
    },
    {
      "comment": [
        {
          "@language": "fr",
          "@value": "Référentiel des typologies d'âge de publics associés à une expérience",
        },
      ],
      "id": "ori:Taxonomy/PublicAge",
      "label": [
        {
          "@language": "fr",
          "@value": "Référentiel des typologies d'âge",
        },
      ],
      "member": [
        "ori:PublicAge/3FAdultes",
      ],
      "type": [
        "skos:Collection",
      ],
    },
    {
      "comment": [
        {
          "@language": "fr",
          "@value": "Référentiel des types de publics associés à une expérience",
        },
      ],
      "id": "ori:Taxonomy/PublicType",
      "label": [
        {
          "@language": "fr",
          "@value": "Référentiel des types de publics",
        },
      ],
      "member": [
        "ori:PublicType#Camarades",
        "ori:PublicType/collegues",
      ],
      "type": [
        "skos:Collection",
      ],
    },
    {
      "comment": [
        {
          "@language": "fr",
          "@value": "Référentiel permettant de décrire les rôles ou intitulés de poste associés à des expériences",
        },
      ],
      "id": "ori:Taxonomy/Role",
      "label": [
        {
          "@language": "fr",
          "@value": "Référentiel des rôles",
        },
      ],
      "member": [
        "ori:Role#Acteur",
        "ori:Role/choraleDeQuartier",
      ],
      "type": [
        "skos:Collection",
      ],
    },
    {
      "comment": [
        {
          "@language": "fr",
          "@value": "Référentiel des skills associées à une expérience",
        },
      ],
      "id": "ori:Taxonomy/Skill",
      "label": [
        {
          "@language": "fr",
          "@value": "Référentiel des Skills",
        },
      ],
      "member": [
        "ori:Skill/15",
        "ori:Skill/22",
      ],
      "type": [
        "skos:Collection",
      ],
    },
    {
      "comment": [
        {
          "@language": "fr",
          "@value": "Référentiel des sports associés à une expérience",
        },
      ],
      "id": "ori:Taxonomy/Sport",
      "label": [
        {
          "@language": "fr",
          "@value": "Référentiel des Sports",
        },
      ],
      "type": [
        "skos:Collection",
      ],
    },
    {
      "id": "ori:Taxonomy/SuggestionChoice",
      "label": [
        {
          "@language": "fr",
          "@value": "Référentiel des positionnement proposés suite à une suggestion",
        },
      ],
      "member": [
        "ori:SuggestionChoice/caMeCorrespond",
        "ori:SuggestionChoice/caNeMeCorrespondPas",
        "ori:SuggestionChoice/jeNeSaisPas",
      ],
      "type": [
        "skos:Collection",
      ],
    },
    {
      "id": "ori:Taxonomy/SuggestionType",
      "label": [
        {
          "@language": "fr",
          "@value": "Référentiel des types de suggestion",
        },
      ],
      "member": [
        "ori:Taxonomy/SuggestionType/contexteProfessionnel",
        "ori:Taxonomy/SuggestionType/metier",
        "ori:Taxonomy/SuggestionType/secteurDactivite",
      ],
      "type": [
        "skos:Collection",
      ],
    },
    {
      "comment": [
        {
          "@language": "fr",
          "@value": "Référentiel des tâches associés à une expérience",
        },
      ],
      "id": "ori:Taxonomy/Tache",
      "label": [
        {
          "@language": "fr",
          "@value": "Référentiel des Tâches",
        },
      ],
      "member": [
        "ori:Task/adapterSonActionEnFonctionDeSonEnergieEtOuDeCelleDuGroupe",
      ],
      "type": [
        "skos:Collection",
      ],
    },
    {
      "comment": [
        {
          "@language": "fr",
          "@value": "Aptitudes dont dispose l'utilisateur",
        },
      ],
      "domain": [
        "ori:Experience",
        "ori:Profile",
      ],
      "id": "ori:aptitude",
      "label": [
        {
          "@language": "fr",
          "@value": "aptitude",
        },
      ],
      "range": [
        "ori:Aptitude",
      ],
      "type": [
        "rdf:Property",
      ],
    },
    {
      "comment": [
        {
          "@language": "fr",
          "@value": "Evaluation de l'aptitude par une mesure quantitative ou qualitative",
        },
      ],
      "domain": [
        "ori:Aptitude",
      ],
      "id": "ori:aptitudeRating",
      "label": [
        {
          "@language": "fr",
          "@value": "aptitude rating",
        },
      ],
      "range": [
        "ori:AptitudeRating",
      ],
      "type": [
        "rdf:Property",
      ],
    },
    {
      "comment": [
        {
          "@language": "fr",
          "@value": "Classification du learning object selon la taxonomie de Bloom",
        },
      ],
      "domain": [
        "ori:LearningObject",
      ],
      "id": "ori:bloom",
      "label": [
        {
          "@language": "fr",
          "@value": "type Bloom",
        },
      ],
      "range": [
        "ori:Bloom",
      ],
      "type": [
        "rdf:Property",
      ],
    },
    {
      "comment": [
        {
          "@language": "fr",
          "@value": "Type ou contexte associé à une expérience",
        },
      ],
      "domain": [
        "ori:Experience",
      ],
      "id": "ori:experienceType",
      "label": [
        {
          "@language": "fr",
          "@value": "type d'expérience",
        },
      ],
      "type": [
        "rdf:Property",
      ],
    },
    {
      "comment": [
        {
          "@language": "fr",
          "@value": "Experience associée à un profil utilisateur",
        },
      ],
      "domain": [
        "ori:Profile",
      ],
      "id": "ori:experience",
      "label": [
        {
          "@language": "fr",
          "@value": "experience",
        },
      ],
      "range": [
        "ori:Experience",
      ],
      "type": [
        "rdf:Property",
      ],
    },
    {
      "domain": [
        "ori:Profile",
      ],
      "id": "ori:hasBadge",
      "label": [
        "hasBadge",
      ],
      "range": [
        "openBadge:Assertion",
      ],
      "type": [
        "rdf:Property",
      ],
    },
    {
      "comment": [
        {
          "@language": "fr",
          "@value": "Hobby associé à une expérience",
        },
      ],
      "domain": [
        "ori:Experience",
      ],
      "id": "ori:hobby",
      "label": [
        {
          "@language": "fr",
          "@value": "hobby",
        },
      ],
      "type": [
        "rdf:Property",
      ],
    },
    {
      "comment": [
        {
          "@language": "fr",
          "@value": "Age du public associé à une expérience",
        },
      ],
      "domain": [
        "ori:Public",
      ],
      "id": "ori:publicAge",
      "label": [
        {
          "@language": "fr",
          "@value": "Age du public",
        },
      ],
      "type": [
        "rdf:Property",
      ],
    },
    {
      "comment": [
        {
          "@language": "fr",
          "@value": "Type de publique associé à une expérience",
        },
      ],
      "domain": [
        "ori:Public",
      ],
      "id": "ori:publicType",
      "label": [
        {
          "@language": "fr",
          "@value": "Type de publique",
        },
      ],
      "type": [
        "rdf:Property",
      ],
    },
    {
      "comment": [
        {
          "@language": "fr",
          "@value": "Classe décrivant un rôle ou un intitulé de poste associé à une expérience",
        },
      ],
      "domain": [
        "ori:Experience",
      ],
      "id": "ori:role",
      "label": [
        {
          "@language": "fr",
          "@value": "rôle",
        },
      ],
      "type": [
        "rdf:Property",
      ],
    },
    {
      "comment": [
        {
          "@language": "fr",
          "@value": "Skill associée à une expérience",
        },
      ],
      "domain": [
        "ori:Experience",
      ],
      "id": "ori:skill",
      "label": [
        {
          "@language": "fr",
          "@value": "skill",
        },
      ],
      "type": [
        "rdf:Property",
      ],
    },
    {
      "comment": [
        {
          "@language": "fr",
          "@value": "Sport associé à une expérience",
        },
      ],
      "domain": [
        "ori:Experience",
      ],
      "id": "ori:sport",
      "label": [
        {
          "@language": "fr",
          "@value": "sport",
        },
      ],
      "type": [
        "rdf:Property",
      ],
    },
    {
      "comment": [
        {
          "@language": "fr",
          "@value": "Organisation / structure dans laquelle a eu lieu l'expérience",
        },
      ],
      "domain": [
        "ori:Experience",
      ],
      "id": "ori:structure",
      "label": [
        {
          "@language": "fr",
          "@value": "structure",
        },
      ],
      "type": [
        "rdf:Property",
      ],
    },
    {
      "comment": [
        {
          "@language": "fr",
          "@value": "Suggestions proposées à l'utilisateur",
        },
      ],
      "domain": [
        "ori:Profile",
      ],
      "id": "ori:suggestion",
      "label": [
        {
          "@language": "fr",
          "@value": "suggestion",
        },
      ],
      "range": [
        "ori:Suggestion",
      ],
      "type": [
        "rdf:Property",
      ],
    },
    {
      "comment": [
        {
          "@language": "fr",
          "@value": "Tâche associée à une expérience",
        },
      ],
      "domain": [
        "ori:Experience",
      ],
      "id": "ori:tache",
      "label": [
        {
          "@language": "fr",
          "@value": "tâche",
        },
      ],
      "type": [
        "rdf:Property",
      ],
    },
  ],
}
`;
