{
  "@context": {
    "id": "@id",
    "rdfs": "http://www.w3.org/2000/01/rdf-schema#",
    "rdf": "http://www.w3.org/1999/02/22-rdf-syntax-ns#",
    "dcat": "http://www.w3.org/ns/dcat",
    "esco": "http://data.europa.eu/esco/model#",
    "sch": "http://schema.org/",
    "conf": "http://config.rdfx.eu/jas/editor"
  },
  "graph": [
    {
      "id": "conf:1",
      "name": "Model Configuration",
      "description": "Configuration for displaying a page of a model",
      "models": [
        "conf:concept",
        "conf:skill"
      ]
    },
    {
      "id": "conf:concept",
      "type": "dcat:DataCatalog",
      "name": "Concept",
      "plural": "concepts",
      "description": "skos:Concept",
      "table": {
        "type": "sch:Table",
        "name": "Model Data Table",
        "description": "Table displaying the model data",
        "columns": [
          {
            "type": "@id",
            "name": "id",
            "sortable": true,
            "filterable": true,
            "weight": 1
          },
          {
            "type": "skos:prefLabel",
            "name": "prefLabel",
            "sortable": true,
            "filterable": true,
            "weight": 2,
            "subProperty": "value"
          },
          {
            "name": "narrower",
            "type": "skos:narrower",
            "sortable": true,
            "filterable": true,
            "subProperty": {
              "type": "skos:prefLabel",
              "name": "prefLabel",
              "subProperty": "value"
            },
            "weight": 3
          },
          {
            "type": "skos:broader",
            "name": "broader",
            "sortable": true,
            "filterable": true,
            "subProperty": {
              "type": "skos:prefLabel",
              "name": "prefLabel",
              "subProperty": "value"
            },
            "weight": 4
          }
        ]
      }
    },
    {
      "id": "conf:skill",
      "type": "dcat:DataCatalog",
      "name": "Skill",
      "plural": "skills",
      "description": "esco:Skill",
      "table": {
        "type": "sch:Table",
        "name": "Model Data Table",
        "description": "Table displaying the model data",
        "columns": [
          {
            "type": "@id",
            "name": "id",
            "sortable": true,
            "filterable": true,
            "weight": 1
          },
          {
            "type": "skos:prefLabel",
            "name": "prefLabel",
            "sortable": true,
            "filterable": true,
            "weight": 2
          },
          {
            "name": "narrower",
            "type": "skos:narrower",
            "sortable": true,
            "filterable": true,
            "weight": 3
          },
          {
            "type": "skos:broader",
            "name": "broader",
            "sortable": true,
            "filterable": true,
            "weight": 4
          }
        ]
      }
    }
  ]
}