{
	"@context": {
		"id": "@id",
		"graph": {
			"@id": "@graph",
			"@container": "@set"
		},
		"type": {
			"@id": "@type",
			"@container": "@set"
		},
		"rdf": "http://www.w3.org/1999/02/22-rdf-syntax-ns#",
		"first": {
			"@id": "rdf:first",
			"@type": "@id",
			"@container": "@set"
		},
		"rest": {
			"@id": "rdf:rest",
			"@type": "@id",
			"@container": "@set"
		},
		"rdfs": "http://www.w3.org/2000/01/rdf-schema#",
		"xsd": "http://www.w3.org/2001/XMLSchema#",
		"sh": "https://www.w3.org/ns/shacl#",
		"dct": "http://purl.org/dc/terms/",
		"domain": {
			"@id": "rdfs:domain",
			"@type": "@id",
			"@container": "@set"
		},
		"range": {
			"@id": "rdfs:range",
			"@type": "@id",
			"@container": "@set"
		},
		"label": {
			"@id": "rdfs:label",
			"@container": "@set"
		},
		"comment": {
			"@id": "rdfs:comment",
			"@container": "@set"
		},
		"subClassOf": {
			"@id": "rdfs:subClassOf",
			"@type": "@id",
			"@container": "@set"
		},
		"subPropertyOf": {
			"@id": "rdfs:subPropertyOf",
			"@type": "@id",
			"@container": "@set"
		},
		"isDefinedBy": {
			"@id": "rdfs:isDefinedBy",
			"@container": "@set"
		},
		"seeAlso": {
			"@id": "rdfs:seeAlso",
			"@container": "@set"
		},
		"maxCount": {
			"@id": "sh:maxCount",
			"@type": "xsd:integer"
		},
		"minCount": {
			"@id": "sh:minCount",
			"@type": "xsd:integer"
		},
		"path": {
			"@id": "sh:path",
			"@type": "@id",
			"@container": "@set"
		},
		"title": {
			"@id": "dct:title",
			"@container": "@set"
		},
		"description": {
			"@id": "dct:description",
			"@container": "@set"
		},
		"date": {
			"@id": "dct:date",
			"@container": "@set"
		},
		"owl": "http://www.w3.org/2002/07/owl#",
		"inverseOf": {
			"@id": "owl:inverseOf",
			"@type": "@id",
			"@container": "@set"
		},
		"disjointWith": {
			"@id": "owl:disjointWith",
			"@type": "@id",
			"@container": "@set"
		},
		"unionOf": {
			"@id": "owl:unionOf",
			"@type": "@id",
			"@container": "@set"
		},
		"versionInfo": {
			"@id": "owl:versionInfo",
			"@container": "@set"
		},
		"imports": {
			"@id": "owl:imports",
			"@container": "@set"
		},
		"versionIRI": {
			"@id": "owl:versionIRI",
			"@container": "@set"
		},
		"contributor": {
			"@id": "dct:contributor",
			"@container": "@set"
		},
		"creator": {
			"@id": "dct:creator",
			"@container": "@set"
		},
		"created": {
			"@id": "dct:created",
			"@container": "@set"
		},
		"modified": {
			"@id": "dct:modified",
			"@container": "@set"
		},
		"license": {
			"@id": "dct:license",
			"@container": "@set"
		},
		"skos": "http://www.w3.org/2004/02/skos/core#",
		"gendj": "https://gen.competencies.be/terms/digitalJobs/",
		"inScheme": {
			"@id": "skos:inScheme",
			"@type": "@id",
			"@container": "@set"
		},
		"prefLabel": {
			"@id": "skos:prefLabel",
			"@container": "@set"
		},
		"altLabel": {
			"@id": "skos:altLabel",
			"@container": "@set"
		},
		"narrower": {
			"@id": "skos:narrower",
			"@type": "@id",
			"@container": "@set"
		},
		"broader": {
			"@id": "skos:broader",
			"@type": "@id",
			"@container": "@set"
		},
		"member": {
			"@id": "skos:member",
			"@type": "@id",
			"@container": "@set"
		},
		"definition": {
			"@id": "skos:definition",
			"@container": "@set"
		},
		"scopeNote": {
			"@id": "skos:scopeNote",
			"@container": "@set"
		},
		"example": {
			"@id": "skos:example",
			"@container": "@set"
		},
		"om": "https://ontomodel.competencies.be/ontomodel/",
		"index": {
			"@id": "om:index",
			"@type": "@id",
			"@container": "@set"
		},
		"icon": {
			"@id": "om:icon"
		},
		"records": {
			"@id": "om:records",
			"@type": "@id",
			"@container": "@set"
		},
		"ii": "https://mm.competencies.be/indexInstruction/",
		"instruction": {
			"@id": "ii:instruction",
			"@type": "@id",
			"@container": "@set"
		}
	},
	"graph": [
		{
			"id": "owl:Ontology_entity",
			"type": [
				"owl:Ontology"
			],
			"title": [
				{
					"@language": "en",
					"@value": "The OWL 2 Schema vocabulary (OWL 2)"
				}
			],
			"comment": [
				{
					"@language": "en",
					"@value": "\r\n  This ontology partially describes the built-in classes and\r\n  properties that together form the basis of the RDF/XML syntax of OWL 2.\r\n  The content of this ontology is based on Tables 6.1 and 6.2\r\n  in Section 6.4 of the OWL 2 RDF-Based Semantics specification,\r\n  available at http://www.w3.org/TR/owl2-rdf-based-semantics/.\r\n  Please note that those tables do not include the different annotations\r\n  (labels, comments and rdfs:isDefinedBy links) used in this file.\r\n  Also note that the descriptions provided in this ontology do not\r\n  provide a complete and correct formal description of either the syntax\r\n  or the semantics of the introduced terms (please see the OWL 2\r\n  recommendations for the complete and normative specifications).\r\n  Furthermore, the information provided by this ontology may be\r\n  misleading if not used with care. This ontology SHOULD NOT be imported\r\n  into OWL ontologies. Importing this file into an OWL 2 DL ontology\r\n  will cause it to become an OWL 2 Full ontology and may have other,\r\n  unexpected, consequences.\r\n   "
				}
			],
			"isDefinedBy": [
				{
					"id": "http://www.w3.org/TR/owl2-mapping-to-rdf/"
				},
				{
					"id": "http://www.w3.org/TR/owl2-rdf-based-semantics/"
				},
				{
					"id": "http://www.w3.org/TR/owl2-syntax/"
				}
			],
			"seeAlso": [
				{
					"id": "http://www.w3.org/TR/owl2-rdf-based-semantics/#table-axiomatic-classes"
				},
				{
					"id": "http://www.w3.org/TR/owl2-rdf-based-semantics/#table-axiomatic-properties"
				}
			],
			"imports": [
				{
					"id": "http://www.w3.org/2000/01/rdf-schema"
				}
			],
			"versionIRI": [
				{
					"id": "http://www.w3.org/2002/07/owl"
				}
			],
			"versionInfo": [
				"$Date: 2009/11/15 10:54:12 $"
			],
			"instruction": [
				"ii:defaultIndex_Class",
				"ii:defaultIndex_Property",
				"ii:defaultIndex_Term",
				"ii:defaultIndex_Datatype"
			],
			"index": [
				"owl:defaultIndex_Class_0",
				"owl:defaultIndex_Property_1",
				"owl:defaultIndex_Term_2",
				"owl:defaultIndex_Datatype_3"
			]
		},
		{
			"id": "owl:defaultIndex_Class_0",
			"type": [
				"om:OntoIndex"
			],
			"title": [
				{
					"@language": "fr",
					"@value": "Les classes"
				},
				{
					"@language": "en",
					"@value": "Classes"
				}
			],
			"icon": "BubbleChart",
			"records": [
				"owl:scheme_for_Class_generated"
			]
		},
		{
			"id": "owl:defaultIndex_Property_1",
			"type": [
				"om:OntoIndex"
			],
			"title": [
				{
					"@language": "fr",
					"@value": "Les propriétés"
				}
			],
			"icon": "DeviceHub",
			"records": [
				"owl:scheme_for_Property_generated"
			]
		},
		{
			"id": "owl:defaultIndex_Term_2",
			"type": [
				"om:OntoIndex"
			],
			"title": [
				{
					"@language": "fr",
					"@value": "Les référentiels"
				}
			],
			"icon": "AccountTree",
			"records": []
		},
		{
			"id": "owl:defaultIndex_Datatype_3",
			"type": [
				"om:OntoIndex"
			],
			"title": [
				{
					"@language": "fr",
					"@value": "Les Datatypes"
				}
			],
			"icon": "DataObject",
			"records": []
		}
	]
}