{
  "data": {
    "allOwlOntology": {
      "nodes": [
        {
          "id": "ori:Ontologie",
          "inScheme": [
            "rdfe:menu_publish"
          ],
          "type": "owl_ontology",
          "types": [
            "owl:ontology"
          ],
          "comment": [
            {
              "_language": "fr",
              "_value": "Ontologie pour l'orientation en ile de france : Oriane"
            }
          ],
          "title": [
            {
              "_language": "fr",
              "_value": "Oriane"
            }
          ],
          "index": [
            {
              "id": "ori:defaultIndex_Class_0",
              "title": [
                {
                  "_language": "fr",
                  "_value": "Les classes"
                },
                {
                  "_language": "en",
                  "_value": "Classes"
                }
              ],
              "icon": "BubbleChart",
              "type": "om_OntoIndex",
              "types": [
                "om:OntoIndex"
              ],
              "records": [
                {
                  "id": "ori:scheme_for_Class_generated",
                  "type": "skos_ConceptScheme",
                  "title": [
                    {
                      "_language": "en",
                      "_value": "Default Level"
                    },
                    {
                      "_language": "fr",
                      "_value": "Niveau par défaut"
                    }
                  ],
                  "description": [
                    {
                      "_language": "en",
                      "_value": "Default scheme for Class - autogenerated"
                    },
                    {
                      "_language": "fr",
                      "_value": "Scheme par défault pour les Class - autogenéré"
                    }
                  ],
                  "hasInScheme": [
                    {
                      "id": "ori:Aptitude",
                      "label": [
                        {
                          "_language": "fr",
                          "_value": "Aptitude"
                        }
                      ],
                      "hasSubClasses": []
                    },
                    {
                      "id": "ori:AptitudeRating",
                      "label": [
                        {
                          "_language": "fr",
                          "_value": "Mesure de l'aptitude"
                        }
                      ],
                      "hasSubClasses": []
                    },
                    {
                      "id": "ori:Experience",
                      "label": [
                        {
                          "_language": "fr",
                          "_value": "Experience"
                        }
                      ],
                      "hasSubClasses": []
                    },
                    {
                      "id": "ori:LearningObject",
                      "label": [
                        {
                          "_language": "fr",
                          "_value": "Traces d'apprentissage"
                        }
                      ],
                      "hasSubClasses": []
                    },
                    {
                      "id": "ori:Profile",
                      "label": [
                        {
                          "_language": "fr",
                          "_value": "Profil Oriane"
                        }
                      ],
                      "hasSubClasses": []
                    },
                    {
                      "id": "ori:Public",
                      "label": [
                        {
                          "_language": "fr",
                          "_value": "Public"
                        }
                      ],
                      "hasSubClasses": []
                    },
                    {
                      "id": "ori:Suggestion",
                      "label": [
                        {
                          "_language": "fr",
                          "_value": "Suggestions"
                        }
                      ],
                      "hasSubClasses": []
                    }
                  ]
                }
              ]
            },
            {
              "id": "ori:defaultIndex_Property_1",
              "title": [
                {
                  "_language": "fr",
                  "_value": "Les propriétés"
                }
              ],
              "icon": "DeviceHub",
              "type": "om_OntoIndex",
              "types": [
                "om:OntoIndex"
              ],
              "records": [
                {
                  "id": "ori:scheme_for_Property_generated",
                  "type": "skos_ConceptScheme",
                  "title": [
                    {
                      "_language": "en",
                      "_value": "Default Level"
                    },
                    {
                      "_language": "fr",
                      "_value": "Niveau par défaut"
                    }
                  ],
                  "description": [
                    {
                      "_language": "en",
                      "_value": "Default scheme for Property - autogenerated"
                    },
                    {
                      "_language": "fr",
                      "_value": "Scheme par défault pour les Property - autogenéré"
                    }
                  ],
                  "hasInScheme": [
                    {
                      "id": "ori:bloom",
                      "label": [
                        {
                          "_language": "fr",
                          "_value": "Type Bloom"
                        }
                      ]
                    },
                    {
                      "id": "ori:experienceStructure",
                      "label": [
                        {
                          "_language": "fr",
                          "_value": "Structure"
                        }
                      ]
                    },
                    {
                      "id": "ori:hasAptitude",
                      "label": [
                        {
                          "_language": "fr",
                          "_value": "Aptitude"
                        }
                      ]
                    },
                    {
                      "id": "ori:hasAptitudeRating",
                      "label": null
                    },
                    {
                      "id": "ori:hasSuggestion",
                      "label": null
                    },
                    {
                      "id": "ori:hobby",
                      "label": [
                        {
                          "_language": "fr",
                          "_value": "Hobby"
                        }
                      ]
                    },
                    {
                      "id": "ori:publicAge",
                      "label": [
                        {
                          "_language": "fr",
                          "_value": "Age du public"
                        }
                      ]
                    },
                    {
                      "id": "ori:publicType",
                      "label": [
                        {
                          "_language": "fr",
                          "_value": "Type de publique"
                        }
                      ]
                    },
                    {
                      "id": "ori:role",
                      "label": [
                        {
                          "_language": "fr",
                          "_value": "Rôle"
                        }
                      ]
                    },
                    {
                      "id": "ori:skill",
                      "label": [
                        {
                          "_language": "fr",
                          "_value": "Skill"
                        }
                      ]
                    },
                    {
                      "id": "ori:sport",
                      "label": [
                        {
                          "_language": "fr",
                          "_value": "Sport"
                        }
                      ]
                    },
                    {
                      "id": "ori:tache",
                      "label": [
                        {
                          "_language": "fr",
                          "_value": "Tâche"
                        }
                      ]
                    }
                  ]
                }
              ]
            },
            {
              "id": "ori:defaultIndex_Term_2",
              "title": [
                {
                  "_language": "fr",
                  "_value": "Les référentiels"
                }
              ],
              "icon": "AccountTree",
              "type": "om_OntoIndex",
              "types": [
                "om:OntoIndex"
              ],
              "records": []
            }
          ]
        }
      ]
    }
  },
  "extensions": {
    "enableRefresh": "1"
  }
}
