[
    {
        "experienceID": "1",
        "idea": "Oui",
        "role": "Acteur",
        "hobby": null,
        "idea2": null,
        "sport": null,
        "tasks": [
            "Adapter son action en fonction de son énergie et/ou de celle du groupe"
        ],
        "where": "Paris",
        "public": [
            "Collègues"
        ],
        "skills": [
            [
                "22"
            ]
        ],
        "context": "? Professionnelle",
        "endDate": null,
        "onGoing": "Oui",
        "autonomy": "? en équipe",
        "decision": "Mon groupe, mon équipe",
        "parallel": "Emploi (temps partiel >12h/semaine)",
        "startDate": "2018-6",
        "statusPro": "CDI",
        "structure": "TCM",
        "evaluation": true,
        "hourVolume": "Temps plein",
        "profession": "Agent.e de sécurité privée",
        "p​​ublicAges": [
            "? Adultes"
        ],
        "competition": null,
        "explication": null,
        "roleProgram": null,
        "proposition1": null,
        "proposition2": null,
        "proposition3": null,
        "proposition4": null,
        "roleActivity": null,
        "statusScholar": null,
        "representation": null,
        "statusPersonal": null,
        "culturalContext": "Assez différente",
        "rolesVolunteers": null,
        "statusVolunteer": null,
        "publicDifficulty": "Oui, avec quelques difficultés",
        "structurePartner": null,
        "geographicContext": "Là où j'ai grandi"
    },
    {
        "experienceID": "2",
        "idea": "Oui",
        "role": "Chorale de quartier",
        "hobby": "Chant",
        "idea2": null,
        "sport": null,
        "tasks": null,
        "where": "p",
        "public": [
            "Camarades"
        ],
        "skills": [
            [
                "15"
            ]
        ],
        "context": "?‍ :female_sign:  Personnel",
        "endDate": null,
        "onGoing": "Non",
        "autonomy": " :scales:  de façon équilibrée",
        "decision": null,
        "parallel": "Emploi (temps partiel >12h/semaine)",
        "startDate": "2002-10",
        "statusPro": null,
        "structure": "Mission locale",
        "evaluation": true,
        "hourVolume": "Mi-temps",
        "profession": null,
        "publicAges": [
            "? Adultes"
        ],
        "competition": null,
        "explication": null,
        "roleProgram": null,
        "proposition1": null,
        "proposition2": null,
        "proposition3": null,
        "proposition4": null,
        "roleActivity": "Eleve",
        "statusScholar": null,
        "representation": "Oui, devant des inconnus",
        "statusPersonal": "Loisir",
        "culturalContext": "Assez différente",
        "rolesVolunteers": null,
        "statusVolunteer": null,
        "publicDifficulty": "Oui, avec quelques difficultés",
        "structurePartner": null,
        "geographicContext": "Proche de là où j'ai grandi"
    }
]