<?xml version="1.0" encoding="utf-8"?>
<!-- Generator: Adobe Illustrator 24.3.0, SVG Export Plug-In . SVG Version: 6.00 Build 0)  -->
<svg version="1.1" id="Calque_1" xmlns="http://www.w3.org/2000/svg" xmlns:xlink="http://www.w3.org/1999/xlink" x="0px" y="0px"
	 viewBox="0 0 595.3 157.1" style="enable-background:new 0 0 595.3 157.1;" xml:space="preserve"
     width="172px" height="57px"
     >
<style type="text/css">
	.st0{fill:#FFDE08;}
	.st1{fill:#FFDE00;}
	.st2{fill:#282828;}
	.st3{fill:#FFFFFE;}
</style>
<g>
	<path class="st0" d="M266.9,38.1h21.4c14.9,0,24.6,5.7,24.6,20.8c0,14.4-9.8,21.8-24.6,21.8h-16.2v36.2h-5.2V38.1z M286.9,76.2
		c13.3,0,20.6-5.5,20.6-17.2c0-11.9-7.4-16.2-20.6-16.2h-14.8v33.4H286.9z M287.1,79.2l5-1.6l22.2,39.4h-6.1L287.1,79.2z"/>
	<path class="st1" d="M317,118.6h-9.6l-20.3-36.2h-13.5v36.2h-8.3v-82h22.9c8.1,0,14.5,1.7,18.8,5.1c4.9,3.8,7.3,9.6,7.3,17.3
		c0,12.1-6.7,20.2-18.3,22.6L317,118.6z M309.2,115.5h2.5l-18.8-33.4c-0.7,0.1-1.5,0.1-2.3,0.2L309.2,115.5z M268.4,115.5h2.2V79.3
		h14.8l-0.5-1l1.9-0.6h-16.2V41.3h16.4c7.3,0,12.6,1.3,16.2,3.9c4,2.9,6,7.5,6,13.8c0,7.4-2.9,16-15.4,18.2l0.9,1.6
		c10.8-1.9,16.9-8.9,16.9-19.8c0-13-7.6-19.3-23.1-19.3h-19.9V115.5z M273.6,74.6h13.3c6.3,0,11.1-1.3,14.3-3.9
		c3.2-2.6,4.8-6.5,4.8-11.8c0-10.3-5.7-14.7-19.1-14.7h-13.3V74.6z"/>
</g>
<g>
	<path class="st0" d="M326.6,38.1h41v4.7h-35.8v29.9h30v4.7h-30v34.8h36.9v4.7h-42.1V38.1z"/>
	<path class="st1" d="M370.2,118.6h-45.2v-82h44.1v7.8h-35.8v26.8h30v7.8h-30v31.7h36.9V118.6z M328.1,115.5h39v-1.7h-36.9V76h30
		v-1.7h-30v-33H366v-1.7h-37.9V115.5z"/>
</g>
<g>
	<path class="st0" d="M407.5,38.1h5.2l26.4,78.9h-5.5l-15-46.5c-3-9.4-5.7-17.6-8.3-27.3h-0.5c-2.6,9.6-5.3,17.9-8.3,27.3
		l-15.2,46.5h-5.3L407.5,38.1z M393.2,85.4h33.6V90h-33.6V85.4z"/>
	<path class="st1" d="M441.3,118.6h-8.8l-8.7-27.1h-27.4l-8.8,27.1H379l27.4-82h7.4L441.3,118.6z M434.7,115.5h2.3l-8.7-26v2H427
		L434.7,115.5z M383.3,115.5h2l7.8-24h-1.5v-1L383.3,115.5z M397.4,88.4h25.4l-0.5-1.5h-24.4L397.4,88.4z M424.5,83.8h1.9
		l-14.8-44.1h-3l-14.8,44.1h1.8l4.5-13.7c3-9.1,5.6-17.4,8.3-27.2l0.3-1.1h2.8l0.3,1.1c2.7,9.8,5.5,18.5,8.3,27.2L424.5,83.8z
		 M398.9,83.8h22.4l-4.1-12.8c-2.4-7.4-4.8-14.7-7.1-22.8c-2.3,8-4.6,15.1-7.1,22.8L398.9,83.8z"/>
</g>
<g>
	<path class="st0" d="M451.3,38.1h17.3c23.1,0,34.1,15.3,34.1,39.2s-11,39.7-34,39.7h-17.4V38.1z M468.1,112.4
		c20.3,0,29.1-14.5,29.1-35s-8.8-34.5-29.1-34.5h-11.6v69.6H468.1z"/>
	<path class="st1" d="M468.8,118.6h-19v-82h18.9c11.7,0,20.7,3.8,26.9,11.2c5.8,7,8.7,16.9,8.7,29.5
		C504.3,103.6,491.3,118.6,468.8,118.6z M452.9,115.5h15.9c10.7,0,18.9-3.5,24.4-10.3c5.3-6.6,8-15.9,8-27.8c0-11.9-2.7-21.1-8-27.6
		c-5.5-6.7-13.8-10.1-24.5-10.1h-15.8V115.5z M468.1,113.9H455V41.3h13.1c10.2,0,18.1,3.4,23.4,10.1c4.8,6.2,7.3,14.9,7.3,25.9
		c0,11.1-2.4,19.9-7.3,26.2C486.2,110.4,478.4,113.9,468.1,113.9z M458.1,110.9h10c9.2,0,16.3-3.1,21-9.2c4.4-5.7,6.6-13.9,6.6-24.3
		c0-10.3-2.2-18.4-6.6-24c-4.7-5.9-11.7-9-21-9h-10V110.9z"/>
</g>
<g>
	<path class="st0" d="M532.7,85.1l-22.5-46.9h5.6l11.4,24.7c2.6,5.8,5.1,11.3,7.9,17h0.5c2.9-5.8,5.7-11.3,8.1-17l11.4-24.7h5.3
		l-22.5,46.9v32h-5.2V85.1z"/>
	<path class="st1" d="M539.5,118.6h-8.3V85.4l-23.4-48.8h9l11.8,25.6c0.6,1.3,1.2,2.6,1.8,3.9c1.7,3.7,3.3,7.2,5,10.8
		c0.2-0.4,0.4-0.8,0.6-1.3c2.3-4.5,4.4-8.8,6.3-13.4l0,0l11.8-25.6h8.7l-23.4,48.8V118.6z M534.2,115.5h2.2V84.7l21.6-45h-1.9
		l-11,23.8c-1.9,4.6-4.1,8.9-6.4,13.5c-0.6,1.2-1.2,2.4-1.8,3.6l-0.4,0.9h-2.4l-0.4-0.9c-2.2-4.5-4.1-8.7-6.2-13.2
		c-0.6-1.3-1.2-2.6-1.8-3.9l-11-23.8h-2.1l21.6,45V115.5z"/>
</g>
<path class="st2" d="M49.5,105.3l12-9.4c2.9,5.6,6.9,8.2,10.9,8.2c6.3,0,9.7-3.4,9.7-14.3V36.5h17.6v54.8c0,15.8-7.8,28.8-25,28.8
	C62.7,120.2,54.9,115.3,49.5,105.3z"/>
<path class="st2" d="M110.3,77.2c0-26.8,14.4-42.2,35.4-42.2c21,0,35.4,15.5,35.4,42.2c0,26.8-14.4,42.9-35.4,42.9
	C124.7,120.2,110.3,104.1,110.3,77.2z M163,77.2c0-16.5-6.7-26.2-17.3-26.2c-10.6,0-17.3,9.7-17.3,26.2c0,16.5,6.7,26.9,17.3,26.9
	C156.3,104.1,163,93.7,163,77.2z"/>
<path class="st2" d="M192.4,36.5H219c16.2,0,28.7,4.7,28.7,20.4c0,7.4-3.9,15.2-10.3,17.7v0.5c8,2.2,14.1,8.4,14.1,19.3
	c0,16.7-13.4,24.2-30.4,24.2h-28.9V36.5z M218.2,69.4c8.6,0,12.3-3.8,12.3-9.8c0-6.3-4-8.8-12.2-8.8H210v18.6H218.2z M219.8,104.3
	c9.6,0,14.6-3.6,14.6-11.1c0-7.2-4.9-10.1-14.6-10.1H210v21.2H219.8z"/>
<path class="st0" d="M81.8,72.9H34.4c0,0-1.1-45.8,47.4-36.4V72.9z"/>
<circle class="st3" cx="81.3" cy="54.8" r="10.4"/>
<circle class="st2" cx="81" cy="54.9" r="5.1"/>
</svg>
