{
    "type": "relation-point",
    "path": [
        "125248",
        "skos:exactMatch",
        "skill:6ff01827-907d-43d8-b6e4-7162c1cf0aca"
    ],
    "status": "noTarget",
    "relationType": "skos:exactMatch",
    "finalScore": 224.3782637,
    "matchingId": "f69674ec825132ab0a7269454793b1c7",
    "classification": "p100",
    "matches": [
        {
            "source": "mlt",
            "score": 7.0155697
        },
        {
            "source": "restricted",
            "score": 23.920898
        },
        {
            "source": "elastic-compFromJobs",
            "runId": "__fixed__",
            "score": 23.920898
        },
        {
            "source": "vdab-score",
            "score": 72.8
        },
        {
            "source": "vdab-code",
            "score": "D"
        },
        {
            "source": "mlt+restricted",
            "score": 1.487992346373
        }
    ]
}