{
	"name": "from domainRangeGuess function",
	"layerRealm": [
		"domainRangeGuess",
		"skos_1.3.0",
		"ismene",
		"gen_v1",
		"jasOnto-1.0.0"
	],
	"ld": {
		"graph": [
			{
				"id": "skos:altLabel",
				"domain": [
					"rdfs:Resource"
				],
				"range": [
					"rdfs:Literal"
				]
			},
			{
				"id": "skos:broadMatch",
				"domain": [
					"skos:Concept"
				],
				"range": [
					"skos:Concept"
				]
			},
			{
				"id": "skos:broader",
				"domain": [
					"skos:Concept"
				],
				"range": [
					"skos:Concept"
				]
			},
			{
				"id": "skos:broaderTransitive",
				"domain": [
					"skos:Concept"
				],
				"range": [
					"skos:Concept"
				]
			},
			{
				"id": "skos:closeMatch",
				"domain": [
					"skos:Concept"
				],
				"range": [
					"skos:Concept"
				]
			},
			{
				"id": "skos:exactMatch",
				"domain": [
					"skos:Concept"
				],
				"range": [
					"skos:Concept"
				]
			},
			{
				"id": "skos:hiddenLabel",
				"domain": [
					"rdfs:Resource"
				],
				"range": [
					"rdfs:Literal"
				]
			},
			{
				"id": "skos:mappingRelation",
				"domain": [
					"skos:Concept"
				],
				"range": [
					"skos:Concept"
				]
			},
			{
				"id": "skos:narrowMatch",
				"domain": [
					"skos:Concept"
				],
				"range": [
					"skos:Concept"
				]
			},
			{
				"id": "skos:narrower",
				"domain": [
					"skos:Concept"
				],
				"range": [
					"skos:Concept"
				]
			},
			{
				"id": "skos:narrowerTransitive",
				"domain": [
					"skos:Concept"
				],
				"range": [
					"skos:Concept"
				]
			},
			{
				"id": "skos:prefLabel",
				"domain": [
					"rdfs:Resource"
				],
				"range": [
					"rdfs:Literal"
				]
			},
			{
				"id": "skos:related",
				"domain": [
					"skos:Concept"
				],
				"range": [
					"skos:Concept"
				]
			},
			{
				"id": "skos:relatedMatch",
				"domain": [
					"skos:Concept"
				],
				"range": [
					"skos:Concept"
				]
			},
			{
				"id": "skos:changeNote",
				"domain": [
					"skos:Concept",
					"rdfs:Resource",
					"owl:Thing"
				],
				"range": [
					"xsd:string",
					"rdf:langString",
					"rdf:HTML",
					"rdf:XMLLiteral"
				]
			},
			{
				"id": "skos:definition",
				"domain": [
					"skos:Concept",
					"rdfs:Resource",
					"owl:Thing"
				],
				"range": [
					"xsd:string",
					"rdf:langString",
					"rdf:HTML",
					"rdf:XMLLiteral"
				]
			},
			{
				"id": "skos:editorialNote",
				"domain": [
					"skos:Concept",
					"rdfs:Resource",
					"owl:Thing"
				],
				"range": [
					"xsd:string",
					"rdf:langString",
					"rdf:HTML",
					"rdf:XMLLiteral"
				]
			},
			{
				"id": "skos:example",
				"domain": [
					"skos:Concept",
					"rdfs:Resource",
					"owl:Thing"
				],
				"range": [
					"xsd:string",
					"rdf:langString",
					"rdf:HTML",
					"rdf:XMLLiteral"
				]
			},
			{
				"id": "skos:historyNote",
				"domain": [
					"skos:Concept",
					"rdfs:Resource",
					"owl:Thing"
				],
				"range": [
					"xsd:string",
					"rdf:langString",
					"rdf:HTML",
					"rdf:XMLLiteral"
				]
			},
			{
				"id": "skos:inScheme",
				"domain": [
					"skos:ConceptScheme",
					"rdfs:Resource",
					"owl:Thing"
				]
			},
			{
				"id": "skos:notation",
				"domain": [
					"skos:Concept"
				],
				"range": [
					"rdfs:Datatype"
				]
			},
			{
				"id": "skos:note",
				"domain": [
					"skos:Concept",
					"rdfs:Resource",
					"owl:Thing"
				],
				"range": [
					"xsd:string",
					"rdf:langString",
					"rdf:HTML",
					"rdf:XMLLiteral"
				]
			},
			{
				"id": "skos:scopeNote",
				"domain": [
					"skos:Concept",
					"rdfs:Resource",
					"owl:Thing"
				],
				"range": [
					"xsd:string",
					"rdf:langString",
					"rdf:HTML",
					"rdf:XMLLiteral"
				]
			}
		],
		"@context": {
			"id": "@id",
			"graph": {
				"@id": "@graph",
				"@container": "@set"
			},
			"type": {
				"@id": "@type",
				"@container": "@set"
			},
			"rdfs": "http://www.w3.org/2000/01/rdf-schema#",
			"domain": {
				"@id": "rdfs:domain",
				"@type": "@id",
				"@container": "@set"
			},
			"range": {
				"@id": "rdfs:range",
				"@type": "@id",
				"@container": "@set"
			},
			"skos": "http://www.w3.org/2004/02/skos/core#",
			"xsd": "http://www.w3.org/2001/XMLSchema#"
		}
	}
}