/*!
             * Wait for document loaded before starting the execution
             */

/*! ../../config */

/*! ../../dagre-wrapper/index.js */

/*! ../../diagrams/common/common */

/*! ../../interactionDb */

/*! ../../logger */

/*! ../../mermaidAPI */

/*! ../../utils */

/*! ../common/common */

/*! ../config */

/*! ../createLabel */

/*! ../diagrams/class/svgDraw */

/*! ../diagrams/common/common */

/*! ../intersect/index.js */

/*! ../logger */

/*! ../package.json */

/*! ../utils */

/*! ./classDb */

/*! ./clusters */

/*! ./config */

/*! ./createLabel */

/*! ./defaultConfig */

/*! ./diagrams/class/classDb */

/*! ./diagrams/class/classRenderer */

/*! ./diagrams/class/classRenderer-v2 */

/*! ./diagrams/class/parser/classDiagram */

/*! ./diagrams/class/styles */

/*! ./diagrams/common/common */

/*! ./diagrams/er/erDb */

/*! ./diagrams/er/erRenderer */

/*! ./diagrams/er/parser/erDiagram */

/*! ./diagrams/er/styles */

/*! ./diagrams/flowchart/flowDb */

/*! ./diagrams/flowchart/flowRenderer */

/*! ./diagrams/flowchart/flowRenderer-v2 */

/*! ./diagrams/flowchart/parser/flow */

/*! ./diagrams/flowchart/styles */

/*! ./diagrams/gantt/ganttDb */

/*! ./diagrams/gantt/ganttRenderer */

/*! ./diagrams/gantt/parser/gantt */

/*! ./diagrams/gantt/styles */

/*! ./diagrams/git/gitGraphAst */

/*! ./diagrams/git/gitGraphRenderer */

/*! ./diagrams/git/parser/gitGraph */

/*! ./diagrams/git/styles */

/*! ./diagrams/info/infoDb */

/*! ./diagrams/info/infoRenderer */

/*! ./diagrams/info/parser/info */

/*! ./diagrams/info/styles */

/*! ./diagrams/pie/parser/pie */

/*! ./diagrams/pie/pieDb */

/*! ./diagrams/pie/pieRenderer */

/*! ./diagrams/pie/styles */

/*! ./diagrams/requirement/parser/requirementDiagram */

/*! ./diagrams/requirement/requirementDb */

/*! ./diagrams/requirement/requirementRenderer */

/*! ./diagrams/requirement/styles */

/*! ./diagrams/sequence/parser/sequenceDiagram */

/*! ./diagrams/sequence/sequenceDb */

/*! ./diagrams/sequence/sequenceRenderer */

/*! ./diagrams/sequence/styles */

/*! ./diagrams/state/parser/stateDiagram */

/*! ./diagrams/state/stateDb */

/*! ./diagrams/state/stateRenderer */

/*! ./diagrams/state/stateRenderer-v2 */

/*! ./diagrams/state/styles */

/*! ./diagrams/user-journey/journeyDb */

/*! ./diagrams/user-journey/journeyRenderer */

/*! ./diagrams/user-journey/parser/journey */

/*! ./diagrams/user-journey/styles */

/*! ./edges */

/*! ./erDb */

/*! ./erMarkers */

/*! ./errorRenderer */

/*! ./flowChartShapes */

/*! ./flowDb */

/*! ./ganttDb */

/*! ./gitGraphAst */

/*! ./id-cache.js */

/*! ./infoDb */

/*! ./interactionDb */

/*! ./intersect-circle.js */

/*! ./intersect-ellipse */

/*! ./intersect-ellipse.js */

/*! ./intersect-line */

/*! ./intersect-node.js */

/*! ./intersect-polygon.js */

/*! ./intersect-rect.js */

/*! ./intersect/index.js */

/*! ./intersect/intersect-rect */

/*! ./journeyDb */

/*! ./logger */

/*! ./markers */

/*! ./mermaid-graphlib */

/*! ./mermaidAPI */

/*! ./nodes */

/*! ./parser/classDiagram */

/*! ./parser/erDiagram */

/*! ./parser/flow */

/*! ./parser/gantt */

/*! ./parser/gitGraph */

/*! ./parser/info */

/*! ./parser/journey */

/*! ./parser/pie */

/*! ./parser/requirementDiagram */

/*! ./parser/sequenceDiagram */

/*! ./parser/stateDiagram */

/*! ./pieDb */

/*! ./requirementDb */

/*! ./requirementMarkers */

/*! ./sequenceDb */

/*! ./shapes */

/*! ./shapes/note */

/*! ./shapes/util */

/*! ./stateDb */

/*! ./styles */

/*! ./svgDraw */

/*! ./theme-base */

/*! ./theme-dark */

/*! ./theme-default */

/*! ./theme-forest */

/*! ./theme-helpers */

/*! ./theme-neutral */

/*! ./themes */

/*! ./util */

/*! ./utils */

/*! @braintree/sanitize-url */

/*! Check if previously processed */

/*! d3 */

/*! dagre */

/*! dagre-d3 */

/*! dagre-d3/lib/label/add-html-label.js */

/*! dompurify */

/*! fs */

/*! graphlib */

/*! khroma */

/*! moment-mini */

/*! path */

/*! sequence config was passed as #1 */

/*! stylis */

/*!********************!*\
          !*** fs (ignored) ***!
          \********************/

/*!*********************!*\
          !*** external "d3" ***!
          \*********************/

/*!**********************!*\
          !*** ./package.json ***!
          \**********************/

/*!**********************!*\
          !*** ./src/utils.js ***!
          \**********************/

/*!***********************!*\
          !*** ./src/config.js ***!
          \***********************/

/*!***********************!*\
          !*** ./src/logger.js ***!
          \***********************/

/*!***********************!*\
          !*** ./src/styles.js ***!
          \***********************/

/*!************************!*\
          !*** ./src/mermaid.js ***!
          \************************/

/*!************************!*\
          !*** external "dagre" ***!
          \************************/

/*!*************************!*\
          !*** external "khroma" ***!
          \*************************/

/*!*************************!*\
          !*** external "stylis" ***!
          \*************************/

/*!***************************!*\
          !*** ./src/mermaidAPI.js ***!
          \***************************/

/*!***************************!*\
          !*** external "dagre-d3" ***!
          \***************************/

/*!***************************!*\
          !*** external "graphlib" ***!
          \***************************/

/*!****************************!*\
          !*** external "dompurify" ***!
          \****************************/

/*!*****************************!*\
          !*** ./src/themes/index.js ***!
          \*****************************/

/*!******************************!*\
          !*** ./src/defaultConfig.js ***!
          \******************************/

/*!******************************!*\
          !*** ./src/errorRenderer.js ***!
          \******************************/

/*!******************************!*\
          !*** ./src/interactionDb.js ***!
          \******************************/

/*!******************************!*\
          !*** external "moment-mini" ***!
          \******************************/

/*!*********************************!*\
          !*** ./src/diagrams/er/erDb.js ***!
          \*********************************/

/*!**********************************!*\
          !*** ./src/themes/theme-base.js ***!
          \**********************************/

/*!**********************************!*\
          !*** ./src/themes/theme-dark.js ***!
          \**********************************/

/*!***********************************!*\
          !*** ./src/diagrams/er/styles.js ***!
          \***********************************/

/*!***********************************!*\
          !*** ./src/diagrams/pie/pieDb.js ***!
          \***********************************/

/*!************************************!*\
          !*** ./src/dagre-wrapper/edges.js ***!
          \************************************/

/*!************************************!*\
          !*** ./src/dagre-wrapper/index.js ***!
          \************************************/

/*!************************************!*\
          !*** ./src/dagre-wrapper/nodes.js ***!
          \************************************/

/*!************************************!*\
          !*** ./src/diagrams/git/styles.js ***!
          \************************************/

/*!************************************!*\
          !*** ./src/diagrams/pie/styles.js ***!
          \************************************/

/*!************************************!*\
          !*** ./src/themes/theme-forest.js ***!
          \************************************/

/*!*************************************!*\
          !*** ./src/diagrams/info/infoDb.js ***!
          \*************************************/

/*!*************************************!*\
          !*** ./src/diagrams/info/styles.js ***!
          \*************************************/

/*!*************************************!*\
          !*** ./src/themes/theme-default.js ***!
          \*************************************/

/*!*************************************!*\
          !*** ./src/themes/theme-helpers.js ***!
          \*************************************/

/*!*************************************!*\
          !*** ./src/themes/theme-neutral.js ***!
          \*************************************/

/*!**************************************!*\
          !*** ./src/dagre-wrapper/markers.js ***!
          \**************************************/

/*!**************************************!*\
          !*** ./src/diagrams/class/styles.js ***!
          \**************************************/

/*!**************************************!*\
          !*** ./src/diagrams/er/erMarkers.js ***!
          \**************************************/

/*!**************************************!*\
          !*** ./src/diagrams/gantt/styles.js ***!
          \**************************************/

/*!**************************************!*\
          !*** ./src/diagrams/state/shapes.js ***!
          \**************************************/

/*!**************************************!*\
          !*** ./src/diagrams/state/styles.js ***!
          \**************************************/

/*!***************************************!*\
          !*** ./src/dagre-wrapper/clusters.js ***!
          \***************************************/

/*!***************************************!*\
          !*** ./src/diagrams/class/classDb.js ***!
          \***************************************/

/*!***************************************!*\
          !*** ./src/diagrams/class/svgDraw.js ***!
          \***************************************/

/*!***************************************!*\
          !*** ./src/diagrams/common/common.js ***!
          \***************************************/

/*!***************************************!*\
          !*** ./src/diagrams/er/erRenderer.js ***!
          \***************************************/

/*!***************************************!*\
          !*** ./src/diagrams/gantt/ganttDb.js ***!
          \***************************************/

/*!***************************************!*\
          !*** ./src/diagrams/state/stateDb.js ***!
          \***************************************/

/*!****************************************!*\
          !*** ./src/diagrams/state/id-cache.js ***!
          \****************************************/

/*!*****************************************!*\
          !*** ./src/diagrams/git/gitGraphAst.js ***!
          \*****************************************/

/*!*****************************************!*\
          !*** ./src/diagrams/pie/pieRenderer.js ***!
          \*****************************************/

/*!*****************************************!*\
          !*** ./src/diagrams/sequence/styles.js ***!
          \*****************************************/

/*!******************************************!*\
          !*** ./src/dagre-wrapper/createLabel.js ***!
          \******************************************/

/*!******************************************!*\
          !*** ./src/dagre-wrapper/shapes/note.js ***!
          \******************************************/

/*!******************************************!*\
          !*** ./src/dagre-wrapper/shapes/util.js ***!
          \******************************************/

/*!******************************************!*\
          !*** ./src/diagrams/flowchart/flowDb.js ***!
          \******************************************/

/*!******************************************!*\
          !*** ./src/diagrams/flowchart/styles.js ***!
          \******************************************/

/*!******************************************!*\
          !*** ./src/diagrams/sequence/svgDraw.js ***!
          \******************************************/

/*!******************************************!*\
          !*** external "@braintree/sanitize-url" ***!
          \******************************************/

/*!*******************************************!*\
          !*** ./src/diagrams/info/infoRenderer.js ***!
          \*******************************************/

/*!*******************************************!*\
          !*** ./src/diagrams/pie/parser/pie.jison ***!
          \*******************************************/

/*!********************************************!*\
          !*** ./src/diagrams/requirement/styles.js ***!
          \********************************************/

/*!*********************************************!*\
          !*** ./src/diagrams/class/classRenderer.js ***!
          \*********************************************/

/*!*********************************************!*\
          !*** ./src/diagrams/gantt/ganttRenderer.js ***!
          \*********************************************/

/*!*********************************************!*\
          !*** ./src/diagrams/info/parser/info.jison ***!
          \*********************************************/

/*!*********************************************!*\
          !*** ./src/diagrams/sequence/sequenceDb.js ***!
          \*********************************************/

/*!*********************************************!*\
          !*** ./src/diagrams/state/stateRenderer.js ***!
          \*********************************************/

/*!*********************************************!*\
          !*** ./src/diagrams/user-journey/styles.js ***!
          \*********************************************/

/*!**********************************************!*\
          !*** ./src/dagre-wrapper/intersect/index.js ***!
          \**********************************************/

/*!**********************************************!*\
          !*** ./src/diagrams/git/gitGraphRenderer.js ***!
          \**********************************************/

/*!**********************************************!*\
          !*** ./src/diagrams/user-journey/svgDraw.js ***!
          \**********************************************/

/*!***********************************************!*\
          !*** ./node_modules/path-browserify/index.js ***!
          \***********************************************/

/*!***********************************************!*\
          !*** ./src/dagre-wrapper/mermaid-graphlib.js ***!
          \***********************************************/

/*!***********************************************!*\
          !*** ./src/diagrams/gantt/parser/gantt.jison ***!
          \***********************************************/

/*!************************************************!*\
          !*** ./src/diagrams/class/classRenderer-v2.js ***!
          \************************************************/

/*!************************************************!*\
          !*** ./src/diagrams/er/parser/erDiagram.jison ***!
          \************************************************/

/*!************************************************!*\
          !*** ./src/diagrams/flowchart/flowRenderer.js ***!
          \************************************************/

/*!************************************************!*\
          !*** ./src/diagrams/git/parser/gitGraph.jison ***!
          \************************************************/

/*!************************************************!*\
          !*** ./src/diagrams/state/stateRenderer-v2.js ***!
          \************************************************/

/*!************************************************!*\
          !*** ./src/diagrams/user-journey/journeyDb.js ***!
          \************************************************/

/*!**************************************************!*\
          !*** ./src/diagrams/flowchart/parser/flow.jison ***!
          \**************************************************/

/*!***************************************************!*\
          !*** ./src/diagrams/flowchart/flowChartShapes.js ***!
          \***************************************************/

/*!***************************************************!*\
          !*** ./src/diagrams/flowchart/flowRenderer-v2.js ***!
          \***************************************************/

/*!***************************************************!*\
          !*** ./src/diagrams/requirement/requirementDb.js ***!
          \***************************************************/

/*!***************************************************!*\
          !*** ./src/diagrams/sequence/sequenceRenderer.js ***!
          \***************************************************/

/*!******************************************************!*\
          !*** ./src/diagrams/class/parser/classDiagram.jison ***!
          \******************************************************/

/*!******************************************************!*\
          !*** ./src/diagrams/state/parser/stateDiagram.jison ***!
          \******************************************************/

/*!******************************************************!*\
          !*** ./src/diagrams/user-journey/journeyRenderer.js ***!
          \******************************************************/

/*!*******************************************************!*\
          !*** ./src/dagre-wrapper/intersect/intersect-line.js ***!
          \*******************************************************/

/*!*******************************************************!*\
          !*** ./src/dagre-wrapper/intersect/intersect-node.js ***!
          \*******************************************************/

/*!*******************************************************!*\
          !*** ./src/dagre-wrapper/intersect/intersect-rect.js ***!
          \*******************************************************/

/*!*******************************************************!*\
          !*** external "dagre-d3/lib/label/add-html-label.js" ***!
          \*******************************************************/

/*!********************************************************!*\
          !*** ./src/diagrams/requirement/requirementMarkers.js ***!
          \********************************************************/

/*!********************************************************!*\
          !*** ./src/diagrams/user-journey/parser/journey.jison ***!
          \********************************************************/

/*!*********************************************************!*\
          !*** ./src/dagre-wrapper/intersect/intersect-circle.js ***!
          \*********************************************************/

/*!*********************************************************!*\
          !*** ./src/diagrams/requirement/requirementRenderer.js ***!
          \*********************************************************/

/*!**********************************************************!*\
          !*** ./src/dagre-wrapper/intersect/intersect-ellipse.js ***!
          \**********************************************************/

/*!**********************************************************!*\
          !*** ./src/dagre-wrapper/intersect/intersect-polygon.js ***!
          \**********************************************************/

/*!************************************************************!*\
          !*** ./src/diagrams/sequence/parser/sequenceDiagram.jison ***!
          \************************************************************/

/*!******************************************************************!*\
          !*** ./src/diagrams/requirement/parser/requirementDiagram.jison ***!
          \******************************************************************/
