{
  "meta": {
    "alerts": [],
    "warnings": [],
    "precision": 5,
    "engine": {
      "name": "jobs-skills-fr-dev-5",
      "type": "default"
    },
    "page": {
      "current": 1,
      "total_pages": 1,
      "total_results": 1,
      "size": 10
    },
    "request_id": "b072cZv9Si-xLFFVKtsYwg"
  },
  "results": [
    {
      "type": {
        "raw": [
          "romeModel:Occupation",
          "mm:Occupation",
          "esco:MemberConcept",
          "skos:Concept"
        ]
      },
      "pref_label__language": {
        "raw": [
          "fr"
        ]
      },
      "pref_label__value": {
        "raw": [
          "Auxiliaire en prothèse dentaire"
        ]
      },
      "exact_match__id": {
        "raw": [
          "occupation:76bded28-876a-40b2-9efb-3123c8f14cf6",
          "__end_of_object__"
        ]
      },
      "exact_match__type": {
        "raw": [
          "esco:MemberConcept",
          "esco:Occupation",
          "skos:Concept",
          "mm:Occupation",
          "__end_of_object__"
        ]
      },
      "exact_match__pref_label__language": {
        "raw": [
          "fr",
          "__end_of_object__"
        ]
      },
      "exact_match__pref_label__value": {
        "raw": [
          "technicien de fabrication de matériel dentaire/technicienne de fabrication de matériel dentaire",
          "__end_of_object__"
        ]
      },
      "match_with__id": {
        "raw": [
          "occupation:76bded28-876a-40b2-9efb-3123c8f14cf6",
          "__end_of_object__"
        ]
      },
      "match_with__type": {
        "raw": [
          "esco:MemberConcept",
          "esco:Occupation",
          "skos:Concept",
          "mm:Occupation",
          "__end_of_object__"
        ]
      },
      "match_with__pref_label__language": {
        "raw": [
          "fr",
          "__end_of_object__"
        ]
      },
      "match_with__pref_label__value": {
        "raw": [
          "technicien de fabrication de matériel dentaire/technicienne de fabrication de matériel dentaire",
          "__end_of_object__"
        ]
      },
      "id": {
        "raw": "rome:38882"
      },
      "_meta": {
        "id": "rome:38882",
        "engine": "jobs-skills-fr-dev-5",
        "score": 9.80837
      }
    }
  ]
}