{
	"@context": {
		"id": "@id",
		"graph": {
			"@id": "@graph",
			"@container": "@set"
		},
		"type": {
			"@id": "@type",
			"@container": "@set"
		},
		"skos": "http://www.w3.org/2004/02/skos/core#",
		"gendj": "https://gen.competencies.be/terms/digitalJobs/",
		"inScheme": {
			"@id": "skos:inScheme",
			"@type": "@id",
			"@container": "@set"
		},
		"prefLabel": {
			"@id": "skos:prefLabel",
			"@container": "@set"
		},
		"altLabel": {
			"@id": "skos:altLabel",
			"@container": "@set"
		},
		"narrower": {
			"@id": "skos:narrower",
			"@type": "@id",
			"@container": "@set"
		},
		"broader": {
			"@id": "skos:broader",
			"@type": "@id",
			"@container": "@set"
		}
	},
	"graph": [
		{
			"id": "gendj:009746388c58ea81de3cdbcd866fcba0",
			"type": [
				"skos:Concept",
				"gendj:Job"
			],
			"broader": [
				"gendj:857047f5b79ac18d9f74c981cd62831d"
			],
			"narrower": [
				"gendj:9e40561ba4abaa64b11866366040762a"
			],
			"prefLabel": [
				{
					"@language": "fr",
					"@value": "Growth hacking"
				}
			],
			"inScheme": [
				"gendj:scheme_for_Concept_generated"
			]
		},
		{
			"id": "gendj:02b4e38025c3a56a1c74624b2b84ba0f",
			"type": [
				"skos:Concept",
				"gendj:Position"
			],
			"broader": [
				"gendj:0c4bd0b86b3f7c3c42f8741b3a855b21"
			],
			"prefLabel": [
				{
					"@language": "fr",
					"@value": "Administrateur réseau"
				}
			],
			"inScheme": [
				"gendj:scheme_for_Concept_generated"
			]
		},
		{
			"id": "gendj:02da0726b54fc3c4802d3a3f4b10c35a",
			"type": [
				"skos:Concept",
				"gendj:Job"
			],
			"broader": [
				"gendj:de16da9bbad20c3ab14fe41eb4169b07"
			],
			"narrower": [
				"gendj:8437a16a116d3d5a38f6e9c6db3e4386",
				"gendj:2e61e3de40a15fc6dd5741441aea12e3",
				"gendj:04d8ec4a5870d2287dfa4b730140b6a9",
				"gendj:2b65159f877dad7da72dba7250353354",
				"gendj:56ca3e342c30fe104583c36a83588563",
				"gendj:30f8f0f3d0689d2d54b7cd73d2431c37",
				"gendj:694bae19ea145646baad206796da117d",
				"gendj:f066c61b66c3400ea46a6b805df279a3"
			],
			"prefLabel": [
				{
					"@language": "fr",
					"@value": "Développement"
				}
			],
			"inScheme": [
				"gendj:scheme_for_Concept_generated"
			]
		},
		{
			"id": "gendj:04d8ec4a5870d2287dfa4b730140b6a9",
			"type": [
				"skos:Concept",
				"gendj:Position"
			],
			"broader": [
				"gendj:02da0726b54fc3c4802d3a3f4b10c35a"
			],
			"prefLabel": [
				{
					"@language": "fr",
					"@value": "Développeur Web"
				}
			],
			"inScheme": [
				"gendj:scheme_for_Concept_generated"
			]
		},
		{
			"id": "gendj:050ad8d9a61484b5f48325aa31876c9f",
			"type": [
				"skos:Concept",
				"gendj:Sector"
			],
			"narrower": [
				"gendj:3810407a71b2a6b3b51a64231aafd4c8",
				"gendj:83aed3ceaee337d456cebfcc47a81e56",
				"gendj:78fbd1b37e4175f751f6616644bef585",
				"gendj:0c4bd0b86b3f7c3c42f8741b3a855b21",
				"gendj:43c522c662105b4f07e41a0847b6829d",
				"gendj:880662098027c5a4497c10d49c28c3f9"
			],
			"prefLabel": [
				{
					"@language": "fr",
					"@value": "Sécurité, réseau et cloud"
				}
			],
			"inScheme": [
				"gendj:scheme_for_Concept_generated"
			]
		},
		{
			"id": "gendj:0627f71a1c258cfe75220fbc617b5f2f",
			"type": [
				"skos:Concept",
				"gendj:Position"
			],
			"broader": [
				"gendj:40f6c0d380feb079aaffac4cb08161ad"
			],
			"prefLabel": [
				{
					"@language": "fr",
					"@value": "Expert systèmes et réseaux"
				}
			],
			"inScheme": [
				"gendj:scheme_for_Concept_generated"
			]
		},
		{
			"id": "gendj:08050051c8f66cbf0489f65a471ca3e0",
			"type": [
				"skos:Concept",
				"gendj:Position"
			],
			"broader": [
				"gendj:6866942113cae9825303ded0ed024999"
			],
			"prefLabel": [
				{
					"@language": "fr",
					"@value": "Médiateur numérique"
				}
			],
			"inScheme": [
				"gendj:scheme_for_Concept_generated"
			]
		},
		{
			"id": "gendj:0828399d4781d10fd0e360669d7b66ca",
			"type": [
				"skos:Concept",
				"gendj:Position"
			],
			"broader": [
				"gendj:8443d0746daee770ab327383fc7e1a8a"
			],
			"prefLabel": [
				{
					"@language": "fr",
					"@value": "Product Owner"
				}
			],
			"inScheme": [
				"gendj:scheme_for_Concept_generated"
			]
		},
		{
			"id": "gendj:0c4bd0b86b3f7c3c42f8741b3a855b21",
			"type": [
				"skos:Concept",
				"gendj:Job"
			],
			"broader": [
				"gendj:050ad8d9a61484b5f48325aa31876c9f"
			],
			"narrower": [
				"gendj:02b4e38025c3a56a1c74624b2b84ba0f",
				"gendj:2950f635c2562b67566ee0d39066be16"
			],
			"prefLabel": [
				{
					"@language": "fr",
					"@value": "Réseaux"
				}
			],
			"inScheme": [
				"gendj:scheme_for_Concept_generated"
			]
		},
		{
			"id": "gendj:0d140d0659b94f63eadd1ed5e1522e60",
			"type": [
				"skos:Concept",
				"gendj:Position"
			],
			"broader": [
				"gendj:40f6c0d380feb079aaffac4cb08161ad"
			],
			"prefLabel": [
				{
					"@language": "fr",
					"@value": "Technicien système et réseau"
				}
			],
			"inScheme": [
				"gendj:scheme_for_Concept_generated"
			]
		},
		{
			"id": "gendj:1243d496eff99c1a8104b3b018d3394b",
			"type": [
				"skos:Concept",
				"gendj:Job"
			],
			"broader": [
				"gendj:de16da9bbad20c3ab14fe41eb4169b07"
			],
			"narrower": [
				"gendj:fbea45d7b5345e8782106a6f6fe087dc",
				"gendj:70f91efaadbaade8c04661ce2fb93288"
			],
			"prefLabel": [
				{
					"@language": "fr",
					"@value": "Test"
				}
			],
			"inScheme": [
				"gendj:scheme_for_Concept_generated"
			]
		},
		{
			"id": "gendj:15811443ab678ca8c4dbd14699ef6676",
			"type": [
				"skos:Concept",
				"gendj:Position"
			],
			"broader": [
				"gendj:82d61d3ddd5d9c9d1219c778e164610a"
			],
			"prefLabel": [
				{
					"@language": "fr",
					"@value": "Chargé e-commerce"
				}
			],
			"inScheme": [
				"gendj:scheme_for_Concept_generated"
			]
		},
		{
			"id": "gendj:15e70e2a64abc16f6eaec1ffdc59321a",
			"type": [
				"skos:Concept",
				"gendj:Position"
			],
			"broader": [
				"gendj:e8575a24fb0133042ec2ef7563d6f843"
			],
			"prefLabel": [
				{
					"@language": "fr",
					"@value": "Infographiste"
				}
			],
			"inScheme": [
				"gendj:scheme_for_Concept_generated"
			]
		},
		{
			"id": "gendj:1832cf94ab6c8fdecf85041e4bc94928",
			"type": [
				"skos:Concept",
				"gendj:Position"
			],
			"broader": [
				"gendj:40f6c0d380feb079aaffac4cb08161ad"
			],
			"prefLabel": [
				{
					"@language": "fr",
					"@value": "Administrateur système et réseau"
				}
			],
			"inScheme": [
				"gendj:scheme_for_Concept_generated"
			]
		},
		{
			"id": "gendj:1b9760f8f43edb962737cdb9cca65327",
			"type": [
				"skos:Concept",
				"gendj:Position"
			],
			"broader": [
				"gendj:8c8349bb60239604b4f87a4d29db49eb"
			],
			"prefLabel": [
				{
					"@language": "fr",
					"@value": "Expert SEO"
				}
			],
			"inScheme": [
				"gendj:scheme_for_Concept_generated"
			]
		},
		{
			"id": "gendj:1c58feec9438ce882c6bd17a1a439680",
			"type": [
				"skos:Concept",
				"gendj:Position"
			],
			"broader": [
				"gendj:c8c28547f4e452d082dc8cc56bcbcee9"
			],
			"prefLabel": [
				{
					"@language": "fr",
					"@value": "Conseiller support technique"
				}
			],
			"inScheme": [
				"gendj:scheme_for_Concept_generated"
			]
		},
		{
			"id": "gendj:1f103790cbd158709be248be52db7d9e",
			"type": [
				"skos:Concept",
				"gendj:Position"
			],
			"broader": [
				"gendj:daa4bf462e25ed53c0fda685b6436cdf"
			],
			"prefLabel": [
				{
					"@language": "fr",
					"@value": "Technicien data"
				}
			],
			"inScheme": [
				"gendj:scheme_for_Concept_generated"
			]
		},
		{
			"id": "gendj:220b2fd213a05d104e065bb9c623eecd",
			"type": [
				"skos:Concept",
				"gendj:Position"
			],
			"broader": [
				"gendj:939b02e3ea6d1380b4dc8e3a672de182"
			],
			"prefLabel": [
				{
					"@language": "fr",
					"@value": "Coordinateur de projet"
				}
			],
			"inScheme": [
				"gendj:scheme_for_Concept_generated"
			]
		},
		{
			"id": "gendj:235ca6bcdfbed11411ead8fb7982427d",
			"type": [
				"skos:Concept",
				"gendj:Position"
			],
			"broader": [
				"gendj:75f659fb23542eaa437061dea110db23"
			],
			"prefLabel": [
				{
					"@language": "fr",
					"@value": "Développeur machine learning"
				}
			],
			"inScheme": [
				"gendj:scheme_for_Concept_generated"
			]
		},
		{
			"id": "gendj:24d97318cbb647475240748d72c4a14f",
			"type": [
				"skos:Concept",
				"gendj:Position"
			],
			"broader": [
				"gendj:939b02e3ea6d1380b4dc8e3a672de182"
			],
			"prefLabel": [
				{
					"@language": "fr",
					"@value": "Chef de projet digital"
				}
			],
			"inScheme": [
				"gendj:scheme_for_Concept_generated"
			]
		},
		{
			"id": "gendj:2695adfe37ae389734070e57c0af9566",
			"type": [
				"skos:Concept",
				"gendj:Position"
			],
			"altLabel": [
				{
					"@language": "fr",
					"@value": "Data Protection Officer (DPO)"
				}
			],
			"broader": [
				"gendj:78fbd1b37e4175f751f6616644bef585"
			],
			"prefLabel": [
				{
					"@language": "fr",
					"@value": "Délégué à la protection des données (DPD)"
				}
			],
			"inScheme": [
				"gendj:scheme_for_Concept_generated"
			]
		},
		{
			"id": "gendj:272314d1e0065ab2d628fb74bf629134",
			"type": [
				"skos:Concept",
				"gendj:Position"
			],
			"broader": [
				"gendj:939b02e3ea6d1380b4dc8e3a672de182"
			],
			"prefLabel": [
				{
					"@language": "fr",
					"@value": "Chef de projet technique"
				}
			],
			"inScheme": [
				"gendj:scheme_for_Concept_generated"
			]
		},
		{
			"id": "gendj:2950f635c2562b67566ee0d39066be16",
			"type": [
				"skos:Concept",
				"gendj:Position"
			],
			"broader": [
				"gendj:0c4bd0b86b3f7c3c42f8741b3a855b21"
			],
			"prefLabel": [
				{
					"@language": "fr",
					"@value": "Technicien réseau"
				}
			],
			"inScheme": [
				"gendj:scheme_for_Concept_generated"
			]
		},
		{
			"id": "gendj:29e779ef7908548ce006f50a8a08544e",
			"type": [
				"skos:Concept",
				"gendj:Position"
			],
			"broader": [
				"gendj:939b02e3ea6d1380b4dc8e3a672de182"
			],
			"prefLabel": [
				{
					"@language": "fr",
					"@value": "Chef de projet agile"
				}
			],
			"inScheme": [
				"gendj:scheme_for_Concept_generated"
			]
		},
		{
			"id": "gendj:2b100f453dcc39b0029245e32ca64de8",
			"type": [
				"skos:Concept",
				"gendj:Position"
			],
			"broader": [
				"gendj:daa4bf462e25ed53c0fda685b6436cdf"
			],
			"prefLabel": [
				{
					"@language": "fr",
					"@value": "Data Miner"
				}
			],
			"inScheme": [
				"gendj:scheme_for_Concept_generated"
			]
		},
		{
			"id": "gendj:2b1ac807ccae5aca3d740581af29df28",
			"type": [
				"skos:Concept",
				"gendj:Position"
			],
			"broader": [
				"gendj:880662098027c5a4497c10d49c28c3f9"
			],
			"prefLabel": [
				{
					"@language": "fr",
					"@value": "Administrateur Système d'information"
				}
			],
			"inScheme": [
				"gendj:scheme_for_Concept_generated"
			]
		},
		{
			"id": "gendj:2b65159f877dad7da72dba7250353354",
			"type": [
				"skos:Concept",
				"gendj:Position"
			],
			"broader": [
				"gendj:02da0726b54fc3c4802d3a3f4b10c35a"
			],
			"prefLabel": [
				{
					"@language": "fr",
					"@value": "Développeur Web / Mobile"
				}
			],
			"inScheme": [
				"gendj:scheme_for_Concept_generated"
			]
		},
		{
			"id": "gendj:2e61e3de40a15fc6dd5741441aea12e3",
			"type": [
				"skos:Concept",
				"gendj:Position"
			],
			"broader": [
				"gendj:02da0726b54fc3c4802d3a3f4b10c35a"
			],
			"prefLabel": [
				{
					"@language": "fr",
					"@value": "Développeur Mobile"
				}
			],
			"inScheme": [
				"gendj:scheme_for_Concept_generated"
			]
		},
		{
			"id": "gendj:30f8f0f3d0689d2d54b7cd73d2431c37",
			"type": [
				"skos:Concept",
				"gendj:Position"
			],
			"altLabel": [
				{
					"@language": "fr",
					"@value": "Développeur back end"
				},
				{
					"@language": "fr",
					"@value": "Développeur backend"
				}
			],
			"broader": [
				"gendj:02da0726b54fc3c4802d3a3f4b10c35a"
			],
			"prefLabel": [
				{
					"@language": "fr",
					"@value": "Developpeur Back-End"
				}
			],
			"inScheme": [
				"gendj:scheme_for_Concept_generated"
			]
		},
		{
			"id": "gendj:31ab2874b5761fa942544079ff2d316e",
			"type": [
				"skos:Concept",
				"gendj:Position"
			],
			"broader": [
				"gendj:75f659fb23542eaa437061dea110db23"
			],
			"prefLabel": [
				{
					"@language": "fr",
					"@value": "Développeur IA"
				}
			],
			"inScheme": [
				"gendj:scheme_for_Concept_generated"
			]
		},
		{
			"id": "gendj:327cb90e333e73c55c482915f040979e",
			"type": [
				"skos:Concept",
				"gendj:Job"
			],
			"broader": [
				"gendj:857047f5b79ac18d9f74c981cd62831d"
			],
			"narrower": [
				"gendj:91a5a3d2af6d6cefe9a319a22e2cec97",
				"gendj:5536c2bf6880a400f9b3e2889a0d9c7b"
			],
			"prefLabel": [
				{
					"@language": "fr",
					"@value": "Community management"
				}
			],
			"inScheme": [
				"gendj:scheme_for_Concept_generated"
			]
		},
		{
			"id": "gendj:341445d5de63d87089d3d62de5171642",
			"type": [
				"skos:Concept",
				"gendj:Job"
			],
			"broader": [
				"gendj:452b0dc419537c26fd4405ade3289f17"
			],
			"narrower": [
				"gendj:54fd53ec252b9f32f7c2b0393bd13504",
				"gendj:b0fbabdba1ee6c6b36530079b28762d5"
			],
			"prefLabel": [
				{
					"@language": "fr",
					"@value": "Création de vidéos"
				}
			],
			"inScheme": [
				"gendj:scheme_for_Concept_generated"
			]
		},
		{
			"id": "gendj:3810407a71b2a6b3b51a64231aafd4c8",
			"type": [
				"skos:Concept",
				"gendj:Job"
			],
			"broader": [
				"gendj:050ad8d9a61484b5f48325aa31876c9f"
			],
			"narrower": [
				"gendj:e34f480ea2cf2a201a726cc3506f7d6b",
				"gendj:bcdf382738f8668ccf01a6551fe94ea5",
				"gendj:77edba3ff6bd1a4e97fa0b5c124762d6"
			],
			"prefLabel": [
				{
					"@language": "fr",
					"@value": "Cloud"
				}
			],
			"inScheme": [
				"gendj:scheme_for_Concept_generated"
			]
		},
		{
			"id": "gendj:388286ada83213a257d54ad1cb5e6680",
			"type": [
				"skos:Concept",
				"gendj:Position"
			],
			"broader": [
				"gendj:40f6c0d380feb079aaffac4cb08161ad"
			],
			"prefLabel": [
				{
					"@language": "fr",
					"@value": "Ingenieur systèmes"
				}
			],
			"inScheme": [
				"gendj:scheme_for_Concept_generated"
			]
		},
		{
			"id": "gendj:38e23fb43814660958cc08f586480e75",
			"type": [
				"skos:Concept",
				"gendj:Position"
			],
			"broader": [
				"gendj:8443d0746daee770ab327383fc7e1a8a"
			],
			"prefLabel": [
				{
					"@language": "fr",
					"@value": "Product Manager"
				}
			],
			"inScheme": [
				"gendj:scheme_for_Concept_generated"
			]
		},
		{
			"id": "gendj:39cd2a92fd90a1bb9e4397241f1654a7",
			"type": [
				"skos:Concept",
				"gendj:Job"
			],
			"broader": [
				"gendj:7aa6df5d5ea9c9a5c1005e0b0c3981b2"
			],
			"narrower": [
				"gendj:dec099936d7969fb15b225d64df4418c",
				"gendj:3f1b2512605a75049b6a1683c84d8892",
				"gendj:5147bb546d2eb1a249b0028441e6b7f2"
			],
			"prefLabel": [
				{
					"@language": "fr",
					"@value": "Administration de base de données"
				}
			],
			"inScheme": [
				"gendj:scheme_for_Concept_generated"
			]
		},
		{
			"id": "gendj:3f1b2512605a75049b6a1683c84d8892",
			"type": [
				"skos:Concept",
				"gendj:Position"
			],
			"broader": [
				"gendj:39cd2a92fd90a1bb9e4397241f1654a7"
			],
			"prefLabel": [
				{
					"@language": "fr",
					"@value": "Gestionnaire de base de données"
				}
			],
			"inScheme": [
				"gendj:scheme_for_Concept_generated"
			]
		},
		{
			"id": "gendj:3f1bbaec1550aa3a4cd4f212c95c4f0f",
			"type": [
				"skos:Concept",
				"gendj:Position"
			],
			"broader": [
				"gendj:daa4bf462e25ed53c0fda685b6436cdf"
			],
			"prefLabel": [
				{
					"@language": "fr",
					"@value": "Data Scientist"
				}
			],
			"inScheme": [
				"gendj:scheme_for_Concept_generated"
			]
		},
		{
			"id": "gendj:3f8ac3e9fc8670e9ce4d94172dfdbdd1",
			"type": [
				"skos:Concept",
				"gendj:Sector"
			],
			"narrower": [
				"gendj:4a49adc5107722718082bb0ab203f98f",
				"gendj:939b02e3ea6d1380b4dc8e3a672de182",
				"gendj:b48edafd2f1f88ec9b3a7fd8d9cfaf21",
				"gendj:8443d0746daee770ab327383fc7e1a8a"
			],
			"prefLabel": [
				{
					"@language": "fr",
					"@value": "Gestion / Pilotage"
				}
			],
			"inScheme": [
				"gendj:scheme_for_Concept_generated"
			]
		},
		{
			"id": "gendj:40f6c0d380feb079aaffac4cb08161ad",
			"type": [
				"skos:Concept",
				"gendj:Job"
			],
			"broader": [
				"gendj:84f522ce9bcdb7e12a67b08188e8e5e8"
			],
			"narrower": [
				"gendj:1832cf94ab6c8fdecf85041e4bc94928",
				"gendj:a95edfc831fa29aede96d8785419ea3f",
				"gendj:0627f71a1c258cfe75220fbc617b5f2f",
				"gendj:9628647a2cebe1ed40f12debd279ce00",
				"gendj:388286ada83213a257d54ad1cb5e6680",
				"gendj:7baed3bc468b0683c903c0f5fddc98a0",
				"gendj:0d140d0659b94f63eadd1ed5e1522e60"
			],
			"prefLabel": [
				{
					"@language": "fr",
					"@value": "Système et réseaux"
				}
			],
			"inScheme": [
				"gendj:scheme_for_Concept_generated"
			]
		},
		{
			"id": "gendj:43c522c662105b4f07e41a0847b6829d",
			"type": [
				"skos:Concept",
				"gendj:Job"
			],
			"broader": [
				"gendj:050ad8d9a61484b5f48325aa31876c9f"
			],
			"narrower": [
				"gendj:54e7263bb5d0fd36da1f2121620592c2",
				"gendj:b0931639b922c8b4fc69abad6c32d6e8"
			],
			"prefLabel": [
				{
					"@language": "fr",
					"@value": "Sécurité IT"
				}
			],
			"inScheme": [
				"gendj:scheme_for_Concept_generated"
			]
		},
		{
			"id": "gendj:4438494562248a5caab4bb1f8971eef6",
			"type": [
				"skos:Concept",
				"gendj:Position"
			],
			"broader": [
				"gendj:c8c28547f4e452d082dc8cc56bcbcee9"
			],
			"prefLabel": [
				{
					"@language": "fr",
					"@value": "Spécialiste support"
				}
			],
			"inScheme": [
				"gendj:scheme_for_Concept_generated"
			]
		},
		{
			"id": "gendj:452b0dc419537c26fd4405ade3289f17",
			"type": [
				"skos:Concept",
				"gendj:Sector"
			],
			"narrower": [
				"gendj:341445d5de63d87089d3d62de5171642",
				"gendj:e8575a24fb0133042ec2ef7563d6f843",
				"gendj:54d829f6ca4b4a8e1284510a8e63f128",
				"gendj:bfae0573ae438043011ac71fd4440301"
			],
			"prefLabel": [
				{
					"@language": "fr",
					"@value": "Interface graphisme / design"
				}
			],
			"inScheme": [
				"gendj:scheme_for_Concept_generated"
			]
		},
		{
			"id": "gendj:4a49adc5107722718082bb0ab203f98f",
			"type": [
				"skos:Concept",
				"gendj:Job"
			],
			"broader": [
				"gendj:3f8ac3e9fc8670e9ce4d94172dfdbdd1"
			],
			"narrower": [
				"gendj:524bdf00bc0cd22b3add1933452c51c1",
				"gendj:9b11a000374930612bbf8b81948c6a0d",
				"gendj:b2f5c61d1dbfa9fe15385fdee05d9901"
			],
			"prefLabel": [
				{
					"@language": "fr",
					"@value": "Entrepreneuriat"
				}
			],
			"inScheme": [
				"gendj:scheme_for_Concept_generated"
			]
		},
		{
			"id": "gendj:4dae0f2d7ea57400a714b21d7aea049b",
			"type": [
				"skos:Concept",
				"gendj:Position"
			],
			"broader": [
				"gendj:e8575a24fb0133042ec2ef7563d6f843"
			],
			"prefLabel": [
				{
					"@language": "fr",
					"@value": "Motion Designer"
				}
			],
			"inScheme": [
				"gendj:scheme_for_Concept_generated"
			]
		},
		{
			"id": "gendj:4e50ebbe8eb7a0ef52e8e59cea24e338",
			"type": [
				"skos:Concept",
				"gendj:Position"
			],
			"broader": [
				"gendj:6866942113cae9825303ded0ed024999"
			],
			"prefLabel": [
				{
					"@language": "fr",
					"@value": "Référent digital"
				}
			],
			"inScheme": [
				"gendj:scheme_for_Concept_generated"
			]
		},
		{
			"id": "gendj:4fa32fc84a206c7e08b67ad288762e7c",
			"type": [
				"skos:Concept",
				"gendj:Position"
			],
			"altLabel": [
				{
					"@language": "fr",
					"@value": "Web designer"
				}
			],
			"broader": [
				"gendj:e8575a24fb0133042ec2ef7563d6f843"
			],
			"prefLabel": [
				{
					"@language": "fr",
					"@value": "Webdesigner"
				}
			],
			"inScheme": [
				"gendj:scheme_for_Concept_generated"
			]
		},
		{
			"id": "gendj:512abee9142e2fd28c34e5f578e4e078",
			"type": [
				"skos:Concept",
				"gendj:Position"
			],
			"broader": [
				"gendj:6c9f28e674295813eab00969824c2a3d"
			],
			"prefLabel": [
				{
					"@language": "fr",
					"@value": "Ingénieur IOT"
				}
			],
			"inScheme": [
				"gendj:scheme_for_Concept_generated"
			]
		},
		{
			"id": "gendj:5147bb546d2eb1a249b0028441e6b7f2",
			"type": [
				"skos:Concept",
				"gendj:Position"
			],
			"broader": [
				"gendj:39cd2a92fd90a1bb9e4397241f1654a7"
			],
			"prefLabel": [
				{
					"@language": "fr",
					"@value": "Technicien base de données"
				}
			],
			"inScheme": [
				"gendj:scheme_for_Concept_generated"
			]
		},
		{
			"id": "gendj:5244b348cf49af1fa83f323a3bb0de51",
			"type": [
				"skos:Concept",
				"gendj:Position"
			],
			"broader": [
				"gendj:c7ec83e18d0cfbd6557cad24305981c7"
			],
			"prefLabel": [
				{
					"@language": "fr",
					"@value": "Content manager"
				}
			],
			"inScheme": [
				"gendj:scheme_for_Concept_generated"
			]
		},
		{
			"id": "gendj:524bdf00bc0cd22b3add1933452c51c1",
			"type": [
				"skos:Concept",
				"gendj:Position"
			],
			"broader": [
				"gendj:4a49adc5107722718082bb0ab203f98f"
			],
			"prefLabel": [
				{
					"@language": "fr",
					"@value": "Créateur d'entreprise"
				}
			],
			"inScheme": [
				"gendj:scheme_for_Concept_generated"
			]
		},
		{
			"id": "gendj:5251090e44a6c4be11f81033168f3df6",
			"type": [
				"skos:Concept",
				"gendj:Job"
			],
			"broader": [
				"gendj:7aa6df5d5ea9c9a5c1005e0b0c3981b2"
			],
			"narrower": [
				"gendj:9e9b9dc1c96f36a97ec5ef711f1fd5e5"
			],
			"prefLabel": [
				{
					"@language": "fr",
					"@value": "CRM"
				}
			],
			"inScheme": [
				"gendj:scheme_for_Concept_generated"
			]
		},
		{
			"id": "gendj:54d829f6ca4b4a8e1284510a8e63f128",
			"type": [
				"skos:Concept",
				"gendj:Job"
			],
			"broader": [
				"gendj:452b0dc419537c26fd4405ade3289f17"
			],
			"narrower": [
				"gendj:b586fb1954ca6cde758ca98e5724a5c5",
				"gendj:ef6dee340ebc1ff2ecd97f5ef9ed8e53"
			],
			"prefLabel": [
				{
					"@language": "fr",
					"@value": "Impression 3D"
				}
			],
			"inScheme": [
				"gendj:scheme_for_Concept_generated"
			]
		},
		{
			"id": "gendj:54e7263bb5d0fd36da1f2121620592c2",
			"type": [
				"skos:Concept",
				"gendj:Position"
			],
			"broader": [
				"gendj:43c522c662105b4f07e41a0847b6829d"
			],
			"prefLabel": [
				{
					"@language": "fr",
					"@value": "Expert Sécurité IT"
				}
			],
			"inScheme": [
				"gendj:scheme_for_Concept_generated"
			]
		},
		{
			"id": "gendj:54eb0d2bf9678c61e9e1981f6a1adf15",
			"type": [
				"skos:Concept",
				"gendj:Position"
			],
			"broader": [
				"gendj:daa4bf462e25ed53c0fda685b6436cdf"
			],
			"prefLabel": [
				{
					"@language": "fr",
					"@value": "Developpeur Big Data"
				}
			],
			"inScheme": [
				"gendj:scheme_for_Concept_generated"
			]
		},
		{
			"id": "gendj:54fd53ec252b9f32f7c2b0393bd13504",
			"type": [
				"skos:Concept",
				"gendj:Position"
			],
			"broader": [
				"gendj:341445d5de63d87089d3d62de5171642"
			],
			"prefLabel": [
				{
					"@language": "fr",
					"@value": "Chargé de production vidéos"
				}
			],
			"inScheme": [
				"gendj:scheme_for_Concept_generated"
			]
		},
		{
			"id": "gendj:5536c2bf6880a400f9b3e2889a0d9c7b",
			"type": [
				"skos:Concept",
				"gendj:Position"
			],
			"broader": [
				"gendj:327cb90e333e73c55c482915f040979e"
			],
			"prefLabel": [
				{
					"@language": "fr",
					"@value": "Veilleur e-reputation"
				}
			],
			"inScheme": [
				"gendj:scheme_for_Concept_generated"
			]
		},
		{
			"id": "gendj:56ca3e342c30fe104583c36a83588563",
			"type": [
				"skos:Concept",
				"gendj:Position"
			],
			"broader": [
				"gendj:02da0726b54fc3c4802d3a3f4b10c35a"
			],
			"prefLabel": [
				{
					"@language": "fr",
					"@value": "Développeur d'applications"
				}
			],
			"inScheme": [
				"gendj:scheme_for_Concept_generated"
			]
		},
		{
			"id": "gendj:5cfcf7f1b245c694cac187a827d53dab",
			"type": [
				"skos:Concept",
				"gendj:Position"
			],
			"broader": [
				"gendj:75f659fb23542eaa437061dea110db23"
			],
			"prefLabel": [
				{
					"@language": "fr",
					"@value": "Ingénieur en Machine Learning"
				}
			],
			"inScheme": [
				"gendj:scheme_for_Concept_generated"
			]
		},
		{
			"id": "gendj:5d24cbfc2141856542887aaab2bd27b6",
			"type": [
				"skos:Concept",
				"gendj:Position"
			],
			"broader": [
				"gendj:82d61d3ddd5d9c9d1219c778e164610a"
			],
			"prefLabel": [
				{
					"@language": "fr",
					"@value": "Chef de projet e-commerce"
				}
			],
			"inScheme": [
				"gendj:scheme_for_Concept_generated"
			]
		},
		{
			"id": "gendj:603885649c12eefeb146978d4993fd25",
			"type": [
				"skos:Concept",
				"gendj:Position"
			],
			"broader": [
				"gendj:7ba007b50f3c6f1c60767749a88d6c61"
			],
			"prefLabel": [
				{
					"@language": "fr",
					"@value": "Technicien en télécommunication"
				}
			],
			"inScheme": [
				"gendj:scheme_for_Concept_generated"
			]
		},
		{
			"id": "gendj:6307e3aee4b899fd85573e67992262bc",
			"type": [
				"skos:Concept",
				"gendj:Position"
			],
			"broader": [
				"gendj:880662098027c5a4497c10d49c28c3f9"
			],
			"prefLabel": [
				{
					"@language": "fr",
					"@value": "Expert en système d’information"
				}
			],
			"inScheme": [
				"gendj:scheme_for_Concept_generated"
			]
		},
		{
			"id": "gendj:638f686ab00e5e8166d3f2f115feaffb",
			"type": [
				"skos:Concept",
				"gendj:Job"
			],
			"broader": [
				"gendj:de16da9bbad20c3ab14fe41eb4169b07"
			],
			"narrower": [
				"gendj:87587ab424a2e1305b12a450147c5f73",
				"gendj:7a1eb0739e5019b9ad2bca679a5598f9"
			],
			"prefLabel": [
				{
					"@language": "fr",
					"@value": "Logiciel"
				}
			],
			"inScheme": [
				"gendj:scheme_for_Concept_generated"
			]
		},
		{
			"id": "gendj:6866942113cae9825303ded0ed024999",
			"type": [
				"skos:Concept",
				"gendj:Job"
			],
			"broader": [
				"gendj:857047f5b79ac18d9f74c981cd62831d"
			],
			"narrower": [
				"gendj:a00b05cb9e91878739c66b311c4c1383",
				"gendj:08050051c8f66cbf0489f65a471ca3e0",
				"gendj:4e50ebbe8eb7a0ef52e8e59cea24e338"
			],
			"prefLabel": [
				{
					"@language": "fr",
					"@value": "Formation au numérique"
				}
			],
			"inScheme": [
				"gendj:scheme_for_Concept_generated"
			]
		},
		{
			"id": "gendj:694bae19ea145646baad206796da117d",
			"type": [
				"skos:Concept",
				"gendj:Position"
			],
			"altLabel": [
				{
					"@language": "fr",
					"@value": "Développeur front end"
				},
				{
					"@language": "fr",
					"@value": "Développeur frontend"
				}
			],
			"broader": [
				"gendj:02da0726b54fc3c4802d3a3f4b10c35a"
			],
			"prefLabel": [
				{
					"@language": "fr",
					"@value": "Developpeur Front-End"
				}
			],
			"inScheme": [
				"gendj:scheme_for_Concept_generated"
			]
		},
		{
			"id": "gendj:69cac4fb666b1287b9e3304a02a97bb8",
			"type": [
				"skos:Concept",
				"gendj:Position"
			],
			"broader": [
				"gendj:6c9f28e674295813eab00969824c2a3d"
			],
			"prefLabel": [
				{
					"@language": "fr",
					"@value": "Architecte IoT"
				}
			],
			"inScheme": [
				"gendj:scheme_for_Concept_generated"
			]
		},
		{
			"id": "gendj:6b0ab74fa5936d3b78c643220c27af6c",
			"type": [
				"skos:Concept",
				"gendj:Position"
			],
			"broader": [
				"gendj:b48edafd2f1f88ec9b3a7fd8d9cfaf21"
			],
			"prefLabel": [
				{
					"@language": "fr",
					"@value": "Webmaster"
				}
			],
			"inScheme": [
				"gendj:scheme_for_Concept_generated"
			]
		},
		{
			"id": "gendj:6c9f28e674295813eab00969824c2a3d",
			"type": [
				"skos:Concept",
				"gendj:Job"
			],
			"broader": [
				"gendj:7aa6df5d5ea9c9a5c1005e0b0c3981b2"
			],
			"narrower": [
				"gendj:69cac4fb666b1287b9e3304a02a97bb8",
				"gendj:7ffcaf32df13304cbbabe83085457e7e",
				"gendj:512abee9142e2fd28c34e5f578e4e078",
				"gendj:9559f6277009c29a78ff90b6d924eb5d"
			],
			"prefLabel": [
				{
					"@language": "fr",
					"@value": "IoT / Robotique"
				}
			],
			"inScheme": [
				"gendj:scheme_for_Concept_generated"
			]
		},
		{
			"id": "gendj:70f1767f262d19764ad98a51e23a42e5",
			"type": [
				"skos:Concept",
				"gendj:Position"
			],
			"broader": [
				"gendj:83aed3ceaee337d456cebfcc47a81e56"
			],
			"prefLabel": [
				{
					"@language": "fr",
					"@value": "Analyste cybersécurité"
				}
			],
			"inScheme": [
				"gendj:scheme_for_Concept_generated"
			]
		},
		{
			"id": "gendj:70f91efaadbaade8c04661ce2fb93288",
			"type": [
				"skos:Concept",
				"gendj:Position"
			],
			"broader": [
				"gendj:1243d496eff99c1a8104b3b018d3394b"
			],
			"prefLabel": [
				{
					"@language": "fr",
					"@value": "Testeur"
				}
			],
			"inScheme": [
				"gendj:scheme_for_Concept_generated"
			]
		},
		{
			"id": "gendj:7312322ba27c230710db8f79e4df0151",
			"type": [
				"skos:Concept",
				"gendj:Job"
			],
			"broader": [
				"gendj:857047f5b79ac18d9f74c981cd62831d"
			],
			"narrower": [
				"gendj:bcde1dda91d2ac45cb0156af7a8db186"
			],
			"prefLabel": [
				{
					"@language": "fr",
					"@value": "Digital business Development"
				}
			],
			"inScheme": [
				"gendj:scheme_for_Concept_generated"
			]
		},
		{
			"id": "gendj:7343b5e5c42ff2f81101c7933cff2153",
			"type": [
				"skos:Concept",
				"gendj:Position"
			],
			"broader": [
				"gendj:daa4bf462e25ed53c0fda685b6436cdf"
			],
			"prefLabel": [
				{
					"@language": "fr",
					"@value": "Ingénieur Data Visualisation"
				}
			],
			"inScheme": [
				"gendj:scheme_for_Concept_generated"
			]
		},
		{
			"id": "gendj:75f659fb23542eaa437061dea110db23",
			"type": [
				"skos:Concept",
				"gendj:Job"
			],
			"broader": [
				"gendj:7aa6df5d5ea9c9a5c1005e0b0c3981b2"
			],
			"narrower": [
				"gendj:31ab2874b5761fa942544079ff2d316e",
				"gendj:235ca6bcdfbed11411ead8fb7982427d",
				"gendj:e6def0affe3fdec55a0dd6269d8139e2",
				"gendj:5cfcf7f1b245c694cac187a827d53dab"
			],
			"prefLabel": [
				{
					"@language": "fr",
					"@value": "IA / Machine learning"
				}
			],
			"inScheme": [
				"gendj:scheme_for_Concept_generated"
			]
		},
		{
			"id": "gendj:77edba3ff6bd1a4e97fa0b5c124762d6",
			"type": [
				"skos:Concept",
				"gendj:Position"
			],
			"broader": [
				"gendj:3810407a71b2a6b3b51a64231aafd4c8"
			],
			"prefLabel": [
				{
					"@language": "fr",
					"@value": "Technicien cloud"
				}
			],
			"inScheme": [
				"gendj:scheme_for_Concept_generated"
			]
		},
		{
			"id": "gendj:78b4d4d371a74ce4fd2431ba3a3881bb",
			"type": [
				"skos:Concept",
				"gendj:Position"
			],
			"broader": [
				"gendj:bfae0573ae438043011ac71fd4440301"
			],
			"prefLabel": [
				{
					"@language": "fr",
					"@value": "Réalisateur de jeux vidéos"
				}
			],
			"inScheme": [
				"gendj:scheme_for_Concept_generated"
			]
		},
		{
			"id": "gendj:78fbd1b37e4175f751f6616644bef585",
			"type": [
				"skos:Concept",
				"gendj:Job"
			],
			"broader": [
				"gendj:050ad8d9a61484b5f48325aa31876c9f"
			],
			"narrower": [
				"gendj:2695adfe37ae389734070e57c0af9566"
			],
			"prefLabel": [
				{
					"@language": "fr",
					"@value": "Données personnelles"
				}
			],
			"inScheme": [
				"gendj:scheme_for_Concept_generated"
			]
		},
		{
			"id": "gendj:7a1eb0739e5019b9ad2bca679a5598f9",
			"type": [
				"skos:Concept",
				"gendj:Position"
			],
			"broader": [
				"gendj:638f686ab00e5e8166d3f2f115feaffb"
			],
			"prefLabel": [
				{
					"@language": "fr",
					"@value": "Intégrateur logiciels métiers"
				}
			],
			"inScheme": [
				"gendj:scheme_for_Concept_generated"
			]
		},
		{
			"id": "gendj:7aa6df5d5ea9c9a5c1005e0b0c3981b2",
			"type": [
				"skos:Concept",
				"gendj:Sector"
			],
			"narrower": [
				"gendj:39cd2a92fd90a1bb9e4397241f1654a7",
				"gendj:ec2942ea75c8ecfadca5731ebbeff305",
				"gendj:5251090e44a6c4be11f81033168f3df6",
				"gendj:daa4bf462e25ed53c0fda685b6436cdf",
				"gendj:75f659fb23542eaa437061dea110db23",
				"gendj:6c9f28e674295813eab00969824c2a3d"
			],
			"prefLabel": [
				{
					"@language": "fr",
					"@value": "Data / IA / IOT"
				}
			],
			"inScheme": [
				"gendj:scheme_for_Concept_generated"
			]
		},
		{
			"id": "gendj:7ba007b50f3c6f1c60767749a88d6c61",
			"type": [
				"skos:Concept",
				"gendj:Job"
			],
			"broader": [
				"gendj:84f522ce9bcdb7e12a67b08188e8e5e8"
			],
			"narrower": [
				"gendj:91b653f68b267062c876bfbee1af2704",
				"gendj:603885649c12eefeb146978d4993fd25"
			],
			"prefLabel": [
				{
					"@language": "fr",
					"@value": "Télécoms"
				}
			],
			"inScheme": [
				"gendj:scheme_for_Concept_generated"
			]
		},
		{
			"id": "gendj:7baed3bc468b0683c903c0f5fddc98a0",
			"type": [
				"skos:Concept",
				"gendj:Position"
			],
			"broader": [
				"gendj:40f6c0d380feb079aaffac4cb08161ad"
			],
			"prefLabel": [
				{
					"@language": "fr",
					"@value": "Spécialiste systèmes, réseaux et sécurité"
				}
			],
			"inScheme": [
				"gendj:scheme_for_Concept_generated"
			]
		},
		{
			"id": "gendj:7bc4155a103e6ec0fed6dc7a2ba2ee60",
			"type": [
				"skos:Concept",
				"gendj:Position"
			],
			"broader": [
				"gendj:daa4bf462e25ed53c0fda685b6436cdf"
			],
			"prefLabel": [
				{
					"@language": "fr",
					"@value": "Data Engineer"
				}
			],
			"inScheme": [
				"gendj:scheme_for_Concept_generated"
			]
		},
		{
			"id": "gendj:7eb85b0c533b09a6dabcaba961b8a277",
			"type": [
				"skos:Concept",
				"gendj:Position"
			],
			"broader": [
				"gendj:e8575a24fb0133042ec2ef7563d6f843"
			],
			"prefLabel": [
				{
					"@language": "fr",
					"@value": "UI Designer"
				}
			],
			"inScheme": [
				"gendj:scheme_for_Concept_generated"
			]
		},
		{
			"id": "gendj:7ffcaf32df13304cbbabe83085457e7e",
			"type": [
				"skos:Concept",
				"gendj:Position"
			],
			"broader": [
				"gendj:6c9f28e674295813eab00969824c2a3d"
			],
			"prefLabel": [
				{
					"@language": "fr",
					"@value": "Developpeur IOT"
				}
			],
			"inScheme": [
				"gendj:scheme_for_Concept_generated"
			]
		},
		{
			"id": "gendj:82d61d3ddd5d9c9d1219c778e164610a",
			"type": [
				"skos:Concept",
				"gendj:Job"
			],
			"broader": [
				"gendj:857047f5b79ac18d9f74c981cd62831d"
			],
			"narrower": [
				"gendj:15811443ab678ca8c4dbd14699ef6676",
				"gendj:5d24cbfc2141856542887aaab2bd27b6",
				"gendj:fdf99806745b150ef06daf80fe09167c"
			],
			"prefLabel": [
				{
					"@language": "fr",
					"@value": "e-commerce"
				}
			],
			"inScheme": [
				"gendj:scheme_for_Concept_generated"
			]
		},
		{
			"id": "gendj:83aed3ceaee337d456cebfcc47a81e56",
			"type": [
				"skos:Concept",
				"gendj:Job"
			],
			"broader": [
				"gendj:050ad8d9a61484b5f48325aa31876c9f"
			],
			"narrower": [
				"gendj:db6e82d5a0f1edddb8d4a0f08ad5d257",
				"gendj:70f1767f262d19764ad98a51e23a42e5",
				"gendj:9a79f93e79a06ab26f4a12eb4f8e457b",
				"gendj:ef893e2428bec351c65dc45c285cd17c"
			],
			"prefLabel": [
				{
					"@language": "fr",
					"@value": "Cybersécurité"
				}
			],
			"inScheme": [
				"gendj:scheme_for_Concept_generated"
			]
		},
		{
			"id": "gendj:8437a16a116d3d5a38f6e9c6db3e4386",
			"type": [
				"skos:Concept",
				"gendj:Position"
			],
			"altLabel": [
				{
					"@language": "fr",
					"@value": "Développeur full-stack"
				},
				{
					"@language": "fr",
					"@value": "Développeur fullstack"
				}
			],
			"broader": [
				"gendj:02da0726b54fc3c4802d3a3f4b10c35a"
			],
			"prefLabel": [
				{
					"@language": "fr",
					"@value": "Développeur Full Stack"
				}
			],
			"inScheme": [
				"gendj:scheme_for_Concept_generated"
			]
		},
		{
			"id": "gendj:8443d0746daee770ab327383fc7e1a8a",
			"type": [
				"skos:Concept",
				"gendj:Job"
			],
			"broader": [
				"gendj:3f8ac3e9fc8670e9ce4d94172dfdbdd1"
			],
			"narrower": [
				"gendj:38e23fb43814660958cc08f586480e75",
				"gendj:0828399d4781d10fd0e360669d7b66ca"
			],
			"prefLabel": [
				{
					"@language": "fr",
					"@value": "Management Produit"
				}
			],
			"inScheme": [
				"gendj:scheme_for_Concept_generated"
			]
		},
		{
			"id": "gendj:84f522ce9bcdb7e12a67b08188e8e5e8",
			"type": [
				"skos:Concept",
				"gendj:Sector"
			],
			"narrower": [
				"gendj:c8c28547f4e452d082dc8cc56bcbcee9",
				"gendj:40f6c0d380feb079aaffac4cb08161ad",
				"gendj:7ba007b50f3c6f1c60767749a88d6c61"
			],
			"prefLabel": [
				{
					"@language": "fr",
					"@value": "Installation / maintenance / télécoms"
				}
			],
			"inScheme": [
				"gendj:scheme_for_Concept_generated"
			]
		},
		{
			"id": "gendj:857047f5b79ac18d9f74c981cd62831d",
			"type": [
				"skos:Concept",
				"gendj:Sector"
			],
			"narrower": [
				"gendj:985c093aeec2b957ced149411af4981d",
				"gendj:327cb90e333e73c55c482915f040979e",
				"gendj:c7ec83e18d0cfbd6557cad24305981c7",
				"gendj:7312322ba27c230710db8f79e4df0151",
				"gendj:6866942113cae9825303ded0ed024999",
				"gendj:009746388c58ea81de3cdbcd866fcba0",
				"gendj:8d0c05fb6d41872112f340b8a2251d27",
				"gendj:8c8349bb60239604b4f87a4d29db49eb",
				"gendj:c70f2836e0e5d1cf52d7638e24601c63",
				"gendj:82d61d3ddd5d9c9d1219c778e164610a"
			],
			"prefLabel": [
				{
					"@language": "fr",
					"@value": "Communication digitale, marketing et e-Commerce"
				}
			],
			"inScheme": [
				"gendj:scheme_for_Concept_generated"
			]
		},
		{
			"id": "gendj:862722dd64a081deba077d42fe259019",
			"type": [
				"skos:Concept",
				"gendj:Position"
			],
			"broader": [
				"gendj:bfae0573ae438043011ac71fd4440301"
			],
			"prefLabel": [
				{
					"@language": "fr",
					"@value": "Développeur de jeux vidéos"
				}
			],
			"inScheme": [
				"gendj:scheme_for_Concept_generated"
			]
		},
		{
			"id": "gendj:8644334e813fee6d9245e238340bf4cf",
			"type": [
				"skos:Concept",
				"gendj:Position"
			],
			"broader": [
				"gendj:8d0c05fb6d41872112f340b8a2251d27"
			],
			"prefLabel": [
				{
					"@language": "fr",
					"@value": "Chargé de marketing digital"
				}
			],
			"inScheme": [
				"gendj:scheme_for_Concept_generated"
			]
		},
		{
			"id": "gendj:87587ab424a2e1305b12a450147c5f73",
			"type": [
				"skos:Concept",
				"gendj:Position"
			],
			"broader": [
				"gendj:638f686ab00e5e8166d3f2f115feaffb"
			],
			"prefLabel": [
				{
					"@language": "fr",
					"@value": "Architecte Logiciel"
				}
			],
			"inScheme": [
				"gendj:scheme_for_Concept_generated"
			]
		},
		{
			"id": "gendj:880662098027c5a4497c10d49c28c3f9",
			"type": [
				"skos:Concept",
				"gendj:Job"
			],
			"broader": [
				"gendj:050ad8d9a61484b5f48325aa31876c9f"
			],
			"narrower": [
				"gendj:2b1ac807ccae5aca3d740581af29df28",
				"gendj:fbabc9caffabd4d541606b9001b2993d",
				"gendj:6307e3aee4b899fd85573e67992262bc",
				"gendj:8c77822e8b0b0f8a029dd23a19fbf8aa",
				"gendj:a3516b4ffcb54dcbe86e6c3a59984c74",
				"gendj:f621e0076fc9626f5a107a90b62e7231"
			],
			"prefLabel": [
				{
					"@language": "fr",
					"@value": "Système d'information"
				}
			],
			"inScheme": [
				"gendj:scheme_for_Concept_generated"
			]
		},
		{
			"id": "gendj:8bd0c178359df64f9e0160d9e10202bc",
			"type": [
				"skos:Concept",
				"gendj:Position"
			],
			"broader": [
				"gendj:daa4bf462e25ed53c0fda685b6436cdf"
			],
			"prefLabel": [
				{
					"@language": "fr",
					"@value": "Chargé de projet Data"
				}
			],
			"inScheme": [
				"gendj:scheme_for_Concept_generated"
			]
		},
		{
			"id": "gendj:8c707971c2def37af5449377efa74286",
			"type": [
				"skos:Concept",
				"gendj:Position"
			],
			"broader": [
				"gendj:985c093aeec2b957ced149411af4981d"
			],
			"prefLabel": [
				{
					"@language": "fr",
					"@value": "Responsable communication digitale"
				}
			],
			"inScheme": [
				"gendj:scheme_for_Concept_generated"
			]
		},
		{
			"id": "gendj:8c77822e8b0b0f8a029dd23a19fbf8aa",
			"type": [
				"skos:Concept",
				"gendj:Position"
			],
			"broader": [
				"gendj:880662098027c5a4497c10d49c28c3f9"
			],
			"prefLabel": [
				{
					"@language": "fr",
					"@value": "Responsable Sécurité de l'information"
				}
			],
			"inScheme": [
				"gendj:scheme_for_Concept_generated"
			]
		},
		{
			"id": "gendj:8c8349bb60239604b4f87a4d29db49eb",
			"type": [
				"skos:Concept",
				"gendj:Job"
			],
			"broader": [
				"gendj:857047f5b79ac18d9f74c981cd62831d"
			],
			"narrower": [
				"gendj:1b9760f8f43edb962737cdb9cca65327"
			],
			"prefLabel": [
				{
					"@language": "fr",
					"@value": "SEA/SEO/SEM"
				}
			],
			"inScheme": [
				"gendj:scheme_for_Concept_generated"
			]
		},
		{
			"id": "gendj:8d0c05fb6d41872112f340b8a2251d27",
			"type": [
				"skos:Concept",
				"gendj:Job"
			],
			"broader": [
				"gendj:857047f5b79ac18d9f74c981cd62831d"
			],
			"narrower": [
				"gendj:8644334e813fee6d9245e238340bf4cf",
				"gendj:a3beb59ba7fbe82fe671487df38a9038",
				"gendj:cc3411b367fa330bbbc04397101cc3c2"
			],
			"prefLabel": [
				{
					"@language": "fr",
					"@value": "Marketing digital"
				}
			],
			"inScheme": [
				"gendj:scheme_for_Concept_generated"
			]
		},
		{
			"id": "gendj:91a5a3d2af6d6cefe9a319a22e2cec97",
			"type": [
				"skos:Concept",
				"gendj:Position"
			],
			"broader": [
				"gendj:327cb90e333e73c55c482915f040979e"
			],
			"prefLabel": [
				{
					"@language": "fr",
					"@value": "Community manager"
				}
			],
			"inScheme": [
				"gendj:scheme_for_Concept_generated"
			]
		},
		{
			"id": "gendj:91b653f68b267062c876bfbee1af2704",
			"type": [
				"skos:Concept",
				"gendj:Position"
			],
			"broader": [
				"gendj:7ba007b50f3c6f1c60767749a88d6c61"
			],
			"prefLabel": [
				{
					"@language": "fr",
					"@value": "Technicien de déploiement de fibre optique"
				}
			],
			"inScheme": [
				"gendj:scheme_for_Concept_generated"
			]
		},
		{
			"id": "gendj:939b02e3ea6d1380b4dc8e3a672de182",
			"type": [
				"skos:Concept",
				"gendj:Job"
			],
			"broader": [
				"gendj:3f8ac3e9fc8670e9ce4d94172dfdbdd1"
			],
			"narrower": [
				"gendj:29e779ef7908548ce006f50a8a08544e",
				"gendj:24d97318cbb647475240748d72c4a14f",
				"gendj:272314d1e0065ab2d628fb74bf629134",
				"gendj:220b2fd213a05d104e065bb9c623eecd",
				"gendj:9abdd4a066c0e297b25b90d402ba4a42",
				"gendj:dc1b439fb4ae7c2fc3a435a479791631"
			],
			"prefLabel": [
				{
					"@language": "fr",
					"@value": "Gestion de projet digital"
				}
			],
			"inScheme": [
				"gendj:scheme_for_Concept_generated"
			]
		},
		{
			"id": "gendj:9559f6277009c29a78ff90b6d924eb5d",
			"type": [
				"skos:Concept",
				"gendj:Position"
			],
			"broader": [
				"gendj:6c9f28e674295813eab00969824c2a3d"
			],
			"prefLabel": [
				{
					"@language": "fr",
					"@value": "Ingénieur logiciel en robotique"
				}
			],
			"inScheme": [
				"gendj:scheme_for_Concept_generated"
			]
		},
		{
			"id": "gendj:9628647a2cebe1ed40f12debd279ce00",
			"type": [
				"skos:Concept",
				"gendj:Position"
			],
			"broader": [
				"gendj:40f6c0d380feb079aaffac4cb08161ad"
			],
			"prefLabel": [
				{
					"@language": "fr",
					"@value": "Gestionnaire de parc micro-informatique"
				}
			],
			"inScheme": [
				"gendj:scheme_for_Concept_generated"
			]
		},
		{
			"id": "gendj:985c093aeec2b957ced149411af4981d",
			"type": [
				"skos:Concept",
				"gendj:Job"
			],
			"broader": [
				"gendj:857047f5b79ac18d9f74c981cd62831d"
			],
			"narrower": [
				"gendj:9869c5b057508546cf8e7b226e8a695d",
				"gendj:d5a719d439341d02dbbfe838db8bdc82",
				"gendj:8c707971c2def37af5449377efa74286"
			],
			"prefLabel": [
				{
					"@language": "fr",
					"@value": "Communication digitale"
				}
			],
			"inScheme": [
				"gendj:scheme_for_Concept_generated"
			]
		},
		{
			"id": "gendj:9869c5b057508546cf8e7b226e8a695d",
			"type": [
				"skos:Concept",
				"gendj:Position"
			],
			"broader": [
				"gendj:985c093aeec2b957ced149411af4981d"
			],
			"prefLabel": [
				{
					"@language": "fr",
					"@value": "Chargé de communication web"
				}
			],
			"inScheme": [
				"gendj:scheme_for_Concept_generated"
			]
		},
		{
			"id": "gendj:9a79f93e79a06ab26f4a12eb4f8e457b",
			"type": [
				"skos:Concept",
				"gendj:Position"
			],
			"broader": [
				"gendj:83aed3ceaee337d456cebfcc47a81e56"
			],
			"prefLabel": [
				{
					"@language": "fr",
					"@value": "Pen testeur"
				}
			],
			"inScheme": [
				"gendj:scheme_for_Concept_generated"
			]
		},
		{
			"id": "gendj:9abdd4a066c0e297b25b90d402ba4a42",
			"type": [
				"skos:Concept",
				"gendj:Position"
			],
			"broader": [
				"gendj:939b02e3ea6d1380b4dc8e3a672de182"
			],
			"prefLabel": [
				{
					"@language": "fr",
					"@value": "Directeur de projet"
				}
			],
			"inScheme": [
				"gendj:scheme_for_Concept_generated"
			]
		},
		{
			"id": "gendj:9b11a000374930612bbf8b81948c6a0d",
			"type": [
				"skos:Concept",
				"gendj:Position"
			],
			"broader": [
				"gendj:4a49adc5107722718082bb0ab203f98f"
			],
			"prefLabel": [
				{
					"@language": "fr",
					"@value": "Entrepreneur digital"
				}
			],
			"inScheme": [
				"gendj:scheme_for_Concept_generated"
			]
		},
		{
			"id": "gendj:9e40561ba4abaa64b11866366040762a",
			"type": [
				"skos:Concept",
				"gendj:Position"
			],
			"broader": [
				"gendj:009746388c58ea81de3cdbcd866fcba0"
			],
			"prefLabel": [
				{
					"@language": "fr",
					"@value": "Growth hacker"
				}
			],
			"inScheme": [
				"gendj:scheme_for_Concept_generated"
			]
		},
		{
			"id": "gendj:9e9b9dc1c96f36a97ec5ef711f1fd5e5",
			"type": [
				"skos:Concept",
				"gendj:Position"
			],
			"altLabel": [
				{
					"@language": "fr",
					"@value": "CRM manager"
				}
			],
			"broader": [
				"gendj:5251090e44a6c4be11f81033168f3df6"
			],
			"prefLabel": [
				{
					"@language": "fr",
					"@value": "Responsable CRM"
				}
			],
			"inScheme": [
				"gendj:scheme_for_Concept_generated"
			]
		},
		{
			"id": "gendj:9f6019b39435ca6ede7c9cffbe0a1556",
			"type": [
				"skos:Concept",
				"gendj:Position"
			],
			"altLabel": [
				{
					"@language": "fr",
					"@value": "Data host"
				}
			],
			"broader": [
				"gendj:daa4bf462e25ed53c0fda685b6436cdf"
			],
			"prefLabel": [
				{
					"@language": "fr",
					"@value": "Data Hôte.sse"
				}
			],
			"inScheme": [
				"gendj:scheme_for_Concept_generated"
			]
		},
		{
			"id": "gendj:a00b05cb9e91878739c66b311c4c1383",
			"type": [
				"skos:Concept",
				"gendj:Position"
			],
			"broader": [
				"gendj:6866942113cae9825303ded0ed024999"
			],
			"prefLabel": [
				{
					"@language": "fr",
					"@value": "Couteau suisse du numérique"
				}
			],
			"inScheme": [
				"gendj:scheme_for_Concept_generated"
			]
		},
		{
			"id": "gendj:a3516b4ffcb54dcbe86e6c3a59984c74",
			"type": [
				"skos:Concept",
				"gendj:Position"
			],
			"broader": [
				"gendj:880662098027c5a4497c10d49c28c3f9"
			],
			"prefLabel": [
				{
					"@language": "fr",
					"@value": "Responsable sécurité des systèmes d'information"
				}
			],
			"inScheme": [
				"gendj:scheme_for_Concept_generated"
			]
		},
		{
			"id": "gendj:a3beb59ba7fbe82fe671487df38a9038",
			"type": [
				"skos:Concept",
				"gendj:Position"
			],
			"broader": [
				"gendj:8d0c05fb6d41872112f340b8a2251d27"
			],
			"prefLabel": [
				{
					"@language": "fr",
					"@value": "Chef de projet marketing digital"
				}
			],
			"inScheme": [
				"gendj:scheme_for_Concept_generated"
			]
		},
		{
			"id": "gendj:a42b575c2f92689b7e68f60fb7d6fe85",
			"type": [
				"skos:Concept",
				"gendj:Position"
			],
			"broader": [
				"gendj:b48edafd2f1f88ec9b3a7fd8d9cfaf21"
			],
			"prefLabel": [
				{
					"@language": "fr",
					"@value": "Chef de projet web"
				}
			],
			"inScheme": [
				"gendj:scheme_for_Concept_generated"
			]
		},
		{
			"id": "gendj:a6d6b19ae285996d589baada388227d0",
			"type": [
				"skos:Concept",
				"gendj:Position"
			],
			"broader": [
				"gendj:daa4bf462e25ed53c0fda685b6436cdf"
			],
			"prefLabel": [
				{
					"@language": "fr",
					"@value": "Data Architect"
				}
			],
			"inScheme": [
				"gendj:scheme_for_Concept_generated"
			]
		},
		{
			"id": "gendj:a95edfc831fa29aede96d8785419ea3f",
			"type": [
				"skos:Concept",
				"gendj:Position"
			],
			"broader": [
				"gendj:40f6c0d380feb079aaffac4cb08161ad"
			],
			"prefLabel": [
				{
					"@language": "fr",
					"@value": "Expert en technologie de l’information"
				}
			],
			"inScheme": [
				"gendj:scheme_for_Concept_generated"
			]
		},
		{
			"id": "gendj:b025f7e2cc70c0d0e3f55c8803b9ea95",
			"type": [
				"skos:Concept",
				"gendj:Position"
			],
			"broader": [
				"gendj:bfae0573ae438043011ac71fd4440301"
			],
			"prefLabel": [
				{
					"@language": "fr",
					"@value": "Game designer"
				}
			],
			"inScheme": [
				"gendj:scheme_for_Concept_generated"
			]
		},
		{
			"id": "gendj:b0931639b922c8b4fc69abad6c32d6e8",
			"type": [
				"skos:Concept",
				"gendj:Position"
			],
			"broader": [
				"gendj:43c522c662105b4f07e41a0847b6829d"
			],
			"prefLabel": [
				{
					"@language": "fr",
					"@value": "Security Architect"
				}
			],
			"inScheme": [
				"gendj:scheme_for_Concept_generated"
			]
		},
		{
			"id": "gendj:b0fbabdba1ee6c6b36530079b28762d5",
			"type": [
				"skos:Concept",
				"gendj:Position"
			],
			"broader": [
				"gendj:341445d5de63d87089d3d62de5171642"
			],
			"prefLabel": [
				{
					"@language": "fr",
					"@value": "Vidéaste"
				}
			],
			"inScheme": [
				"gendj:scheme_for_Concept_generated"
			]
		},
		{
			"id": "gendj:b2f5c61d1dbfa9fe15385fdee05d9901",
			"type": [
				"skos:Concept",
				"gendj:Position"
			],
			"broader": [
				"gendj:4a49adc5107722718082bb0ab203f98f"
			],
			"prefLabel": [
				{
					"@language": "fr",
					"@value": "Startupper"
				}
			],
			"inScheme": [
				"gendj:scheme_for_Concept_generated"
			]
		},
		{
			"id": "gendj:b48edafd2f1f88ec9b3a7fd8d9cfaf21",
			"type": [
				"skos:Concept",
				"gendj:Job"
			],
			"broader": [
				"gendj:3f8ac3e9fc8670e9ce4d94172dfdbdd1"
			],
			"narrower": [
				"gendj:a42b575c2f92689b7e68f60fb7d6fe85",
				"gendj:6b0ab74fa5936d3b78c643220c27af6c"
			],
			"prefLabel": [
				{
					"@language": "fr",
					"@value": "Gestion de site web"
				}
			],
			"inScheme": [
				"gendj:scheme_for_Concept_generated"
			]
		},
		{
			"id": "gendj:b586fb1954ca6cde758ca98e5724a5c5",
			"type": [
				"skos:Concept",
				"gendj:Position"
			],
			"broader": [
				"gendj:54d829f6ca4b4a8e1284510a8e63f128"
			],
			"prefLabel": [
				{
					"@language": "fr",
					"@value": "Fablab manager"
				}
			],
			"inScheme": [
				"gendj:scheme_for_Concept_generated"
			]
		},
		{
			"id": "gendj:bcde1dda91d2ac45cb0156af7a8db186",
			"type": [
				"skos:Concept",
				"gendj:Position"
			],
			"broader": [
				"gendj:7312322ba27c230710db8f79e4df0151"
			],
			"prefLabel": [
				{
					"@language": "fr",
					"@value": "Digital business developer"
				}
			],
			"inScheme": [
				"gendj:scheme_for_Concept_generated"
			]
		},
		{
			"id": "gendj:bcdf382738f8668ccf01a6551fe94ea5",
			"type": [
				"skos:Concept",
				"gendj:Position"
			],
			"broader": [
				"gendj:3810407a71b2a6b3b51a64231aafd4c8"
			],
			"prefLabel": [
				{
					"@language": "fr",
					"@value": "Ingénieur Cloud computing"
				}
			],
			"inScheme": [
				"gendj:scheme_for_Concept_generated"
			]
		},
		{
			"id": "gendj:be219c578fdc0a37c32de5745d534fb0",
			"type": [
				"skos:Concept",
				"gendj:Position"
			],
			"broader": [
				"gendj:ec2942ea75c8ecfadca5731ebbeff305"
			],
			"prefLabel": [
				{
					"@language": "fr",
					"@value": "Développeur blockchain"
				}
			],
			"inScheme": [
				"gendj:scheme_for_Concept_generated"
			]
		},
		{
			"id": "gendj:bfae0573ae438043011ac71fd4440301",
			"type": [
				"skos:Concept",
				"gendj:Job"
			],
			"broader": [
				"gendj:452b0dc419537c26fd4405ade3289f17"
			],
			"narrower": [
				"gendj:862722dd64a081deba077d42fe259019",
				"gendj:b025f7e2cc70c0d0e3f55c8803b9ea95",
				"gendj:78b4d4d371a74ce4fd2431ba3a3881bb"
			],
			"prefLabel": [
				{
					"@language": "fr",
					"@value": "Jeux vidéos"
				}
			],
			"inScheme": [
				"gendj:scheme_for_Concept_generated"
			]
		},
		{
			"id": "gendj:c70f2836e0e5d1cf52d7638e24601c63",
			"type": [
				"skos:Concept",
				"gendj:Job"
			],
			"broader": [
				"gendj:857047f5b79ac18d9f74c981cd62831d"
			],
			"narrower": [
				"gendj:d03dc43ddd111bfbfe5031da339129e9"
			],
			"prefLabel": [
				{
					"@language": "fr",
					"@value": "Traffic Management"
				}
			],
			"inScheme": [
				"gendj:scheme_for_Concept_generated"
			]
		},
		{
			"id": "gendj:c7ec83e18d0cfbd6557cad24305981c7",
			"type": [
				"skos:Concept",
				"gendj:Job"
			],
			"broader": [
				"gendj:857047f5b79ac18d9f74c981cd62831d"
			],
			"narrower": [
				"gendj:5244b348cf49af1fa83f323a3bb0de51",
				"gendj:f0f5fef22524bd151ed4ba6171f27643"
			],
			"prefLabel": [
				{
					"@language": "fr",
					"@value": "Content management / rédaction web"
				}
			],
			"inScheme": [
				"gendj:scheme_for_Concept_generated"
			]
		},
		{
			"id": "gendj:c8c28547f4e452d082dc8cc56bcbcee9",
			"type": [
				"skos:Concept",
				"gendj:Job"
			],
			"broader": [
				"gendj:84f522ce9bcdb7e12a67b08188e8e5e8"
			],
			"narrower": [
				"gendj:1c58feec9438ce882c6bd17a1a439680",
				"gendj:4438494562248a5caab4bb1f8971eef6",
				"gendj:fc558479a6b35ffd5765d701d34f8c5a"
			],
			"prefLabel": [
				{
					"@language": "fr",
					"@value": "Support technique"
				}
			],
			"inScheme": [
				"gendj:scheme_for_Concept_generated"
			]
		},
		{
			"id": "gendj:cc3411b367fa330bbbc04397101cc3c2",
			"type": [
				"skos:Concept",
				"gendj:Position"
			],
			"broader": [
				"gendj:8d0c05fb6d41872112f340b8a2251d27"
			],
			"prefLabel": [
				{
					"@language": "fr",
					"@value": "Responsable marketing digital"
				}
			],
			"inScheme": [
				"gendj:scheme_for_Concept_generated"
			]
		},
		{
			"id": "gendj:d03dc43ddd111bfbfe5031da339129e9",
			"type": [
				"skos:Concept",
				"gendj:Position"
			],
			"broader": [
				"gendj:c70f2836e0e5d1cf52d7638e24601c63"
			],
			"prefLabel": [
				{
					"@language": "fr",
					"@value": "Traffic manager"
				}
			],
			"inScheme": [
				"gendj:scheme_for_Concept_generated"
			]
		},
		{
			"id": "gendj:d40675a4228566c0cb31f19d5a949402",
			"type": [
				"skos:Concept",
				"gendj:Position"
			],
			"broader": [
				"gendj:e8575a24fb0133042ec2ef7563d6f843"
			],
			"prefLabel": [
				{
					"@language": "fr",
					"@value": "Animateur 3D"
				}
			],
			"inScheme": [
				"gendj:scheme_for_Concept_generated"
			]
		},
		{
			"id": "gendj:d5a719d439341d02dbbfe838db8bdc82",
			"type": [
				"skos:Concept",
				"gendj:Position"
			],
			"broader": [
				"gendj:985c093aeec2b957ced149411af4981d"
			],
			"prefLabel": [
				{
					"@language": "fr",
					"@value": "Chef de projet communication digitale"
				}
			],
			"inScheme": [
				"gendj:scheme_for_Concept_generated"
			]
		},
		{
			"id": "gendj:d6fc303db1ce4ce41ec443fb9e98b59d",
			"type": [
				"skos:Concept",
				"gendj:Position"
			],
			"broader": [
				"gendj:eff3a760899f3917ca95437f129eb695"
			],
			"prefLabel": [
				{
					"@language": "fr",
					"@value": "Ingénieur DevOps"
				}
			],
			"inScheme": [
				"gendj:scheme_for_Concept_generated"
			]
		},
		{
			"id": "gendj:d756443aa4ad46644535e3c2fd19cf23",
			"type": [
				"skos:Concept",
				"gendj:Position"
			],
			"broader": [
				"gendj:daa4bf462e25ed53c0fda685b6436cdf"
			],
			"prefLabel": [
				{
					"@language": "fr",
					"@value": "Développeur Data"
				}
			],
			"inScheme": [
				"gendj:scheme_for_Concept_generated"
			]
		},
		{
			"id": "gendj:daa4bf462e25ed53c0fda685b6436cdf",
			"type": [
				"skos:Concept",
				"gendj:Job"
			],
			"broader": [
				"gendj:7aa6df5d5ea9c9a5c1005e0b0c3981b2"
			],
			"narrower": [
				"gendj:8bd0c178359df64f9e0160d9e10202bc",
				"gendj:d756443aa4ad46644535e3c2fd19cf23",
				"gendj:e2e37afbc3dffecd80c3abcf8268cedf",
				"gendj:a6d6b19ae285996d589baada388227d0",
				"gendj:7bc4155a103e6ec0fed6dc7a2ba2ee60",
				"gendj:9f6019b39435ca6ede7c9cffbe0a1556",
				"gendj:2b100f453dcc39b0029245e32ca64de8",
				"gendj:3f1bbaec1550aa3a4cd4f212c95c4f0f",
				"gendj:54eb0d2bf9678c61e9e1981f6a1adf15",
				"gendj:7343b5e5c42ff2f81101c7933cff2153",
				"gendj:1f103790cbd158709be248be52db7d9e"
			],
			"prefLabel": [
				{
					"@language": "fr",
					"@value": "Data / Big data"
				}
			],
			"inScheme": [
				"gendj:scheme_for_Concept_generated"
			]
		},
		{
			"id": "gendj:db6e82d5a0f1edddb8d4a0f08ad5d257",
			"type": [
				"skos:Concept",
				"gendj:Position"
			],
			"broader": [
				"gendj:83aed3ceaee337d456cebfcc47a81e56"
			],
			"prefLabel": [
				{
					"@language": "fr",
					"@value": "Analyste SOC"
				}
			],
			"inScheme": [
				"gendj:scheme_for_Concept_generated"
			]
		},
		{
			"id": "gendj:dc1b439fb4ae7c2fc3a435a479791631",
			"type": [
				"skos:Concept",
				"gendj:Position"
			],
			"broader": [
				"gendj:939b02e3ea6d1380b4dc8e3a672de182"
			],
			"prefLabel": [
				{
					"@language": "fr",
					"@value": "Scrum master"
				}
			],
			"inScheme": [
				"gendj:scheme_for_Concept_generated"
			]
		},
		{
			"id": "gendj:dc4fe1e02a6b22cfc8d9606eb0eb671f",
			"type": [
				"skos:Concept",
				"gendj:Position"
			],
			"broader": [
				"gendj:e8575a24fb0133042ec2ef7563d6f843"
			],
			"prefLabel": [
				{
					"@language": "fr",
					"@value": "UX Designer"
				}
			],
			"inScheme": [
				"gendj:scheme_for_Concept_generated"
			]
		},
		{
			"id": "gendj:dcb4fdf85a400e1cdc5021174d256440",
			"type": [
				"skos:Concept",
				"gendj:Position"
			],
			"broader": [
				"gendj:ec2942ea75c8ecfadca5731ebbeff305"
			],
			"prefLabel": [
				{
					"@language": "fr",
					"@value": "Technicien blockchain"
				}
			],
			"inScheme": [
				"gendj:scheme_for_Concept_generated"
			]
		},
		{
			"id": "gendj:de16da9bbad20c3ab14fe41eb4169b07",
			"type": [
				"skos:Concept",
				"gendj:Sector"
			],
			"narrower": [
				"gendj:02da0726b54fc3c4802d3a3f4b10c35a",
				"gendj:eff3a760899f3917ca95437f129eb695",
				"gendj:638f686ab00e5e8166d3f2f115feaffb",
				"gendj:1243d496eff99c1a8104b3b018d3394b"
			],
			"prefLabel": [
				{
					"@language": "fr",
					"@value": "Développement, test et Ops"
				}
			],
			"inScheme": [
				"gendj:scheme_for_Concept_generated"
			]
		},
		{
			"id": "gendj:dec099936d7969fb15b225d64df4418c",
			"type": [
				"skos:Concept",
				"gendj:Position"
			],
			"broader": [
				"gendj:39cd2a92fd90a1bb9e4397241f1654a7"
			],
			"prefLabel": [
				{
					"@language": "fr",
					"@value": "Architecte base de données"
				}
			],
			"inScheme": [
				"gendj:scheme_for_Concept_generated"
			]
		},
		{
			"id": "gendj:e2e37afbc3dffecd80c3abcf8268cedf",
			"type": [
				"skos:Concept",
				"gendj:Position"
			],
			"broader": [
				"gendj:daa4bf462e25ed53c0fda685b6436cdf"
			],
			"prefLabel": [
				{
					"@language": "fr",
					"@value": "Data Analyst"
				}
			],
			"inScheme": [
				"gendj:scheme_for_Concept_generated"
			]
		},
		{
			"id": "gendj:e34f480ea2cf2a201a726cc3506f7d6b",
			"type": [
				"skos:Concept",
				"gendj:Position"
			],
			"broader": [
				"gendj:3810407a71b2a6b3b51a64231aafd4c8"
			],
			"prefLabel": [
				{
					"@language": "fr",
					"@value": "Architecte Cloud"
				}
			],
			"inScheme": [
				"gendj:scheme_for_Concept_generated"
			]
		},
		{
			"id": "gendj:e6def0affe3fdec55a0dd6269d8139e2",
			"type": [
				"skos:Concept",
				"gendj:Position"
			],
			"broader": [
				"gendj:75f659fb23542eaa437061dea110db23"
			],
			"prefLabel": [
				{
					"@language": "fr",
					"@value": "IA product Manager"
				}
			],
			"inScheme": [
				"gendj:scheme_for_Concept_generated"
			]
		},
		{
			"id": "gendj:e8575a24fb0133042ec2ef7563d6f843",
			"type": [
				"skos:Concept",
				"gendj:Job"
			],
			"broader": [
				"gendj:452b0dc419537c26fd4405ade3289f17"
			],
			"narrower": [
				"gendj:d40675a4228566c0cb31f19d5a949402",
				"gendj:15e70e2a64abc16f6eaec1ffdc59321a",
				"gendj:4dae0f2d7ea57400a714b21d7aea049b",
				"gendj:7eb85b0c533b09a6dabcaba961b8a277",
				"gendj:dc4fe1e02a6b22cfc8d9606eb0eb671f",
				"gendj:4fa32fc84a206c7e08b67ad288762e7c"
			],
			"prefLabel": [
				{
					"@language": "fr",
					"@value": "Graphisme / Design"
				}
			],
			"inScheme": [
				"gendj:scheme_for_Concept_generated"
			]
		},
		{
			"id": "gendj:ec2942ea75c8ecfadca5731ebbeff305",
			"type": [
				"skos:Concept",
				"gendj:Job"
			],
			"broader": [
				"gendj:7aa6df5d5ea9c9a5c1005e0b0c3981b2"
			],
			"narrower": [
				"gendj:be219c578fdc0a37c32de5745d534fb0",
				"gendj:dcb4fdf85a400e1cdc5021174d256440"
			],
			"prefLabel": [
				{
					"@language": "fr",
					"@value": "Blockchain"
				}
			],
			"inScheme": [
				"gendj:scheme_for_Concept_generated"
			]
		},
		{
			"id": "gendj:ef6dee340ebc1ff2ecd97f5ef9ed8e53",
			"type": [
				"skos:Concept",
				"gendj:Position"
			],
			"broader": [
				"gendj:54d829f6ca4b4a8e1284510a8e63f128"
			],
			"prefLabel": [
				{
					"@language": "fr",
					"@value": "Forgeur numérique"
				}
			],
			"inScheme": [
				"gendj:scheme_for_Concept_generated"
			]
		},
		{
			"id": "gendj:ef893e2428bec351c65dc45c285cd17c",
			"type": [
				"skos:Concept",
				"gendj:Position"
			],
			"broader": [
				"gendj:83aed3ceaee337d456cebfcc47a81e56"
			],
			"prefLabel": [
				{
					"@language": "fr",
					"@value": "Technicien cybersécurité"
				}
			],
			"inScheme": [
				"gendj:scheme_for_Concept_generated"
			]
		},
		{
			"id": "gendj:eff3a760899f3917ca95437f129eb695",
			"type": [
				"skos:Concept",
				"gendj:Job"
			],
			"broader": [
				"gendj:de16da9bbad20c3ab14fe41eb4169b07"
			],
			"narrower": [
				"gendj:d6fc303db1ce4ce41ec443fb9e98b59d"
			],
			"prefLabel": [
				{
					"@language": "fr",
					"@value": "DevOps"
				}
			],
			"inScheme": [
				"gendj:scheme_for_Concept_generated"
			]
		},
		{
			"id": "gendj:f066c61b66c3400ea46a6b805df279a3",
			"type": [
				"skos:Concept",
				"gendj:Position"
			],
			"broader": [
				"gendj:02da0726b54fc3c4802d3a3f4b10c35a"
			],
			"prefLabel": [
				{
					"@language": "fr",
					"@value": "Intégrateur web"
				}
			],
			"inScheme": [
				"gendj:scheme_for_Concept_generated"
			]
		},
		{
			"id": "gendj:f0f5fef22524bd151ed4ba6171f27643",
			"type": [
				"skos:Concept",
				"gendj:Position"
			],
			"broader": [
				"gendj:c7ec83e18d0cfbd6557cad24305981c7"
			],
			"prefLabel": [
				{
					"@language": "fr",
					"@value": "Journaliste web"
				}
			],
			"inScheme": [
				"gendj:scheme_for_Concept_generated"
			]
		},
		{
			"id": "gendj:f621e0076fc9626f5a107a90b62e7231",
			"type": [
				"skos:Concept",
				"gendj:Position"
			],
			"broader": [
				"gendj:880662098027c5a4497c10d49c28c3f9"
			],
			"prefLabel": [
				{
					"@language": "fr",
					"@value": "Technicien d'exploitation"
				}
			],
			"inScheme": [
				"gendj:scheme_for_Concept_generated"
			]
		},
		{
			"id": "gendj:fbabc9caffabd4d541606b9001b2993d",
			"type": [
				"skos:Concept",
				"gendj:Position"
			],
			"broader": [
				"gendj:880662098027c5a4497c10d49c28c3f9"
			],
			"prefLabel": [
				{
					"@language": "fr",
					"@value": "Chef de projet systèmes d'information"
				}
			],
			"inScheme": [
				"gendj:scheme_for_Concept_generated"
			]
		},
		{
			"id": "gendj:fbea45d7b5345e8782106a6f6fe087dc",
			"type": [
				"skos:Concept",
				"gendj:Position"
			],
			"broader": [
				"gendj:1243d496eff99c1a8104b3b018d3394b"
			],
			"prefLabel": [
				{
					"@language": "fr",
					"@value": "Spécialiste test et validation"
				}
			],
			"inScheme": [
				"gendj:scheme_for_Concept_generated"
			]
		},
		{
			"id": "gendj:fc558479a6b35ffd5765d701d34f8c5a",
			"type": [
				"skos:Concept",
				"gendj:Position"
			],
			"broader": [
				"gendj:c8c28547f4e452d082dc8cc56bcbcee9"
			],
			"prefLabel": [
				{
					"@language": "fr",
					"@value": "Technicien helpdesk"
				}
			],
			"inScheme": [
				"gendj:scheme_for_Concept_generated"
			]
		},
		{
			"id": "gendj:fdf99806745b150ef06daf80fe09167c",
			"type": [
				"skos:Concept",
				"gendj:Position"
			],
			"broader": [
				"gendj:82d61d3ddd5d9c9d1219c778e164610a"
			],
			"prefLabel": [
				{
					"@language": "fr",
					"@value": "Responsable e-commerce"
				}
			],
			"inScheme": [
				"gendj:scheme_for_Concept_generated"
			]
		},
		{
			"id": "gendj:scheme_for_Concept_generated",
			"type": [
				"skos:ConceptScheme",
				"om:defaultScheme"
			],
			"description": [
				{
					"@language": "en",
					"@value": "Default scheme for Concept - autogenerated"
				},
				{
					"@language": "fr",
					"@value": "Scheme par défault pour les Concept - autogenéré"
				}
			],
			"title": [
				{
					"@language": "en",
					"@value": "Default Level"
				},
				{
					"@language": "fr",
					"@value": "Niveau par défaut"
				}
			]
		}
	]
}