{
 "@context": {"id":"@id","graph":{"@id":"@graph","@container":"@set"},"type":{"@id":"@type","@container":"@set"},"rdf":"http://www.w3.org/1999/02/22-rdf-syntax-ns#","rdfs":"http://www.w3.org/2000/01/rdf-schema#","xsd":"http://www.w3.org/2001/XMLSchema#","sh":"https://www.w3.org/ns/shacl#","dct":"http://purl.org/dc/terms/","domain":{"@id":"rdfs:domain","@type":"@id","@container":"@set"},"range":{"@id":"rdfs:range","@type":"@id","@container":"@set"},"label":{"@id":"rdfs:label","@container":"@set"},"comment":{"@id":"rdfs:comment","@container":"@set"},"subClassOf":{"@id":"rdfs:subClassOf","@type":"@id","@container":"@set"},"subPropertyOf":{"@id":"rdfs:subPropertyOf","@type":"@id","@container":"@set"},"isDefinedBy":{"@id":"rdfs:isDefinedBy","@container":"@set"},"seeAlso":{"@id":"rdfs:seeAlso","@container":"@set"},"maxCount":{"@id":"sh:maxCount","@type":"xsd:integer"},"minCount":{"@id":"sh:minCount","@type":"xsd:integer"},"path":{"@id":"sh:path","@type":"@id","@container":"@set"},"title":{"@id":"dct:title","@container":"@set"},"description":{"@id":"nfr:description","@container":"@set"},"date":{"@id":"dct:date","@container":"@set"},"sch":"http://schema.org/","address":{"@id":"sch:address","@container":"@set"},"stardDate":{"@id":"sch:stardDate","@container":"@set"},"author":{"@id":"sch:author","@container":"@set"},"image":{"@id":"sch:image","@container":"@set"},"provider":{"@id":"sch:provider","@container":"@set"},"publisher":{"@id":"sch:publisher","@container":"@set"},"url":{"@id":"sch:url","@container":"@set"},"name":{"@id":"sch:name","@container":"@set"},"logo":{"@id":"sch:logo","@container":"@set"},"identifier":{"@id":"sch:identifier","@type":"@id","@container":"@set"},"sch_contributor":{"@id":"sch:contributor","@type":"@id","@container":"@set"},"skos":"http://www.w3.org/2004/02/skos/core#","gendj":"https://gen.competencies.be/terms/digitalJobs/","inScheme":{"@id":"skos:inScheme","@type":"@id","@container":"@set"},"prefLabel":{"@id":"skos:prefLabel","@container":"@set"},"altLabel":{"@id":"skos:altLabel","@container":"@set"},"narrower":{"@id":"skos:narrower","@type":"@id","@container":"@set"},"broader":{"@id":"skos:broader","@type":"@id","@container":"@set"},"member":{"@id":"skos:member","@type":"@id","@container":"@set"},"definition":{"@id":"skos:definition","@container":"@set"},"scopeNote":{"@id":"skos:scopeNote","@container":"@set"},"example":{"@id":"skos:example","@container":"@set"},"openBadge":"https://w3id.org/openbadges#","badge":{"@id":"openBadge:badge","@type":"@id","@container":"@set"},"issuer":{"@id":"openBadge:issuer","@type":"@id","@container":"@set"},"issuedOn":{"@id":"openBadge:issuedOn","@container":"@set"},"recipient":{"@id":"openBadge:recipient","@container":"@set"},"openBadge_image":{"@id":"openBadge:image","@container":"@set"},"openBadge_name":{"@id":"openBadge:name","@container":"@set"},"openBadge_url":{"@id":"openBadge:url","@container":"@set"},"criteria":{"@id":"openBadge:criteria","@container":"@set"},"vs":"https://www.w3.org/2003/06/sw-vocab-status/ns/","owl":"http://www.w3.org/2002/07/owl#","nfr":"https://nodefr.competencies.be/nfr/","aPourNiveau":{"@id":"nfr:aPourNiveau","@container":"@set"},"chargeDeTravail":{"@id":"nfr:chargeDeTravail","@container":"@set"},"devise":{"@id":"nfr:devise","@container":"@set"},"montant":{"@id":"nfr:montant","@container":"@set"},"typeDActivite":{"@id":"nfr:typeDActivite","@container":"@set"},"ori":"https://ori.competencies.be/ori/","experienceStructure":{"@id":"ori:experienceStructure","@type":"@id","@container":"@set"},"experienceType":{"@id":"ori:experienceType","@type":"@id","@container":"@set"},"public":{"@id":"ori:public","@type":"@id","@container":"@set"},"role":{"@id":"ori:role","@type":"@id","@container":"@set"},"tache":{"@id":"ori:tache","@type":"@id","@container":"@set"},"hobby":{"@id":"ori:hobby","@type":"@id","@container":"@set"},"bloom":{"@id":"ori:bloom","@type":"@id","@container":"@set"}},
 "graph":[
{"id":"ori:bloom","type":["rdf:Property"],"comment":[{"@language":"fr","@value":"Classification du learning object selon la taxonomie de Bloom"}],"domain":["ori:LearningObject"],"label":[{"@language":"fr","@value":"type Bloom"}],"range":["ori:Bloom"]},
{"id":"ori:Bloom#understand~iri","type":["skos:Concept","ori:Bloom"],"prefLabel":[{"@language":"fr","@value":"understand"}]},
{"id":"ori:Bloom~iri","type":["rdfs:Class"],"comment":[{"@language":"fr","@value":"Type selon la taxonomie de Bloom"}],"label":[{"@language":"fr","@value":"Type Bloom"}]},
{"id":"ori:LearningObject/Analyzing%20Data%20with%20Python","type":["ori:LearningObject"],"author":["Joseph Santarcangelo"],"image":[{"id":"https://prod-discovery.edx-cdn.org/media/course/image/29a1e3b8-3e84-4b14-b60d-0fa97512e420-cea90db44606.small.png"}],"provider":["edX"],"publisher":["IBM","edX"],"url":[{"id":"https://www.edx.org/course/data-analysis-with-python"}],"prefLabel":["Analyzing Data with Python"],"aPourNiveau":["0.5"],"chargeDeTravail":["200h"],"description":["- Once you complete this course, continue onto Building Interactive Prototypes using JavaScript to enhance your prototype as you learn how to use JavaScript to allow interaction on your webpages."],"devise":["$"],"montant":["39.0"],"typeDActivite":["MOOC"],"bloom":["ori:Taxonomy/Bloom#understand"]},
{"id":"ori:LearningObject/Python%20Basics%20for%20Data%20Science","type":["ori:LearningObject"],"author":["Joseph Santarcangelo"],"image":[{"id":"https://prod-discovery.edx-cdn.org/media/course/image/381a0046-5d78-4790-8776-74620d59f48e-48611c7ca556.small.png"}],"provider":["edX"],"publisher":["IBM","edX"],"url":[{"id":"https://www.edx.org/course/python-basics-for-data-science-2"}],"prefLabel":["Python Basics for Data Science"],"aPourNiveau":["-1.0"],"chargeDeTravail":["40h"],"description":["Is cancer partly preventable through a healthy diet? Cancer has overtaken cardiovascular disease (CVD) as the leading cause of death in many parts of the world. It causes one in eight deaths worldwide. Global trends show that the majority of all cancer deaths occur in the low- and middle-income coun..."],"devise":["$"],"montant":["39.0"],"typeDActivite":["MOOC"],"bloom":["ori:Taxonomy/Bloom#understand"]},
{"id":"ori:LearningObject~iri","type":["rdfs:Class"],"comment":[{"@language":"fr","@value":"Classe permettant de représenter les traces d'apprentissage"}],"label":[{"@language":"fr","@value":"Traces d'apprentissage"}]},
{"id":"ori:Taxonomy/Bloom","type":["skos:Collection"],"comment":[{"@language":"fr","@value":"Collection SKOS permettant de représenter la taxonomie de Bloom"}],"label":[{"@language":"fr","@value":"Taxonomie de Bloom"}],"member":["ori:Bloom#understand"]}
]
}