{
	"name": "from skosMemberOf function",
	"layerRealm": [
		"skosMemberOf",
		"gx_1.22.10",
		"ismene"
	],
	"updateStrategy": "rdfx-gl:add",
	"ld": {
		"graph": [],
		"@context": {
			"id": "@id",
			"graph": {
				"@id": "@graph",
				"@container": "@set"
			},
			"type": {
				"@id": "@type",
				"@container": "@set"
			}
		}
	}
}